<?xml version="1.0" encoding="UTF-8" standalone="no"?>
<!-- Generator: Adobe Illustrator 24.0.1, SVG Export Plug-In . SVG Version: 6.00 Build 0)  -->

<svg
   xmlns:dc="http://purl.org/dc/elements/1.1/"
   xmlns:cc="http://creativecommons.org/ns#"
   xmlns:rdf="http://www.w3.org/1999/02/22-rdf-syntax-ns#"
   xmlns:svg="http://www.w3.org/2000/svg"
   xmlns="http://www.w3.org/2000/svg"
   xmlns:sodipodi="http://sodipodi.sourceforge.net/DTD/sodipodi-0.dtd"
   xmlns:inkscape="http://www.inkscape.org/namespaces/inkscape"
   version="1.1"
   x="0px"
   y="0px"
   viewBox="0 0 1000 592.4"
   style="enable-background:new 0 0 1000 592.4;"
   xml:space="preserve"
   id="svg2768"
   sodipodi:docname="dailyplastic.svg"
   inkscape:version="0.92.5 (2060ec1f9f, 2020-04-08)"><metadata
   id="metadata2774"><rdf:RDF><cc:Work
       rdf:about=""><dc:format>image/svg+xml</dc:format><dc:type
         rdf:resource="http://purl.org/dc/dcmitype/StillImage" /><dc:title></dc:title></cc:Work></rdf:RDF></metadata><defs
   id="defs2772">
	
	
	
	
	
	
	
	
	
	
	
	
	
	
	
</defs><sodipodi:namedview
   pagecolor="#ffffff"
   bordercolor="#666666"
   borderopacity="1"
   objecttolerance="10"
   gridtolerance="10"
   guidetolerance="10"
   inkscape:pageopacity="0"
   inkscape:pageshadow="2"
   inkscape:window-width="1920"
   inkscape:window-height="1015"
   id="namedview2770"
   showgrid="false"
   inkscape:zoom="1.321"
   inkscape:cx="500"
   inkscape:cy="296.20001"
   inkscape:window-x="0"
   inkscape:window-y="0"
   inkscape:window-maximized="1"
   inkscape:current-layer="svg2768" />
<style
   type="text/css"
   id="style2510">
	.st0{fill:#FFE87B;}
	.st1{fill:#1E1E1C;}
	.st2{fill:#1E1E1C;stroke:#1E1E1C;stroke-width:0.25;stroke-miterlimit:10;}
	.st3{fill:#1E1E1C;stroke:#1E1E1C;stroke-width:0.15;stroke-miterlimit:10;}
	.st4{fill:#FFFFFF;}
	.st5{stroke:#1E1E1C;stroke-miterlimit:10;}
	.st6{fill:none;stroke:#1E1E1C;stroke-width:3;stroke-linecap:round;stroke-linejoin:round;stroke-miterlimit:10;}
	.st7{stroke:#000000;stroke-width:1.5;stroke-miterlimit:10;}
</style>
<g
   id="Calque_2">
</g>
<g
   id="g2521">
		<path
   inkscape:connector-curvature="0"
   id="path2513"
   d="m 325.9,370.5 c 0,-2.7 0,-4.9 0,-7.1 0.1,-10.6 2.3,-20.8 5.1,-30.8 0.5,-1.7 1.4,-2.6 3,-3.1 6.4,-2 12.8,-3.3 19.5,-2.9 2,0.1 4,0.2 6,0 5.2,-0.4 8.5,2.4 10.8,6.5 1.5,2.8 2.7,5.8 3.5,8.9 4,15.8 5.5,31.9 4.3,48.2 -0.3,3.5 -1.2,6.9 -1.8,10.4 -0.1,0.8 -0.4,1.5 -0.6,2.3 0.3,0.1 0.4,0.3 0.5,0.3 5.4,-1.2 11.2,-0.9 16.3,-3.4 0.5,-0.2 1.1,-0.3 1.6,-0.5 3.6,-0.8 5.1,-0.3 7.1,2.8 1.7,2.7 3.5,5.4 4.8,8.3 1.1,2.4 2.5,4.6 4.1,6.7 0.7,1 1.4,2.1 1.9,3.3 0.8,2 0.4,3 -1.2,4.4 -1.9,1.6 -3.9,2.7 -6.4,3 -3.6,0.6 -7.2,1.3 -10.9,1.3 -1.7,0 -3.5,0.5 -5.2,0.9 -2.4,0.5 -4.8,1 -7.2,1.6 -2.2,0.5 -4.5,1.2 -6.7,1.8 -4.3,1.2 -8.7,1.4 -13,1.9 -2.1,0.3 -4.2,0.7 -6.4,1 -3.9,0.4 -7.8,0.7 -11.7,1 -1.6,0.1 -3.1,0.2 -5,0.3 -2,1.5 -4.1,3.4 -7.1,3.6 -2.9,2 -6.1,1.7 -9.2,0.8 -3.5,-0.9 -6.4,-2.9 -8.6,-5.8 -2.1,-2.7 -2.7,-5.7 -2.1,-9 0.5,-2.6 1.5,-4.9 3.1,-6.9 0.9,-1.3 2,-2.2 3.8,-2.2 0.4,0 0.9,-0.2 1.3,-0.4 3.6,-1.8 7.4,-2.3 11.4,-1.2 0.8,0.2 1.2,0 1.6,-0.9 -0.6,-0.1 -1.2,-0.2 -1.8,-0.3 -6.3,-0.2 -12.4,-0.9 -18.4,-2.9 -0.2,-0.1 -0.5,-0.1 -0.7,-0.2 -3.9,-1.3 -5,-2.5 -4.8,-6.6 0.2,-3.7 0.8,-7.4 1.4,-11.1 0.9,-5.6 1.8,-11.2 2.8,-16.8 0.7,-4 2.5,-5.8 6.6,-6.5 1.3,-0.2 2.7,-0.5 4,-0.6 1.3,-0.1 2.6,-0.1 4.3,-0.1 z m 48,22.9 c 0.2,-1.1 0.4,-1.7 0.4,-2.3 0.1,-6.3 0.3,-12.6 0.2,-18.9 -0.1,-6.3 -0.8,-12.6 -2.3,-18.8 -0.8,-3.6 -1.3,-7.2 -2.2,-10.8 -0.7,-2.6 -1.7,-5.2 -2.9,-7.6 -1.5,-3 -3.8,-5 -7.6,-4.7 -2.5,0.2 -5,0.1 -7.4,0 -5.4,-0.2 -10.5,0.8 -15.5,2.4 -1.2,0.4 -1.8,0.9 -2.1,2.2 -2.1,7.9 -4,15.8 -4.4,24 -0.2,3.3 0,6.7 0,10.1 2.1,0.2 4.1,0.2 6.1,0 -0.3,-4.5 0.3,-8.6 1.3,-12.6 0.8,-3.6 2.8,-6.6 5.4,-9.1 1.4,-1.4 3,-2.4 4.9,-2.8 5,-1 9.8,1.4 11.7,6.1 0.9,2.1 1.4,4.2 2,6.4 0.6,2.1 1.3,4.1 3.3,5.3 2.5,1.6 4,4 4.4,6.8 0.4,2.8 0.4,5.7 0.3,8.6 0,1.5 -0.9,2.6 -2,3.7 -2.3,2.1 -4.9,2.9 -7.9,2.5 -0.5,-0.1 -1.1,-0.1 -1.8,-0.2 -0.2,1.5 -1.4,2.7 -1,4.2 1.5,-0.4 2.9,-0.9 4.4,-1.1 3.9,-0.5 7,1.2 9.8,3.7 0.8,0.9 1.7,1.8 2.9,2.9 z m -60.5,-4.6 c -0.1,0.2 -0.3,0.5 -0.4,0.8 -0.7,3.7 -1.5,7.4 -2,11.1 -0.3,1.8 -0.2,3.7 -0.4,5.5 -0.1,1.1 0.4,1.9 1.5,2.1 3.8,0.9 7.5,2.1 11.4,2.7 3.9,0.6 7.9,0.7 11.9,0.9 1.7,0.1 3.6,-0.1 5.1,-0.8 1.4,-0.6 2.6,-1.8 4.3,-0.7 0.2,0.1 0.6,-0.1 0.9,-0.2 1.1,-0.3 2.2,-0.5 3.2,-0.8 1.7,-5.5 3.2,-10.9 3.4,-16.8 -2.6,0.2 -4.9,0.5 -7.1,0.5 -4.9,0 -9.7,-0.2 -14.6,-0.4 -2.5,-0.1 -5,-0.2 -7.4,-0.7 -3.2,-0.9 -6.4,-2.1 -9.8,-3.2 z m 27.4,44.5 c 4.4,0.5 8.5,-0.1 12.6,-0.6 2.7,-0.3 5.3,-0.9 8,-1.3 3.6,-0.5 7.3,-0.9 10.9,-1.6 2.6,-0.5 5.1,-1.3 7.7,-1.9 2.6,-0.6 5.3,-1.2 7.9,-1.8 1.8,-0.4 3.6,-0.9 5.4,-0.9 3.8,0 7.5,-0.7 11.2,-1.4 1.7,-0.3 2.9,-1.1 4.1,-2.5 -0.6,-0.9 -1.1,-1.8 -1.7,-2.6 -1.6,-2.1 -2.9,-4.3 -4.1,-6.7 -1.3,-2.8 -3.1,-5.4 -4.6,-8.1 -0.7,-1.2 -1.7,-1.6 -3,-1.2 -1.8,0.6 -3.5,1.3 -5.5,2 0.4,0.8 0.7,1.4 0.9,1.9 0.8,1.8 1.7,3.6 2.3,5.5 0.7,2.4 0.1,3.7 -2.1,5 -1.2,0.7 -2.4,1.3 -3.5,2.1 -2.2,1.6 -4.6,2.5 -7.2,3 -1.1,0.2 -2.2,0.4 -3.3,0.8 -6.8,2.3 -13.8,4 -21,4.5 -1.4,0.1 -2.8,0.6 -4.3,0.6 -3,0.2 -4.7,-0.9 -5.8,-3.7 -1,-2.8 -2.4,-5.6 -2.2,-8.8 0,-0.2 -0.2,-0.4 -0.3,-0.7 -2.9,0.7 -5.6,1.9 -8.1,3.6 4.2,4.2 6.2,9 5.7,14.8 z m -0.6,-63.4 c 1.2,0.3 2.2,0.5 3.2,0.7 4.3,1 8.7,1.9 12.6,4.2 1.2,0.7 2.3,1.5 2.7,3.1 0.5,1.9 2.5,2.7 4.1,2 2,-0.8 2.9,-2.2 2.9,-4.4 0,-1.4 0.1,-2.7 -0.1,-4.1 -0.2,-2.2 -0.7,-4.4 -2.7,-5.6 -3.2,-2 -4.7,-5.1 -5.5,-8.6 -0.4,-1.7 -0.9,-3.4 -1.6,-5 -1.9,-4.5 -7.1,-5.5 -10.6,-2.1 -2.2,2.1 -3.8,4.7 -4.5,7.8 -0.7,3.9 -0.9,7.8 -0.5,12 z m 45.5,35.9 c -4.7,0.1 -8.9,1.2 -13.1,2.1 -4.3,1 -8.6,1.9 -12.8,2.9 -4.2,0.9 -8.3,1.9 -12.4,2.8 -0.5,3.4 0.6,6.3 1.6,9.1 0.6,1.6 1,1.8 2.7,1.7 0.6,0 1.1,-0.2 1.7,-0.3 2.1,-0.3 4.1,-0.7 6.2,-0.8 3,-0.2 5.8,-0.8 8.7,-1.6 3.6,-1.1 7.2,-2.3 10.8,-3 4,-0.7 6.8,-3.2 10.4,-5.2 -1.3,-2.7 -2.5,-5.1 -3.8,-7.7 z m -30.9,-27.3 c -1.3,-0.6 -2.3,-1.3 -3.4,-1.6 -2.6,-0.8 -5.2,-1.6 -7.8,-2.2 -4.2,-1.1 -8.4,-1.9 -12.8,-1.6 -0.6,0.1 -1.4,0 -1.8,0.3 -1.2,1 -2.6,0.9 -4.1,1 -2.1,0.1 -4.3,0.3 -6.4,0.6 -3.1,0.4 -3.7,1.3 -3.1,4.8 3.8,0.8 7.6,1.9 11.6,2.4 6.9,0.7 13.8,1 20.8,1.4 0.8,0 1.6,0 2.4,-0.1 2.1,-0.3 4.2,-0.8 4.2,-3.6 -0.1,-0.6 0.1,-0.8 0.4,-1.4 z m 18.1,20 c -0.8,-1 -1.4,-2 -2.3,-2.8 -1.4,-1.4 -2.9,-2.8 -4.5,-3.9 -2.5,-1.5 -5.1,-1.7 -7.6,0.1 -0.7,0.5 -1.5,0.9 -2,1.2 -1,5.1 -2,10.1 -3,15.3 6,-1.9 12.2,-2.2 17.8,-4.1 0.6,-2.1 1.1,-3.9 1.6,-5.8 z m -43,34.1 c 0.1,-3.7 -2,-6.4 -3.8,-9.2 -0.3,-0.5 -1,-0.7 -1.5,-1.1 -1.7,-1.2 -3.5,-0.4 -5.3,-0.5 -1,-0.1 -1.7,0.4 -2.1,1.2 -0.7,1.7 -1.6,3.3 -2,5 -0.6,2.3 0,4.4 1.7,6.2 2.8,3 6.1,4.8 10.3,4.4 0.9,-0.1 1.5,-0.4 1.8,-1.3 0.3,-1.5 0.6,-3.1 0.9,-4.7 z m -15.8,-49.4 c 0.6,1.7 1.7,2.2 2.7,2.6 4.5,1.9 9.2,3 14.2,3 2.8,0 5.6,0.3 8.4,0.3 3.8,0 7.7,-0.2 11.5,-0.4 1.1,0 1.8,-0.4 1.6,-1.7 -12.9,0.6 -25.6,-0.7 -38.4,-3.8 z m 13.9,36.5 c 4.1,5 6.6,10.1 5.2,16.6 2.5,-1.1 3.6,-2.7 3.7,-4.9 0.2,-3.6 -1.2,-6.6 -3.7,-9 -1.2,-1.3 -2.7,-2.4 -5.2,-2.7 z" />
		<path
   inkscape:connector-curvature="0"
   id="path2515"
   d="m 206.4,370.2 c 0,-0.7 0,-1.8 0,-2.9 0.1,-1.8 0.6,-2.3 2.4,-2.7 0.6,-0.1 1.3,-0.3 1.9,-0.2 5.2,0.3 10.1,-1.2 15,-2.6 4.8,-1.4 9.8,-1.5 14.7,-1.6 3,-0.1 5.8,1.2 8.2,3 0.6,0.5 1.1,1.3 1.3,2.1 0.3,1 0.7,1.9 1.8,2.7 0.1,-1.1 0.2,-2 0.2,-2.8 0,-6.6 1,-13.1 2.4,-19.5 0.6,-2.4 1.1,-4.8 1.6,-7.2 0.4,-1.6 1.4,-2.5 3,-3.1 2.8,-1.1 5.8,-1.4 8.7,-1.5 7.1,-0.3 14.2,-0.1 21.2,1.6 2.9,0.7 4.7,2.4 5.8,5.1 2.3,5.7 2.9,11.8 3.2,17.8 0.4,9.3 0.3,18.7 0.6,28 0.2,6.7 0.6,13.4 0.8,20.1 0.1,5.7 0.3,11.5 -0.7,17.2 -0.7,3.6 -2.1,6.2 -5.9,6.9 -2.9,0.5 -5.8,1.2 -8.7,1.3 -3.9,0.1 -7.7,0.5 -11.5,1.8 -2.2,0.8 -4.7,1 -7.1,1.1 -3.3,0.2 -6.7,0.1 -10.1,0.1 -3.1,0 -5.8,-2.2 -6.1,-5.3 -0.4,-3.7 -0.5,-7.5 -0.6,-11.2 0,-0.9 0,-1.7 0,-2.8 -2.8,0.9 -4.9,2.3 -6.9,3.8 -1.9,1.4 -3.8,2.5 -6.2,3 -0.9,0.2 -1.7,0.7 -2.6,1.2 -1.7,0.9 -3.3,1.9 -5,2.8 -0.8,0.4 -1.7,0.7 -2.5,0.7 -7.9,-0.4 -15.8,-0.2 -23.6,-1.7 -3.8,-0.7 -6.3,-3 -8.1,-6.1 -1.4,-2.4 -2.1,-5 -2.1,-7.8 0.1,-6.5 0.3,-12.9 0.6,-19.4 0.1,-1.9 0.4,-3.8 0.7,-5.7 0.3,-2.2 1.6,-4 3.1,-5.6 3.2,-3.5 6.7,-6.8 10.5,-10.6 z m 51.4,-21.7 c -0.4,2 -0.8,3.5 -1,5.1 -0.5,6.5 -1,13.1 -1.5,19.6 -0.4,5.7 -0.7,11.5 -1.2,17.2 -0.5,4.9 -1.4,9.8 -1.7,14.8 -0.3,6.5 0,12.9 0,19.4 0,2.5 0.3,4.8 2.3,6.4 4.1,0 8.2,0.1 12.2,0 1.4,0 2.9,-0.3 4.2,-0.8 4.1,-1.5 8.4,-1.9 12.7,-2 2.8,-0.1 5.5,-0.4 8.2,-1.2 1.4,-0.5 2.2,-1.2 2.4,-2.6 0.4,-2.6 0.9,-5.2 0.9,-7.8 0.1,-8.8 -0.1,-17.6 -0.6,-26.3 -0.5,-7.6 -0.1,-15.3 -0.3,-23 -0.1,-3.7 -0.4,-7.5 -0.7,-11.2 -0.1,-1.8 -0.5,-3.5 -0.8,-5.8 -0.6,0.9 -0.8,1.4 -1.2,1.8 -2.9,3.9 -6.5,6.6 -11.5,6.7 -2.6,0 -5.3,0.1 -7.9,-0.1 -6.1,-0.4 -11.2,-2.6 -13.9,-8.5 0.1,-0.6 -0.1,-0.9 -0.6,-1.7 z m -50.1,25.9 c -3.9,3.4 -7.7,6.6 -10.4,10.8 -0.5,0.7 -0.7,1.6 -0.8,2.5 -0.3,2.7 -0.7,5.4 -0.8,8.1 -0.2,5.3 -0.4,10.7 -0.3,16.1 0.1,5.9 3.1,9.2 9,10.1 3.1,0.5 6.2,0.6 9.3,0.8 3.4,0.2 6.9,0.5 10.3,0.6 0.9,0 1.9,-0.3 2.7,-0.6 1.5,-0.7 2.9,-1.7 4.4,-2.4 1.2,-0.6 2.5,-1.1 3.7,-1.6 1.3,-0.6 2.6,-1.1 3.9,-1.8 1.9,-1.1 3.6,-2.3 5.4,-3.5 0.4,-0.3 1,-0.6 1.2,-1.1 0.5,-1.5 1.5,-2.4 3.1,-2.6 0.1,-2.6 0.2,-5 0.4,-7.5 0.6,-6.3 1.4,-12.5 2.1,-18.8 0.3,-2.6 0.4,-5.3 0.5,-7.9 0.1,-1.6 -0.5,-3.2 -1.7,-4.3 -0.9,-0.9 -2,-1.7 -3.1,-2.6 -1.9,0.4 -4,0.8 -6.1,1.1 -3.7,0.6 -7.4,1.1 -11.1,1.7 -3.5,0.6 -6.9,1.3 -10.3,2.1 -2.1,0.5 -4.1,1.1 -6.3,1.7 0.6,1.1 1.1,1.9 1.6,2.7 1.1,1.6 2.3,3.3 3.4,4.9 0.8,1.2 0.7,2.1 -0.1,2.8 -0.9,0.8 -1.9,0.6 -2.9,-0.5 -0.2,-0.2 -0.4,-0.5 -0.6,-0.7 -1.6,-2.4 -3.2,-4.8 -4.8,-7.2 -0.5,-1.1 -1,-1.9 -1.7,-2.9 z M 261,343.8 c 0.2,5.7 3.9,9.7 8.6,10.4 3.4,0.5 6.8,0.3 10.2,0.6 4.9,0.4 10.8,-4.6 10.4,-11.1 -9.6,-0.1 -19.3,1.2 -29.2,0.1 z m -17.7,21.6 c 0,-0.2 0.1,-0.4 0.1,-0.6 -1.1,-0.3 -2.3,-0.9 -3.4,-0.8 -4.7,0.3 -9.4,0.3 -14,1.7 -4.6,1.4 -9.3,2.7 -14.3,2.5 -0.5,0 -0.9,0.1 -1.4,0.2 0,0.6 -0.1,1 -0.1,1.5 0,0.5 0.1,1.1 0.2,2 10.8,-3.9 22,-4.6 32.9,-6.5 z m 45,-25.5 c 0,-0.2 0,-0.3 0.1,-0.5 -0.6,-0.2 -1.2,-0.4 -1.8,-0.5 -6.5,-1.5 -13.1,-1.6 -19.8,-1.1 -1.9,0.1 -3.8,0.5 -5.7,0.9 -0.4,0.1 -0.8,0.5 -1.5,1 10,1.6 19.3,0.1 28.7,0.2 z" />
		<path
   inkscape:connector-curvature="0"
   id="path2517"
   d="m 277.2,444.3 c 2.1,0.9 3.3,2.2 2.6,4.5 0.3,0.2 0.5,0.4 0.7,0.5 2.7,1.7 2.7,3.3 0.1,5.3 -3.3,2.6 -7,4.3 -11,5.6 -2.9,0.9 -5.6,2.3 -8.4,3.4 -2.1,0.8 -4.2,1.4 -6.4,1.9 -3.3,0.8 -6.7,1.5 -10,2.1 -2.3,0.5 -4.5,0.8 -6.8,1.3 -1.2,0.2 -2.5,0.5 -3.7,0.8 -5.2,1.5 -10.5,2.7 -15.6,4.7 -4.3,1.7 -8.8,1.5 -13.1,2.3 -0.1,0 -0.2,0 -0.2,0 -3.5,0.1 -5.1,-1.6 -4.9,-4.8 -1.3,-0.8 -2.7,-1.3 -3.6,-2.3 -1,-1.1 -0.4,-2.6 0.3,-3.9 -0.7,-0.5 -1.5,-0.9 -2.2,-1.4 -1.2,-0.8 -1.9,-2 -1.7,-3.5 0.2,-1.4 1,-2.4 2.4,-2.6 1.5,-0.2 3,-0.3 4.5,-0.4 1.9,-0.2 3.6,-0.7 5.3,-1.8 1.8,-1.1 3.9,-2 5.9,-2.5 6.5,-1.6 13.1,-2.9 19.6,-4.4 1,-0.2 2,-0.5 3,-0.8 2.5,-0.7 5.1,-1.3 7.6,-2.1 2,-0.6 3.9,-1.4 5.7,-2.3 3.8,-2 7.8,-2.8 12,-2.8 4,0 8,0.1 11.9,-1 0.9,-0.3 1.9,-0.2 2.9,-0.1 3.1,0.1 3.7,0.9 3.1,4.3 z m -13.6,0.9 c 0.2,0.6 0.5,1.3 0.7,2 1,2.5 0.8,5 0.5,7.6 -0.2,1.5 -1.3,2.3 -2.4,2.2 -1.2,-0.1 -1.5,-1 -1.4,-2.8 0.1,-1.3 0.2,-2.7 0.1,-4.1 -0.2,-1.6 -0.6,-3.4 -2.1,-4 -1.5,-0.6 -3.2,-1.1 -4.9,-0.5 -1.4,0.5 -2.9,1 -4.2,1.6 -2.2,0.9 -4.3,2.1 -6.6,2.7 -4.6,1.3 -9.3,2.4 -13.9,3.5 -4.9,1.1 -9.8,2.2 -14.7,3.3 -1.6,0.4 -3.4,0.6 -4.8,1.8 3.2,1.9 3.8,2.6 4.6,5.3 0.3,1.1 0.6,2 1.7,2.7 1.4,0.8 1,2.5 -0.6,3.1 -1.5,0.5 -3.1,-0.1 -3.8,-1.6 -0.5,-1 -0.7,-2.1 -1,-3.2 -0.4,-1.3 -1.2,-2 -2.5,-2.6 -3,-1.4 -6,-0.8 -9.1,-0.3 2.9,1.8 3.1,2.2 2.3,5.5 1.1,0.6 2.5,0.9 3.2,1.8 0.6,0.9 0.4,2.3 0.5,3.6 0.3,0 0.7,0 1.1,0 4.1,-0.3 8.2,-0.7 12.2,-2.2 3.6,-1.3 7.4,-2 11,-3.2 3.3,-1.1 6.5,-2.1 9.9,-2.6 1.3,-0.2 2.7,-0.3 4,-0.7 3.7,-1.2 7.6,-1.9 11.4,-2.5 1.6,-0.2 3.2,-0.9 4.8,-1.5 3.4,-1.3 6.7,-2.7 10,-3.9 2.6,-1 5.3,-1.8 7.4,-3.8 -3,-1.7 -3.1,-1.9 -2,-4.8 -2.5,-1.1 -2.5,-1.1 -3.1,-3.5 -2.8,0.4 -5.5,0.7 -8.3,1.1 z" />
		<path
   style="fill:#ffffff"
   inkscape:connector-curvature="0"
   id="path2519"
   d="m 313.4,388.8 c 3.4,1.1 6.5,2.3 9.8,3.1 2.4,0.6 4.9,0.6 7.4,0.7 4.9,0.2 9.7,0.3 14.6,0.4 2.3,0 4.6,-0.3 7.1,-0.5 -0.2,5.9 -1.7,11.3 -3.4,16.8 -1,0.2 -2.1,0.5 -3.2,0.8 -0.3,0.1 -0.7,0.3 -0.9,0.2 -1.7,-1.1 -2.8,0.1 -4.3,0.7 -1.5,0.7 -3.4,0.9 -5.1,0.8 -4,-0.1 -8,-0.3 -11.9,-0.9 -3.8,-0.6 -7.6,-1.7 -11.4,-2.7 -1.1,-0.3 -1.5,-1 -1.5,-2.1 0.1,-1.8 0.1,-3.7 0.4,-5.5 0.6,-3.7 1.3,-7.4 2,-11.1 0.1,-0.2 0.3,-0.5 0.4,-0.7 z"
   class="st4" />
	</g><g
   id="g2533">
		<path
   inkscape:connector-curvature="0"
   id="path2523"
   d="m 157,154.3 c -1.7,0.1 -2.7,-0.6 -2.9,-1.5 -0.2,-1 0.3,-1.7 1.6,-2.2 0.4,-0.2 0.9,-0.3 1.3,-0.6 5.6,-3.8 11.3,-7.5 16.9,-11.3 4.6,-3.1 9.2,-6.3 13.8,-9.5 1.3,-0.9 2.3,-2.2 3.6,-3.1 1.5,-1.1 3,-2.1 4.5,-3.1 0.9,-0.6 1.9,-0.6 2.5,0.4 0.7,0.9 0.4,1.8 -0.4,2.6 -0.2,0.2 -0.4,0.3 -0.5,0.5 -7.3,5.5 -14.7,11 -22.3,16.1 -4.4,2.9 -8.8,5.8 -13.2,8.7 -1,0.7 -1.9,1.5 -2.9,2.1 -0.6,0.3 -1.5,0.7 -2,0.9 z" />
		<g
   id="g2529">
			<path
   inkscape:connector-curvature="0"
   id="path2525"
   d="m 386.8,224.2 c 0,3.3 0,6.3 0,9.2 0,1.6 -0.3,3.2 -0.4,4.8 -0.1,1.4 -0.8,2.4 -1.9,3.1 -2.3,1.5 -4.5,3 -6.8,4.4 -2.6,1.6 -5.4,2.6 -8.4,3.2 -7,1.4 -14,3 -21,4.7 -3,0.7 -6,1.1 -9,0.7 -2.8,-0.4 -5.5,-0.7 -8.3,-1.1 -3.4,-0.5 -6.4,-1.9 -9.3,-3.7 -1.8,-1.1 -3.7,-2.2 -5.6,-3.2 -2.4,-1.3 -3.9,-3.3 -4.6,-5.9 -0.7,-2.8 -1.2,-5.6 -1.9,-8.4 -0.1,-0.5 -0.2,-0.9 -0.3,-1.5 -0.7,-0.1 -1.3,-0.1 -1.9,-0.2 -3.8,-0.2 -7.7,-0.2 -11.5,-0.7 -4,-0.5 -7.9,-1.8 -11.5,-3.8 -2.2,-1.2 -4.7,-2.2 -5.8,-4.5 -3.8,0.6 -7.5,1.1 -11.2,1.7 -1.1,0.2 -2.1,0.7 -3.2,1 0,3.1 0,5.9 0,8.8 0,6.8 0,6.8 -4.3,12.1 -2,2.5 -4.5,4.1 -7.5,5.4 -4.9,2.2 -9.7,2.1 -14.7,0.5 -1.9,-0.6 -3.9,-1 -5.8,-1.6 -7.9,-2.2 -13.7,-7.4 -18.6,-13.6 -1.5,-1.9 -2.2,-4 -2.2,-6.4 0,-1.8 -0.1,-3.6 -0.2,-5.2 -1.5,-0.2 -2.9,-0.2 -4.1,-0.7 -6.3,-2.2 -12.7,-4.3 -19,-6.7 -9.1,-3.4 -18.5,-5.5 -27.9,-7.5 -2.6,-0.6 -5.3,-1.3 -7.8,-2.2 -2.7,-1 -4.6,-3.1 -5,-6 -0.5,-3.1 -0.5,-6.3 -0.6,-9.5 -0.1,-1.4 0,-2.9 0.2,-4.3 0.2,-1.5 0.7,-1.8 2.2,-1.9 1.8,-0.2 3.6,-0.5 5.4,-0.7 3.2,-0.4 6.3,-0.8 9.5,-1.1 1.8,-0.2 3.6,-0.3 5.5,-0.4 0,-0.2 0.1,-0.3 0.1,-0.5 -2.9,-1.9 -5.8,-4 -8.9,-5.8 -2.9,-1.7 -5.4,-3.7 -7.5,-6.2 -2.5,-3.1 -5.1,-6.2 -7.8,-9.1 -2.8,-3 -5.9,-5.6 -10.1,-6.5 -1.4,-0.3 -2.8,-0.8 -4.1,-1.2 -0.5,-0.2 -1.1,-0.4 -1.5,-0.7 -1.1,-0.7 -2.1,-1.6 -2,-3 0.1,-1.5 1.1,-2.2 2.4,-2.8 0.7,-0.3 1.3,-0.5 2,-0.7 10.1,-2.6 19.2,-7.2 27.7,-13.3 4.5,-3.2 9.2,-6.1 13.8,-9.2 2.1,-1.4 4.2,-3 6.3,-4.3 5.2,-3.2 10.5,-6.3 15.8,-9.4 1.5,-0.9 3,-0.8 4.4,0.5 0.6,0.5 1.3,1 2.1,1.2 3.6,0.9 7.2,2.2 10.9,2.6 4.7,0.5 9.6,0.5 14.4,0.5 3.8,0 7.7,-0.3 11.5,-0.3 1.8,0 3.6,0.4 5.4,0.7 4,0.6 8,1.4 12.1,1.9 2.9,0.4 5.6,1.1 8.3,2.2 3.6,1.4 7.2,2.6 11,3.9 0.2,-2 0.3,-4 0.5,-6 0.5,-4.2 0.7,-8.5 1.7,-12.6 1.2,-5 3.9,-9.3 8.7,-11.7 0.8,-0.4 1.4,-1 2,-1.7 0.8,-0.8 1.6,-1.7 2.6,-2.9 0.1,-1.4 0.3,-3.1 0.4,-4.8 0.1,-1.8 1,-3 2.6,-3.7 1.1,-0.4 2.3,-0.7 3.4,-1 0.8,-0.2 1.6,-0.2 2.3,-0.5 3.7,-1.2 7.6,-1 11.4,-1 2.9,0 4.1,1.1 4.4,4 0.3,3.3 0.3,6.5 0.5,10 2.2,2.1 4.5,4.7 7.2,6.8 4.3,3.6 5.2,8.2 4.7,13.4 -0.3,3.5 -0.4,7 -0.9,10.5 -0.5,3.7 -1.2,7.4 -2,11 -0.5,2.4 -2,4.1 -4.4,5 -0.4,0.1 -0.7,0.4 -1.1,0.6 0.7,1.7 2,2.8 3.3,3.8 0.8,0.6 1.7,1.2 2.4,1.9 2.3,2.1 2.6,4.8 0.5,7.2 -1.2,1.3 -2.6,2.4 -3.9,3.5 -0.6,0.6 -1.3,1.1 -2.1,1.8 0.7,0.5 1.1,0.8 1.6,1.1 0.5,0.3 1,0.5 1.5,0.7 3.7,1.6 5.2,4.5 5.2,8.4 0,1.1 0,2.2 0,3.6 12.6,-2.8 24.9,-2.3 37.5,-1.5 0,-0.4 0.1,-1.1 0.1,-1.8 0,-4.2 0,-8.3 0,-12.5 0,-1.7 0.4,-3.2 1.9,-4.1 0.2,-0.1 0.4,-0.3 0.5,-0.5 3.3,-4.3 7.8,-7.1 12.2,-9.9 1,-0.6 1.5,-1.4 1.5,-2.5 0,-1.1 0.1,-2.2 0.2,-3.3 0.2,-2.3 0.5,-2.7 2.7,-3.4 0.9,-0.3 1.9,-0.5 2.8,-0.7 4.1,-0.9 8.1,-1.8 12.2,-2.6 3.8,-0.7 7.5,-1.3 11.3,-2 1.3,-0.2 2.6,-0.7 3.9,-1 2.4,-0.5 3.3,0.2 3.5,2.5 0.1,1.9 -0.2,4 0.4,5.7 0.6,1.6 2.3,2.8 3.5,4.2 3.1,3.3 6.2,6.7 9.4,9.9 1.3,1.3 1.8,2.8 1.8,4.5 -0.1,7.7 -0.1,15.3 -0.8,23 -0.2,2.3 -0.1,4.6 -0.2,6.9 -0.1,11.8 -0.1,23.7 -0.2,35.5 0,1.9 -0.3,3.8 -0.5,5.7 -0.1,1.2 -0.6,2.1 -2,2.4 -3.2,0.6 -6.4,1.2 -9.6,1.7 -2.4,0.4 -4.9,0.6 -7.4,0.8 -2.4,0.3 -4.7,0.6 -7.1,0.8 -1.2,0.1 -2.4,0 -3.5,-0.3 -2.4,-0.7 -4.6,-1.7 -7,-2.5 -3,-0.4 -5.5,-0.9 -8.4,-1.7 z M 292,93.7 c -1.6,1.2 -3.2,2.3 -4.8,3.4 -0.8,0.6 -1.8,1.2 -2.4,1.9 -2.1,2.6 -3.6,5.4 -4.1,8.8 -1.2,6.9 -1.2,13.8 -1.7,20.8 -0.2,2.3 0.6,4 2.2,5.5 1.2,1.1 2.2,2.4 2.9,3.7 1.4,2.6 1.1,4.6 -0.9,6.8 -0.9,0.9 -1.8,1.9 -2.6,2.8 -1.1,1.4 -1.4,2.9 0.4,4.3 1.2,0.9 2.2,2.3 2.9,3.7 1.2,2.7 0.7,4.2 -1.6,6 -1.8,1.4 -3,3 -3.1,5.4 0,1 -0.2,1.9 -0.2,2.9 0.1,3.4 0.3,6.7 0.5,10.1 0.1,2.8 0.3,5.4 2.4,7.7 2.2,2.5 1.6,4.6 -1.1,6.4 -0.3,0.2 -0.6,0.5 -0.9,0.7 0,6.6 -0.2,13.2 0.9,19.7 0.9,5.3 0.7,5.5 5.4,8.1 3.9,2.1 8,3.5 12.5,3.6 1.7,0 3.3,0.3 5,0.4 1.6,0.1 3.3,0 5.3,0 -1,-10.4 -1.9,-20.6 -2.9,-30.8 -2.9,-0.7 -3.6,-2.6 -3.3,-5.2 0.2,-1.7 0.2,-3.5 0.2,-5.3 0,-1.2 0.5,-2 1.3,-2.9 3,-3.4 6.7,-5.5 11.1,-6.6 2.5,-0.6 4.8,-1.7 7.2,-2.6 0.7,-0.3 1.3,-0.6 1.3,-1.5 -0.1,-1.9 -0.2,-3.8 -0.3,-5.7 0,-1.2 -0.6,-1.9 -1.6,-2.5 -1.2,-0.6 -2.4,-1.3 -3.6,-1.9 -2.9,-1.5 -3.9,-5.3 -0.7,-7.6 1.3,-1 2.6,-2.1 3.9,-3.2 0.6,-0.6 1.1,-1.3 1.7,-2.1 -1,-0.8 -1.8,-1.5 -2.6,-2.2 -1.4,-1.4 -3,-2.7 -4.2,-4.2 -2,-2.5 -1.4,-5.4 1.6,-6.7 2.2,-0.9 3.2,-2.5 3.5,-4.7 0.6,-4.3 1.3,-8.7 1.7,-13 0.3,-2.9 0.5,-5.9 0.6,-8.8 0,-2 -0.3,-4.1 -1.8,-5.6 -2.5,-2.6 -5.2,-5 -7.8,-7.4 -1.2,-1.1 -2.8,-1.6 -4.4,-1.7 -4.5,-0.2 -8.9,-0.3 -13.4,-0.5 -1.5,0 -3.1,0 -4.5,0 z m -16.8,34.6 c -1.3,-0.6 -2.1,-1.1 -3,-1.4 -1.3,-0.6 -2.6,-1.2 -3.9,-1.7 -1.9,-0.7 -3.9,-1.4 -5.9,-2 -2.2,-0.7 -4.4,-1.3 -6.7,-1.7 -4,-0.7 -8,-1.3 -12.1,-1.9 -2,-0.3 -3.9,-0.7 -5.9,-0.7 -6.8,0 -13.6,0.1 -20.4,0.1 -4,0 -8,-0.4 -11.8,-1.9 -0.5,-0.2 -1.1,-0.4 -1.6,-0.5 -2.6,-0.3 -4.9,-1.3 -7.3,-2.9 -5,3.1 -10.2,6.1 -15.2,9.3 -2,1.2 -3.8,2.6 -5.7,3.9 -5.4,3.6 -10.7,7.2 -16.1,10.8 -4.2,2.8 -8.4,5.5 -13.1,7.4 -4.3,1.8 -8.7,3.6 -12.9,5.4 0,0 0.1,0.1 0.3,0.2 0.6,0.2 1.2,0.4 1.8,0.5 5.5,1.4 9.7,4.7 13.2,9 2.8,3.4 5.7,6.7 8.7,9.9 0.8,0.9 1.8,1.6 2.8,2.2 5,2.8 9.4,6.6 14.9,8.6 0.6,0.2 1.4,0.5 2,0.4 4.8,-1 9.6,-2 14.5,-3.1 -0.8,-1 -1.6,-1.8 -2.1,-2.7 -1.3,-2 -0.4,-3.7 2,-3.8 1.7,0 3.4,0.1 5,0.3 2.7,0.2 5.4,0.5 8,0.7 0.2,-1.6 0.3,-2.9 0.6,-4.1 0.3,-1.2 0.9,-2.4 1.4,-3.6 -0.9,0.3 -1.5,0.8 -2.2,1.3 -2.7,2 -5.7,3.2 -9.1,3 -2.7,-0.2 -4.6,-1.8 -4.9,-4.4 -0.4,-3.4 0,-6.7 1.6,-9.8 1.4,-2.6 3.5,-3.9 6.4,-4 1.6,0 3.2,0 4.8,-0.1 0.6,0 1.4,0 1.8,-0.3 1.8,-1.1 3.7,-0.9 5.6,-0.7 2.4,0.3 3.5,1.7 3.2,4.2 -0.3,2 -1.2,3.6 -2.4,5.1 -0.4,0.5 -0.7,1 -1.1,1.5 1.4,-0.5 2.6,-0.9 3.4,-1.8 1.1,-1.2 1.7,-2.8 2.6,-4.4 -3.4,-3.8 -4.8,-8.4 -4.9,-13.5 -0.1,-2.4 0.9,-4.4 2.8,-5.8 2.8,-2.1 5.8,-3.7 9.5,-3.4 1.8,0.1 3.6,0.5 5.6,0.8 2.1,-3.3 5.7,-4.1 9.4,-4.5 2.6,-0.3 5.3,-0.8 7.8,0.4 3.5,1.7 6.7,3.8 7.7,8.1 3.6,-0.3 7,0.1 9.6,2.8 2.6,2.8 2.1,6.3 1.9,9.7 0.6,0.4 1,0.8 1.5,1 1.8,1.1 2.4,2.7 2.1,4.7 -0.4,2.4 -1.2,4.7 -3.1,6.3 -3.4,3 -7.2,5.3 -11.4,6.9 -3.2,1.1 -7.4,0.3 -9.4,-3.2 -0.2,-0.3 -0.5,-0.6 -0.7,-1 -1.6,1.4 -3.5,2 -5.5,2.5 -2.4,0.6 -4.8,1.5 -7.3,2.2 -0.1,1.3 -0.2,2.3 -0.2,3.3 1.5,-0.1 2.7,-0.3 3.8,-0.3 2.4,-0.1 4.8,-0.2 7.2,-0.3 3.7,-0.2 7.3,-0.5 11,-0.7 1.7,-0.1 3.4,0.1 4.9,0.9 0.8,0.5 1.6,0.4 2.5,0.1 4.6,-1.2 9.3,-2.2 13.9,-3.3 0.5,-2.1 0.6,-4.4 1.6,-6.2 0.9,-1.8 2.7,-3.3 4.1,-4.9 -0.1,-1.7 -1.4,-2.6 -2.6,-3.6 -2.3,-2 -2.8,-4.6 -1.4,-7.3 0.5,-1 1.3,-1.8 2,-2.7 0.6,-0.7 1.2,-1.3 1.8,-1.9 0.9,-0.9 0.9,-1.9 0.3,-2.8 -0.4,-0.6 -0.8,-1.2 -1.3,-1.7 -3.1,-2.1 -5.2,-4.9 -4.4,-8.9 z m 34.8,68.1 c 0.2,1.8 0.3,3.2 0.4,4.6 0.9,9.3 1.7,18.6 2.7,27.9 0.4,3.3 1.1,6.6 1.7,9.9 0.4,1.9 1.3,3.4 3.1,4.3 1.8,0.9 3.6,2 5.4,3.1 2.3,1.3 4.5,2.8 7.2,3.1 2.9,0.4 5.8,0.9 8.8,1.2 2.7,0.3 5.4,0.1 8.1,-0.6 6.3,-1.6 12.5,-3.3 18.9,-4.4 4.7,-0.8 8.9,-2.4 12.6,-5.3 0.4,-0.3 0.8,-0.6 1.2,-0.8 2.3,-0.9 3,-2.7 2.8,-5 0,-0.3 0,-0.6 0,-1 -0.1,-11.3 -0.1,-22.5 -0.2,-33.8 0,-2 -0.1,-3.9 -0.2,-6.3 -2.9,0.8 -5.4,1.7 -8,2.2 -2.7,0.6 -5.5,0.8 -8.3,1.2 -0.1,1.2 -0.2,2.4 -0.3,3.6 -0.3,2.1 -1.1,3 -3.2,3.3 -1.8,0.2 -3.7,0.3 -5.5,0.1 -2.5,-0.3 -3.6,-1.6 -3.7,-4.2 0,-1.2 0,-2.5 -0.1,-4 -2.7,0 -5.1,0.2 -7.4,0 -6.1,-0.7 -12.2,-0.1 -18.2,0.4 -3.3,0.3 -6.5,0.5 -9.8,0.4 -2.5,0 -5.2,0.1 -8,0.1 z m 75.7,-61.3 c -0.4,2.8 -1.3,5.4 1,7.6 0.3,0.3 0.4,0.7 0.6,1.1 3.2,5.8 6.4,11.6 11.2,16.3 1.5,1.4 2.1,3.1 2,5.2 0,2.1 0.3,4.3 0.5,6.4 0.2,1.7 0.4,3.3 0.6,5 0.6,6.2 1.1,12.4 1.8,18.6 0.7,6 1.4,12 1.2,18.1 -0.1,3.3 0,6.7 0.1,10.1 0,0.5 0.1,1.1 0.2,1.6 2,-0.2 3.9,-0.3 5.8,-0.5 3.4,-0.4 6.8,-0.7 10.2,-1.2 1.4,-0.2 2.8,-0.8 4.2,-0.9 2.5,-0.2 2.6,-0.8 2.9,-3.2 0,-0.3 0,-0.6 0,-1 0.1,-6.1 0.1,-12.3 0.2,-18.4 0.1,-7.2 0,-14.4 0.2,-21.6 0.2,-7.3 0.5,-14.5 0.8,-21.8 0.1,-1.7 0.6,-3.7 0,-5.2 -0.6,-1.5 -2.4,-2.5 -3.6,-3.8 -3.4,-3.6 -6.7,-7.3 -10,-11 -0.6,-0.7 -0.8,-1.8 -1,-2.8 -0.2,-1.3 -0.2,-2.7 -0.3,-4.2 -9.7,1.9 -19.1,3.7 -28.6,5.6 z m -171.9,58 c 0.2,2.1 0.4,3.6 0.4,5.2 0.2,6.8 0.4,13.6 0.6,20.4 0.1,3.2 -0.1,6.4 -0.1,9.6 0,2 0.4,3.9 1.8,5.6 4.5,5.4 9.5,10.1 16.6,12 2.8,0.7 5.5,1.6 8.3,2.2 1.5,0.3 3.2,0.6 4.7,0.3 4.6,-1 8.8,-2.6 11.7,-6.8 1.5,-2.2 2.6,-4.3 2.4,-7 -0.7,-9.4 0.8,-18.6 1.5,-27.9 0.2,-3.2 0,-6.3 0,-9.6 -1,0.2 -2,0.4 -3.1,0.6 -2.6,0.4 -5.2,1.1 -7.8,1.2 -8.8,0.1 -17.6,0.1 -26.4,0.1 -1.6,0 -2.9,-0.4 -4.3,-1.4 -1.7,-1.6 -3.8,-2.8 -6.3,-4.5 z m 168.9,-49.5 c -5,2.9 -9.5,6.3 -13.2,10.7 -0.3,0.3 -0.4,0.9 -0.4,1.3 0,5 0,10.1 0,15.1 1.6,0.6 3,1.1 4.4,1.6 3.5,1.2 6.7,2.9 9.7,5 1.4,1 2.2,2.2 2.5,3.9 0.3,1.5 0.7,3 1.2,4.4 0.8,2.3 0.9,4.5 -0.6,6.2 0.1,9.7 0.3,19.1 0.4,28.3 4.7,1.4 9.3,2.7 14,4.1 0,-0.9 0.1,-1.6 0.1,-2.3 -0.3,-8.1 0.1,-16.1 -1.1,-24.1 -0.9,-6.4 -1.3,-12.9 -2,-19.3 -0.4,-4.2 -0.9,-8.4 -1.1,-12.6 -0.1,-1.6 -0.5,-2.7 -1.6,-3.8 -3.1,-3 -5.6,-6.5 -7.7,-10.3 -1.4,-2.7 -3,-5.4 -4.6,-8.2 z m -2,36.6 c -0.9,-0.6 -1.6,-1.1 -2.4,-1.5 -7.1,-3.8 -14.6,-6 -22.7,-5.9 -3.2,0 -6.4,0.2 -9.6,0 -5.6,-0.4 -10.9,1.1 -16.4,1.7 -0.9,0.1 -1.9,0.3 -2.8,0.7 -4.2,2.1 -8.8,3.3 -13.2,4.9 -1.8,0.6 -3.5,1.9 -5,3.1 -1.1,0.9 -0.9,1.8 0.5,2.3 0.9,0.3 1.9,0.5 2.8,0.5 6.3,0.2 12.6,0.4 18.9,0.4 4.9,0 9.7,-0.4 14.6,-0.7 8,-0.5 16.1,-1 24.1,-1.6 1.3,-0.1 2.6,-0.1 3.8,-0.4 2.7,-0.3 5.5,-0.6 7.4,-3.5 z M 210.8,207 c -2.8,0.5 -5.1,0.2 -7.4,-1 -0.8,-0.4 -1.6,-0.7 -2.4,-1 -8.5,-2.3 -16.9,-4.7 -25.4,-6.8 -8.2,-2.1 -16.5,-3.7 -24.4,-6.9 -0.3,-0.1 -0.6,-0.1 -1.3,-0.1 0.2,3.1 0.3,6 0.6,8.9 0.2,1.6 1.2,2.9 2.7,3.4 2.3,0.8 4.6,1.5 6.9,2 9.8,2.1 19.5,4.2 28.9,7.7 5.7,2.1 11.5,4 17.1,6.1 1.5,0.6 3,0.9 4.6,0.6 0.1,-4.4 0.1,-8.6 0.1,-12.9 z m -14.4,-30.8 c -0.1,0.2 -0.1,0.3 -0.2,0.5 1.3,0.9 2.6,1.9 4,2.8 3,1.9 6.2,3.7 9.2,5.6 4.2,2.8 8.3,5.7 12.3,8.7 1.2,0.9 2.5,1.2 4,1.2 8,0 16,0 24,0 1.1,0 2.2,-0.2 3.3,-0.3 3.8,-0.6 7.6,-1.2 11.4,-1.7 2.9,-0.4 5.7,-0.5 8.6,-0.8 2,-0.2 4.1,-0.6 6.1,-1.8 -0.5,-0.7 -0.9,-1.4 -1.5,-1.9 -0.9,-0.9 -1.9,-1.7 -2.9,-2.5 -2.5,-1.9 -5,-4.1 -7.7,-5.7 -3.1,-1.8 -6.4,-3.2 -9.7,-4.6 -1.1,-0.5 -2.4,-0.9 -3.7,-0.8 -6.5,0.3 -13.1,0.7 -19.6,1 -0.2,0 -0.3,0 -0.5,0.1 -3.1,0.6 -6.2,1.2 -9.4,1.4 -5.4,0.4 -10.8,0.4 -16.2,-0.1 -3.1,-0.3 -6.2,-0.7 -9.3,-1 -0.6,-0.2 -1.4,-0.1 -2.2,-0.1 z m -41.1,11.9 c 0,0.2 0,0.3 0,0.5 0.4,0.2 0.8,0.4 1.3,0.6 4.1,1.3 8.1,2.7 12.4,3.5 4.1,0.7 8.2,2.1 12.3,3.2 6.3,1.6 12.6,3.3 19,4.9 1.3,0.3 2.7,0.6 3.8,1.3 2.1,1.2 4.2,1.5 6.6,1.6 0,-1.2 0.1,-2.3 0,-3.4 -0.2,-2.9 -0.6,-5.7 -0.8,-8.6 -0.1,-1.2 -0.4,-2 -1.4,-2.6 -4.2,-2.7 -8.4,-5.4 -12.3,-7.9 -1.7,0.5 -2.8,0.9 -4.1,1.1 -4.6,1 -9.2,1.8 -13.8,2.8 -0.5,0.1 -0.9,0.4 -1.3,0.6 -0.4,0.2 -0.9,0.4 -1.3,0.5 -4.3,0.4 -8.6,0.6 -12.9,1 -2.5,0.3 -5,0.6 -7.5,0.9 z m 70.3,-21.6 c 1.8,-0.3 3.6,-0.3 5.2,-1 2.8,-1.2 5.7,-2 8.6,-2.7 0.9,-0.2 1.8,-0.8 2.4,-1.4 1.1,-1.2 2.3,-2.6 1.6,-4.2 -0.6,-1.5 -2.4,-1.6 -3.9,-1.9 -2.2,-0.4 -4.4,-0.9 -6.5,-1.2 -4.2,-0.7 -8.2,-0.7 -11.4,2.9 -0.3,0.3 -0.8,0.5 -1.2,0.6 -1.9,0.7 -2.7,2 -2.7,4 0,1.8 1.1,3.5 2.9,3.9 1.6,0.4 3.3,0.6 5,1 z m 81.1,25 c 0.2,0.1 0.3,0.3 0.4,0.3 6.1,1.2 12.2,0.9 18.4,0.6 3.7,-0.2 7.3,-0.7 11,-0.8 3.8,-0.1 7.7,0.2 11.5,0.3 4.5,0.2 9.1,0.5 13.6,0.7 3.8,0.2 7.7,0.4 11.5,-0.5 2.7,-0.6 5.4,-1.5 8.1,-2.2 2.7,-0.7 2.9,-1 2,-3.8 -0.2,-0.6 -0.4,-1.2 -0.7,-1.9 -3.2,2.5 -6.7,3.2 -10.4,3.5 -2.7,0.2 -5.4,0.3 -8.1,0.5 -5.2,0.4 -10.3,0.8 -15.5,1.2 -1.7,0.1 -3.4,0.2 -5,0.3 -2.6,0.2 -5.2,0.6 -7.9,0.6 -6.2,0 -12.3,-0.3 -18.5,-0.4 -3.4,-0.1 -6.9,0.3 -10.3,-1.1 -0.1,1.1 -0.1,1.9 -0.1,2.7 z m -75.9,-47.9 c 2.6,-1.2 4.7,-1 6.9,-0.7 3.2,0.4 6.5,0.7 9.6,-0.7 3.3,-1.4 3.9,-5 1.3,-7.6 -3.3,-3.3 -7.2,-2.9 -11.4,-2.2 -3.2,0.5 -5.3,2.3 -6.1,5.3 -0.4,1.7 -0.2,3.6 -0.3,5.9 z m 34.6,10.7 c -1.1,-0.4 -2.1,-0.5 -2.8,-1 -2.9,-2.2 -6.1,-2 -9.3,-1.1 -2.3,0.6 -3.9,2.2 -4.5,4.5 -0.4,1.3 -0.4,2.7 -0.6,4 -0.4,3.8 3.1,5.1 5.7,4 3.4,-1.4 6.4,-3.2 9.2,-5.5 1.5,-1.2 2.2,-2.9 2.3,-4.9 z m -38.6,-17.9 c -0.5,-0.1 -1.2,-0.5 -1.9,-0.5 -1.9,-0.2 -3.8,0.1 -5.6,1 -3.5,1.7 -4.3,2.9 -3.7,6.8 0.5,3.4 1.5,6.7 4.3,8.9 2.9,-1.1 5.5,-2.1 8.1,-3.1 -0.5,-4.2 -0.8,-8.4 -1.2,-13.1 z m 4.3,13.5 c 3.4,0.6 6.6,1.1 9.8,1.7 1.1,0.2 2.1,0.7 3.2,1 0.6,0.2 1.1,0.5 1.6,0.8 2,-2.4 4,-4.7 7.2,-5.1 2.9,-0.4 5.8,-0.4 8.8,-0.6 1.3,-5.1 -1.1,-7.3 -7.9,-7 -2.3,4.6 -6.4,6.2 -11.2,6.1 -2.2,0 -4.4,-0.3 -6.7,-0.5 -2.6,-0.1 -4,0.8 -4.8,3.6 z m 63.5,-60.2 c 5.9,0.2 11.4,0.3 17,0.5 0.5,-3.6 0.4,-6.3 -0.4,-8.4 -4.9,-0.9 -9.7,0.5 -14.4,1.3 -1,0.2 -1.6,0.9 -1.7,1.8 -0.3,1.6 -0.4,3.2 -0.5,4.8 z m -84.4,64.2 c -1.2,0.2 -2.2,0 -2.9,0.4 -1.3,0.8 -2.7,0.8 -4.2,0.8 -1.4,0 -2.7,0 -4.1,0 -1.8,0 -3.2,0.8 -3.7,2.5 -0.5,1.7 -0.9,3.6 -1,5.4 -0.1,2.6 0.6,3.1 3.1,2.7 0.4,-0.1 0.8,-0.2 1.1,-0.3 3.1,-0.8 5.4,-2.9 7.4,-5.1 1.7,-1.9 3.6,-3.5 4.3,-6.4 z m 55.4,53.8 c 4,0.6 6.9,-1.7 10.2,-2.8 0,-3.2 0,-6.3 0,-9.3 -3.3,0.3 -6.4,0.6 -9.8,0.9 -0.1,3.8 -0.2,7.5 -0.4,11.2 z m -56.5,-34.2 c 0.7,0.1 1.5,0.2 2.3,0.2 4.5,-0.1 9.1,-0.2 13.6,-0.4 2.4,-0.1 2.7,-0.6 2.5,-3.2 -5.4,0 -10.9,-0.1 -13.5,-6.2 -3.8,2.3 -5.5,5.5 -4.9,9.6 z m 55.2,46.4 c 4.4,-1.4 8.8,-0.9 12.9,-2.4 -0.4,-2.8 -0.7,-5.5 -1.2,-8.7 -3.5,2.1 -6.9,3 -10.7,3 -0.3,2.6 -0.6,5.1 -1,8.1 z m 0.8,-45 c 2.2,1.2 3.9,2 5.5,3 1.6,1 3.1,2.3 5,3.8 -0.3,-3.3 0.2,-6.1 -0.8,-9 -3.1,0.7 -6.1,1.4 -9.7,2.2 z m 92.5,21.3 c 0,1.5 0,2.7 0,4 1.5,0 2.9,0 4.5,0 0,-1.2 0,-2.3 0,-3.5 -1.5,-0.3 -2.9,-0.4 -4.5,-0.5 z" />
			<path
   inkscape:connector-curvature="0"
   id="path2527"
   d="m 408.9,156.4 c -2.5,0.1 -4.9,-0.2 -7.2,-1.3 -4.6,-2.1 -5.3,-6.4 -1.8,-10 3.3,-3.3 7.1,-3.1 11.2,-2.4 0.9,0.1 1.7,0.5 2.5,0.8 2.3,0.8 4,2 4.3,4.6 0.3,2.9 -0.6,5.4 -3.1,7 -1.9,1.2 -3.8,1.4 -5.9,1.3 z m -0.6,-3.6 c 1.6,-0.3 2.8,-0.3 3.9,-0.7 1.3,-0.4 1.8,-1.5 1.8,-2.8 0.1,-1.3 -0.7,-1.7 -1.7,-2.2 -2,-0.9 -4,-0.9 -6.1,-0.9 -1.6,0 -2.8,0.7 -3.8,1.8 -1.4,1.5 -1.2,2.9 0.6,3.6 1.8,0.6 3.8,0.9 5.3,1.2 z" />
		</g>
		<path
   inkscape:connector-curvature="0"
   id="path2531"
   d="m 236.6,178.6 c 4.9,0.2 9.9,0.2 14.8,0.5 1.7,0.1 3.4,0.8 4.9,1.6 2,1 2.9,3 2.7,5.2 -0.2,2.3 -1.3,4.2 -3.6,4.9 -3.4,1.1 -7,1.8 -10.6,1.5 -5.2,-0.4 -10.3,-1.1 -15.5,-1.6 -0.9,-0.1 -1.8,0 -2.6,-0.1 -0.7,0 -1.5,0 -2.1,-0.2 -1.7,-0.5 -3.2,-1.2 -3.7,-3 -0.5,-1.8 0.3,-3.3 1.6,-4.5 3.2,-2.7 6.6,-4.7 11,-4.4 1.1,0 2.1,0 3.1,0.1 0,-0.1 0,-0.1 0,0 z m -12.1,7.7 c 0.8,0.3 1,0.4 1.2,0.4 6.4,0.6 12.9,1.4 19.3,1.7 2.8,0.1 5.7,-0.6 8.5,-1 1,-0.1 1.5,-0.8 1.6,-1.8 0.1,-1 -0.5,-1.6 -1.4,-2 -0.6,-0.3 -1.2,-0.6 -1.8,-0.6 -2,-0.1 -4,-0.2 -6,-0.3 -1,0 -1.9,0.1 -2.9,0.1 -3.7,-0.1 -7.5,-0.6 -11.2,-0.4 -2.6,0.1 -5,1.6 -7.3,3.9 z" />
	</g><g
   id="g2547">
		<g
   id="g2543">
			<path
   inkscape:connector-curvature="0"
   id="path2535"
   d="m 850.6,443.2 c -1.1,2.8 -3.8,3.2 -6.2,3.7 -3,0.6 -6,0.7 -9,1.1 -1.3,0.2 -2.7,0.4 -4,0.6 -0.1,0.5 -0.3,0.8 -0.3,1 0.3,2.4 -0.9,4.1 -2.7,5.5 -4.9,3.8 -10.4,6.1 -16.7,6.3 -2.8,0.1 -5.6,0.3 -8.4,0.6 -2.2,0.3 -4.1,1.3 -5.1,3.4 -0.7,1.5 -3,2.6 -4.8,2.4 -5.3,-0.6 -10.3,-2.1 -15.2,-4.2 -3,-1.3 -6,-2.5 -9.1,-3.7 -0.7,-0.3 -1.5,-0.6 -2.2,-0.9 -2.3,-1.1 -2.7,-1.7 -2.4,-4.3 0.2,-1.8 0.3,-3.7 0.5,-5.5 0,-0.5 0.1,-1 0.3,-1.4 1.2,-1.9 2.4,-3.8 3.7,-5.6 2.1,-2.7 5.1,-4 8.3,-4.9 3.5,-0.9 6.9,-1.8 10.4,-2.7 3.2,-0.8 4.9,-3.2 4.6,-6.5 0,-0.3 -0.1,-0.6 -0.1,-1 0.1,-2 1.1,-2.9 3.1,-2.6 0.9,0.1 1.7,0.4 2.6,0.6 0.8,0.2 1.7,0.3 2.8,0.5 0.2,-1.2 0.4,-2.4 0.6,-3.5 1.7,-7.1 3.5,-14.3 5.2,-21.4 0.3,-1.4 0.5,-2.8 0.8,-4.2 0.7,-3 1.2,-5.9 2.1,-8.8 2,-6.4 3.5,-12.9 6.5,-19 0.2,-0.5 0.3,-1 0.5,-1.7 -5,-0.2 -8.3,-2.9 -10.9,-6.7 -1.2,-1.9 -2.5,-3.7 -3.6,-5.6 -0.6,-1.1 -0.9,-2.5 -1.5,-4.2 -0.6,-0.2 -1.6,-0.5 -2.6,-0.8 -0.8,-0.3 -1.8,-0.4 -2.4,-1 -1.4,-1.5 -3,-1.4 -4.8,-1.4 -2.4,0 -3.3,-0.9 -3.4,-3.3 -0.1,-3.1 -0.1,-6.2 0,-9.4 0,-2.1 1.6,-3.4 4,-3.7 3.8,-0.5 7.6,-0.3 11.4,0.2 3.9,0.5 7.6,0.3 11.2,-1.4 2.4,-1.2 5,-2.1 7.6,-3 6.1,-2 12.2,-2.1 18.4,-0.4 1.2,0.3 2.5,0.7 3.7,1 1.7,0.4 2.5,1.6 2.7,3.2 0.6,4.3 -0.4,5.5 -4.8,5.6 -1.7,0 -3.5,0 -5.3,0 -0.5,4.7 -0.9,9.1 -1.5,13.5 -0.3,2.6 -1.3,4.8 -4,5.8 -0.3,0.1 -0.7,0.5 -0.7,0.8 -0.1,1.7 -0.5,3.3 0.4,5.1 1.4,2.9 2.5,6.1 3.5,9.2 4.5,13.5 8.5,27.1 12.5,40.7 2.1,7.2 3.2,14.7 3.7,22.2 0,0.9 0.3,1.7 0.5,2.5 0.1,2.5 0.1,4.9 0.1,7.3 z m -32.4,-69.5 c 1.4,0.8 2.7,1.8 4,2.3 3,1.1 4.5,3.2 4.8,6.3 0.2,2 0.2,4 0.3,6 0,8.3 0.1,16.6 0,24.9 0,3.2 -0.4,6.4 -0.5,9.6 -0.2,3.1 -0.3,6.2 -0.5,9.4 0.7,0.3 1.2,0.6 1.8,0.8 1.3,0.5 2.7,0.9 4,1.5 1.8,0.8 2.2,2.3 0.9,3.6 -1.2,1.2 -1.5,2.6 -1.9,4.1 -0.5,1.9 0,2.5 2,2.3 2.7,-0.2 5.4,-0.3 8.1,-0.7 1.9,-0.3 3.7,-0.8 5.8,-1.3 -0.2,-3.6 -0.4,-6.8 -0.7,-10.1 -0.7,-6.9 -1.6,-13.8 -3.6,-20.5 -4,-13.4 -7.9,-26.8 -12.3,-40 -0.9,-2.6 -2,-5.1 -3.1,-7.7 -1.9,0.2 -3.7,0.4 -5.3,0.5 -1.3,2.9 -2.5,5.7 -3.8,9 z m 10.1,63.5 c -1.2,-0.5 -1.9,-0.9 -2.7,-1.2 -3.8,-1.3 -7.5,-2.6 -11.3,-3.8 -2.1,-0.7 -4.2,-1.6 -6.4,-1.9 -3.8,-0.6 -7.6,-0.8 -11.4,-1.2 0,0 -0.1,0.2 -0.2,0.3 -0.5,4.8 -3.6,8.1 -8.3,9.2 -4,0.9 -7.9,2.1 -11.8,3.2 -3.1,0.9 -5,3.1 -6.3,6.1 0.6,0.2 1,0.5 1.4,0.5 2.3,0.2 4.2,1.3 6.3,2.1 4.1,1.6 8.2,2.9 12.4,4.4 0.2,0.1 0.5,0 0.7,0 1.4,-2.1 3,-4 5.2,-5.3 4.3,-2.4 9.1,-3.5 13.9,-3.9 2.8,-0.2 5.3,-0.9 7.7,-2.1 1.9,-1 3.9,-1.8 5.7,-2.9 1.9,-0.9 3.3,-2.1 5.1,-3.5 z m -11.6,-59.6 c -1.2,3.9 -2.6,7.8 -3.6,11.7 -1.1,4 -1.7,8.1 -2.7,12.1 -1.7,7.1 -3.5,14.1 -5.2,21.2 -0.2,1 -0.2,2.1 -0.4,3.2 6.2,0.7 11.5,3.4 17.3,5 0.1,-0.4 0.3,-0.7 0.3,-1 0.4,-5.1 0.9,-10.2 1,-15.3 0.2,-9 0.1,-18.1 0,-27.1 0,-1.7 -0.2,-3.3 -0.3,-5 -0.1,-1.4 -0.9,-2.3 -2.2,-2.9 -1.3,-0.5 -2.6,-1.2 -4.2,-1.9 z m -19.8,-43.1 c -0.2,3.1 -0.5,6.1 -0.5,9.1 0,0.7 1,1.5 1.7,2.1 0.4,0.3 1,0.4 1.6,0.5 3.5,0.8 7,1.7 10.5,2.3 2.3,0.4 4.7,0.8 6.9,0.3 2.1,-0.5 3.9,-0.2 5.8,0.3 2.4,0.7 4.8,1.5 7.5,2.3 0.2,-0.6 0.6,-1.3 0.7,-2 0.4,-3 0.6,-6 0.9,-9 0.2,-1.8 0,-3.7 1.8,-4.9 0.2,-0.1 0.3,-0.4 0.4,-0.6 0.9,-2.5 0.9,-2.5 3.4,-2.5 1.6,0 3.3,0 4.8,0 0.4,-1.2 -0.2,-1.4 -0.9,-1.6 -1.9,-0.5 -3.8,-1 -5.8,-1.4 -4.3,-0.8 -8.6,-0.5 -12.7,0.9 -2.8,0.9 -5.6,2 -8.2,3.2 -3.8,1.8 -7.7,2 -11.7,1.5 -2.1,-0.2 -4.1,-0.3 -6.2,-0.5 z m -1.3,127.1 c 0.6,-0.4 1,-0.5 1.4,-0.8 2.2,-1.9 4.8,-2.6 7.7,-2.7 3,-0.1 6.1,-0.3 9.1,-0.5 0.6,0 1.3,-0.2 1.9,-0.4 2.1,-0.8 4.2,-1.4 6.2,-2.4 1.6,-0.8 3.1,-2 4.5,-3.1 0.4,-0.3 0.7,-1.1 0.7,-1.6 0,-2.1 -0.1,-4.3 -0.2,-6.8 -2.2,1.1 -4.1,2.1 -6,3 -3,1.4 -5.9,3.1 -9.4,3.2 -3.2,0.2 -6.4,1 -9.6,1.7 -1.4,0.3 -2.8,1.1 -4.1,1.9 -3.1,1.8 -3.8,3.5 -2.7,6.9 0.1,0.4 0.3,0.9 0.5,1.6 z m -3.5,2.2 c -0.2,-1 -0.4,-1.8 -0.5,-2.5 -0.3,-1.7 -1.1,-2.4 -2.9,-2.9 -4.1,-1.2 -8.2,-2.6 -12.1,-4.3 -2.4,-1 -4.8,-2 -7.7,-2.2 -0.2,1.2 -0.3,2.4 -0.5,3.7 7.8,2.9 15.1,6.9 23.7,8.2 z m 26.7,-103.7 c 2.4,0.7 4.7,0.7 7,0.1 0.2,-2.1 0.4,-4 0.6,-6.2 -2.6,-0.5 -5,-1.6 -8,-1.7 0.2,2.7 0.3,5.2 0.4,7.8 z m -27.5,-16.4 c 0.6,-0.4 1,-0.5 1,-0.6 0.2,-2.5 0.4,-5 0.5,-7.5 0,-0.9 -0.7,-0.8 -1.5,-0.6 0,2.7 0,5.5 0,8.7 z m 23.3,9 c -1.4,0 -2.6,0 -4,0 0.4,2.4 2.3,3.2 4,4.8 0,-1.8 0,-3.2 0,-4.8 z m 1.2,10.1 c -2.1,-1.4 -4.2,-2.8 -6.3,-4.3 1.3,2.6 3.3,4.3 6.3,4.3 z m -9.4,-8.1 c 0.4,-3.1 0.4,-3.1 -1.4,-2.7 0.5,0.9 1,1.8 1.4,2.7 z" />
			<path
   inkscape:connector-curvature="0"
   id="path2537"
   d="m 727.9,306.1 c 0,-3.1 0,-5.9 0,-8.7 0.1,-2.2 2,-4.3 4.2,-4.3 3.8,-0.1 7.7,0 11.5,0.1 1.3,0.1 2.7,0.5 3.9,1 2,0.7 2.6,1.4 2.6,3.5 0,1.8 -0.1,3.7 -0.2,5.5 0,0.9 -0.1,1.7 -0.2,2.7 2.1,0.7 3.3,2.3 4.5,3.9 6.1,8 12.2,16.1 16.5,25.2 2.3,4.9 3.8,10.1 4,15.7 0.4,8.7 0,17.4 -0.6,26.1 -0.1,1.2 -0.4,2.4 -0.5,3.6 -0.3,3.8 -0.2,7.7 1,11.4 2.5,7.7 2.7,15.7 2.3,23.7 -0.2,4.5 -1.1,9 -1.8,13.5 -0.3,2.2 -0.8,4.4 -1.4,6.6 -0.6,2.4 -1.1,2.6 -3.5,2.9 -6.3,0.9 -12.7,1.4 -18.9,3.1 -1.9,0.5 -3.9,0.6 -5.9,0.7 -2.1,0.1 -4.2,0 -6.2,0.1 -2.3,0.1 -4.6,-0.2 -6.8,-1 -1.3,-0.5 -2.6,-0.7 -4,-0.9 -5.2,-0.7 -10.4,-1.4 -15.7,-2.1 -2.3,-0.3 -4.6,-0.3 -7,-0.5 -0.4,1 -0.7,1.8 -1,2.6 -2.2,6 -6.5,9.6 -12.9,10.4 -3.6,0.5 -7.3,0.5 -11,0.6 -4.2,0.1 -8.5,0.2 -12.7,0.1 -2.4,0 -4.8,-0.4 -7.1,-0.6 -2.2,-0.3 -4.4,-0.5 -6.6,-0.9 -1.7,-0.3 -3.4,-0.8 -5,-1.1 -0.5,1.2 0.2,1.5 0.9,1.8 5,2.1 7.1,6.2 7.4,11.4 0.1,1.6 -0.5,3.2 -0.8,5.2 1.9,0.6 4,1.4 6.2,2.1 7.5,2.3 14.3,5.8 19.8,11.3 4.5,4.5 9.8,6.6 15.9,7.7 1.4,0.2 2.8,0.8 4,1.4 2.7,1.4 3.4,3.8 2,6.4 -2.8,5.1 -12.3,9.6 -18.8,5.3 -8.7,-5.8 -17.9,-10.9 -26.5,-16.8 -5.1,-3.5 -9.6,-7.9 -14.4,-11.9 -0.8,-0.7 -1.5,-1.6 -2.9,-1.3 -4.3,1 -8.6,0.2 -12.9,-0.2 -3.6,-0.3 -7.1,-0.7 -10.7,-1.3 -1.2,-0.2 -2.5,-0.7 -3.5,-1.5 -3.4,-2.7 -6,-5.8 -5.5,-10.5 0.1,-1 0.3,-2.1 0.7,-3 1.1,-2.6 2,-3.1 5.5,-2.9 0,-2.4 0.2,-4.8 0,-7.2 -0.4,-5.1 1.4,-9.1 5.4,-11.8 0,-3.7 0.1,-7.2 0,-10.7 -0.3,-9.5 1,-19 2.1,-28.4 1.6,-13.5 6.2,-26.2 10.6,-39 1.7,-5 4.4,-9.6 7.5,-13.9 2.9,-3.9 5.9,-7.8 9,-11.5 2.7,-3.3 6.3,-5.7 10.3,-7.3 2.3,-0.9 4.6,-1.8 7.1,-2.8 0,-0.7 0,-1.7 0,-2.6 0,-2.2 -0.1,-4.3 -0.1,-6.5 0,-1.8 0.8,-2.9 2.5,-3.3 1.3,-0.3 2.6,-0.7 4,-0.7 4.9,-0.2 9.8,-0.3 14.6,-0.4 0.6,0 1.3,0 1.9,0.1 5,0.6 6.5,2.4 7.2,6.6 0.2,1.6 0.8,3.1 1.1,4.7 0.3,1.6 1,2.9 2,4.2 2,2.6 2.7,5.8 3.2,8.9 0.1,0.8 0.2,1.6 0.3,2.5 3.5,-5 6.5,-10.3 10.4,-14.8 3.6,-4.6 8.1,-8.9 13,-12.2 z m 42.4,128.4 c 0.8,-4.5 1.7,-8.9 2.3,-13.3 1.2,-9.6 1.2,-19.1 -1.6,-28.5 -0.9,-3.1 -1.4,-6.2 -1.2,-9.5 0.2,-2.2 0.4,-4.4 0.5,-6.7 0.6,-8.6 1,-17.2 0.6,-25.9 -0.2,-5 -1.6,-9.8 -3.7,-14.3 -3.9,-8.3 -9.5,-15.5 -14.9,-22.9 -1.3,-1.8 -2.9,-3.4 -4.1,-4.8 -4.6,0 -8.8,0.3 -12.9,-0.1 -3.3,-0.4 -5.7,0.6 -8,2.6 -2.4,2.1 -4.8,4.3 -7,6.5 -2,2 -4,4 -5.6,6.2 -2.3,3.3 -4.4,6.9 -6.4,10.4 -1,1.6 -1.7,3.5 -2.4,5.2 -0.2,0.4 -0.2,0.9 -0.1,1.4 0.4,2.1 0.9,4.2 1.4,6.6 0.8,-1.1 1.4,-2 2,-2.9 1.1,-1.5 4.8,-2.6 6.5,-1.7 0.6,0.3 1.2,0.9 1.5,1.5 0.4,0.8 0.9,1.8 0.9,2.7 0.2,3.3 0.3,6.5 0.3,9.8 -0.1,3.2 -0.4,6.4 -0.8,9.5 -0.5,4.2 -1.1,8.4 -2.5,12.4 -0.7,1.9 -2,2.8 -4,2.9 -0.9,0 -1.9,0 -2.9,0 -0.1,0.7 -0.1,1.2 -0.1,1.7 0,6.9 0.1,13.7 0,20.6 -0.1,7.8 -0.3,15.7 -0.4,23.5 0,2.1 -0.2,4.2 -0.4,6.4 1.9,0.1 3.7,0.2 5.5,0.5 5.5,0.7 10.9,1.4 16.4,2.2 1.7,0.3 3.4,0.8 5.1,1.2 0.9,0.2 1.9,0.6 2.8,0.6 5.6,-0.1 11.2,0.5 16.6,-1.4 1,-0.3 2,-0.4 3.1,-0.5 4.3,-0.5 8.8,-1.2 13.5,-1.9 z m -145,-2.1 c 0.5,0.1 0.8,0.3 1.1,0.3 5,-0.1 9.4,2.3 14.2,3.2 3,0.6 5,2.8 5.9,5.7 0.7,2.1 2,3.3 4.2,3.6 1.7,0.3 3.4,1 5.1,1 1.6,0 3.1,0.4 4.7,0.7 3.1,0.4 6.2,0.9 9.3,1 5.8,0.1 11.5,-0.1 17.3,-0.3 2.1,-0.1 4.1,-0.5 6.1,-0.9 3.6,-0.7 6,-3.1 7.6,-6.3 3,-6.3 3.4,-13 3.3,-19.9 0,-0.1 -0.1,-0.1 -0.2,-0.3 -0.8,0.2 -1.6,0.4 -2.4,0.7 -3.7,1.2 -7.4,0.9 -11.1,0.4 -2.5,-0.3 -4.9,-1.4 -7.3,-2.2 -1.9,-0.7 -3.1,-2 -3.3,-4 -0.2,-2.1 -0.5,-4.1 -0.5,-6.2 0.1,-6.6 0.3,-13.3 0.4,-19.9 0.1,-8.6 0,-17.3 0,-25.9 0,-3.1 0.1,-6.2 0,-9.3 0,-2.9 1.3,-4.9 4,-5.9 0.7,-0.2 1.3,-0.5 2,-0.7 3.9,-1.1 7.7,-2.1 11.8,-1.9 1.7,0.1 3.4,0 5.4,0 -0.4,-1.6 -0.7,-2.8 -1,-4 -0.5,-2.7 -1.3,-5.3 -1.5,-8 -0.2,-2.7 -0.8,-5.2 -1.8,-7.7 -0.9,-2.4 -2.9,-3.5 -5.5,-3.2 -3,0.3 -6,0.6 -9.1,0.8 -5.2,0.3 -10.4,0.4 -15.6,0.6 -0.9,0 -2,0.1 -2.8,0.5 -4.7,1.9 -9.2,4 -12.7,7.9 -4.2,4.7 -7.9,9.9 -11.2,15.2 -1.5,2.3 -2.9,4.8 -3.8,7.4 -4.5,12.7 -9,25.4 -10.9,38.9 -1.6,11.7 -2.6,23.5 -2.1,35.3 0.2,1.2 0.3,2.3 0.4,3.4 z m 77.9,-83.7 c -2.5,0.2 -4.7,0.4 -6.9,0.4 -3.6,0 -6.9,0.9 -10.3,2 -2.3,0.7 -2.5,1.1 -2.5,3.4 -0.1,16 0.1,32.1 -0.5,48.1 -0.1,3.6 0.2,7.2 0.4,10.8 0.1,2 0.3,2.1 2.4,2.6 1.1,0.2 2.2,0.5 3.2,0.9 4,1.6 8,1.4 11.9,0.1 1.2,-0.4 2.2,-1.6 3.3,-2.4 0,-1.1 0,-2.2 0,-3.2 -0.1,-13.7 0,-27.3 -0.2,-41 -0.1,-6.3 -0.4,-12.6 -0.7,-18.9 0.1,-1 0,-1.8 -0.1,-2.8 z m -16.5,139.9 c -2.3,-2 -4.3,-3.9 -6.5,-5.6 -2.7,-2.1 -5.5,-4.1 -8.4,-6 -5.5,-3.5 -12,-4.7 -18,-7 -2.4,-0.9 -2.9,-1.8 -1.5,-4 0.3,-0.4 0.6,-0.8 0.8,-1.2 0.9,-1.2 1.1,-2.4 0.8,-3.8 -0.3,-1.9 -1.1,-3.5 -2.2,-5 -0.4,-0.5 -1,-0.8 -1.9,-1.6 0.2,1.4 0.3,2.2 0.5,2.9 0.4,2.4 -0.2,4.2 -2.4,5.4 -1.4,0.8 -2.7,1.6 -4.4,1.6 -0.9,0 -1.8,0.5 -2.7,0.7 -4.9,1.6 -9.9,2 -14.8,0.1 -2.5,-1 -4.8,-2.6 -7.2,-3.8 -1.5,-0.7 -2.5,-1.8 -2.5,-3.5 0,-1.5 -0.9,-1.9 -2.2,-1.7 -1.6,3.7 1.3,9.3 5.1,10 0.1,0 0.2,0 0.2,0 3.6,0.4 7.1,0.9 10.7,1.2 4.3,0.3 8.6,1.2 12.9,-0.1 0.7,-0.2 1.7,0.3 2.4,0.7 0.8,0.4 1.3,1.1 2,1.7 5,4.2 9.9,8.7 15.2,12.5 5.8,4.2 12.1,7.7 18.2,11.5 0.8,0.5 1.6,1 2.6,1.6 0.2,-2.7 0,-5.5 3.3,-6.6 z M 671.4,319.9 c 8.1,-1.1 15.9,0.2 23.6,-1.7 -0.3,-1.6 -0.7,-3.1 -1,-4.7 -0.6,-3 -1,-3.4 -4,-3.7 -0.6,0 -1.1,0 -1.7,0 -4.7,0.1 -9.4,0.2 -14.1,0.4 -0.8,0 -1.7,0.2 -2.6,0.4 -0.1,0.6 -0.2,1 -0.2,1.4 0,2.5 0,5 0,7.9 z m -45.3,116.2 c -2,0 -3.6,0.3 -4.7,2 -2.1,3.1 -2.5,7.7 1.6,10.5 4.6,3.2 9.8,4.7 15.3,4.6 2.7,0 4.7,-1.7 5.2,-4.4 0.2,-1.3 0.4,-2.8 0.1,-4 -0.7,-3.2 -2.1,-5.2 -5.3,-5.7 -1.2,-0.2 -2.3,-0.5 -3.5,-0.8 -2.9,-0.7 -5.8,-1.4 -8.7,-2.2 z m 88.1,-89.3 c -1.7,0.4 -2.7,1.2 -3.4,2.4 -1.5,2.7 -3,5.3 -3,8.4 0,3.3 0.2,6.5 0.2,9.8 0,2.3 -0.1,4.6 -0.1,6.9 0,1 1.4,3.3 2.3,3.5 0.4,0.1 1.1,-0.3 1.3,-0.6 0.4,-0.8 0.7,-1.8 0.9,-2.7 1.1,-4.7 1.5,-9.4 1.8,-14.2 0.2,-3.3 0.3,-6.7 0.4,-10 0,-1.2 -0.3,-2.3 -0.4,-3.5 z M 731.7,304 c 4.8,1.6 9.5,1.1 14.3,1.1 0.2,-2.5 0.3,-4.8 0.4,-7 -0.4,-0.3 -0.7,-0.5 -1,-0.6 -4.1,-1.1 -8.2,-1.1 -12.3,-0.7 -1,0.1 -1.5,0.9 -1.5,1.9 0.1,1.7 0.1,3.5 0.1,5.3 z M 693,491 c 2.9,2.1 3.4,4.7 1.7,8.1 3.1,-1.4 5.8,-2.4 6.9,-5.6 -2.6,-2 -5.7,-1.7 -8.6,-2.5 z m -48.4,-30.2 c 0.8,-1 1.8,-1.7 1.8,-2.5 0.1,-1.5 -0.3,-3 -0.6,-4.8 -1.4,1.2 -2.5,2.2 -3.4,3.1 0.7,1.4 1.3,2.5 2.2,4.2 z m -3.8,-0.3 c -2.3,-0.4 -3.1,-1.7 -3.2,-4 -1.9,1.9 -2.3,3.8 -2.8,5.9 2,0.2 3.8,-0.1 6,-1.9 z m -20,-2.2 c 0.2,0 0.4,-0.1 0.6,-0.1 0,-1.9 0,-3.9 0,-6 -0.4,-0.2 -1,-0.5 -1.5,-0.8 0,0 -0.1,0.1 -0.4,0.2 0.4,2.2 -0.5,4.7 1.3,6.7 z m 9.7,-2 c -0.4,2 -0.7,4 -1.1,6.2 0.9,0 1.5,0 2.3,0 -0.9,-2.1 0.4,-3.9 0.9,-5.7 -0.4,-0.2 -0.7,-0.4 -1,-0.4 -0.3,-0.2 -0.7,-0.1 -1.1,-0.1 z m -5,4.1 c 1.5,-4 1.5,-4.9 0,-5.6 0,1.8 0,3.6 0,5.6 z m 62.8,33.9 c 1,0.6 1.9,1.5 3.3,1 -0.9,-1.4 -2,-1.5 -3.3,-1 z" />
			<path
   inkscape:connector-curvature="0"
   id="path2539"
   d="m 753.9,374.3 c 0.5,-7.4 0.9,-14.8 1.5,-22.2 0.2,-2.4 2,-4.5 4.3,-5.1 2.9,-0.8 5.6,1.2 5.8,4.4 0.1,2.4 0,4.8 0,7.2 -0.1,3.7 -0.3,7.5 -0.4,11.2 -0.1,3.9 -0.5,7.6 -2,11.2 -1.2,2.9 -2.1,3.6 -4.2,3.3 -2.7,-0.3 -4.6,-2.2 -4.8,-4.8 -0.1,-1.7 0,-3.5 0,-5.3 -0.1,0.1 -0.1,0.1 -0.2,0.1 z m 7.5,-23.6 c -2,0.1 -2.2,1.3 -2.3,2.7 -0.4,7.2 -0.9,14.5 -1.3,21.7 -0.1,1.2 -0.1,2.4 0.1,3.6 0.1,0.6 0.4,1.2 0.8,2.2 0.5,-1 0.9,-1.4 1.1,-1.9 1,-2.5 1.4,-5.1 1.5,-7.7 0.2,-4.7 0.4,-9.4 0.5,-14.1 0.1,-1.6 0,-3.2 0,-4.8 0,-0.6 -0.3,-1.1 -0.4,-1.7 z" />
			<path
   inkscape:connector-curvature="0"
   id="path2541"
   d="m 651.9,391.3 c -3.9,0.4 -7.6,-0.6 -11,-3 -1.5,-1.1 -2.4,-2.3 -2.2,-4.2 0.2,-2.1 0.3,-4.3 0.9,-6.4 1.5,-5.5 2.8,-11 4.8,-16.3 1.8,-4.8 4.2,-9.5 6.5,-14.1 1.1,-2.3 2.9,-4 5.4,-4.8 4.8,-1.6 9.6,0.6 9.9,6.6 0.2,3.8 -0.1,7.7 -0.5,11.5 -0.6,6.3 -1.5,12.5 -2.4,18.8 -0.4,2.6 -1.2,5.1 -1.9,7.6 -0.8,2.8 -2.8,4.2 -5.7,4.2 -1.3,0.1 -2.5,0.1 -3.8,0.1 z m 10.5,-38.5 c 0,-1 0.1,-2.1 0,-3.1 -0.1,-1.5 -0.4,-3 -1.8,-3.7 -1.4,-0.7 -3,-0.1 -4.3,0.8 -0.5,0.4 -1,0.8 -1.3,1.4 -0.7,1.1 -1.4,2.1 -2,3.3 -3.2,6.4 -6,13.1 -7.7,20 -0.9,3.5 -1.8,7 -2.6,10.4 -0.5,1.9 -0.1,3.5 2,4.2 1.3,0.5 2.7,1.2 4,1.3 2.2,0.2 4.5,0.1 6.7,0.1 1.3,0 2.1,-0.7 2.4,-1.9 0.4,-1.3 0.9,-2.6 1.2,-3.9 2,-9.5 2.7,-19.2 3.4,-28.9 z" />
		</g>
		<path
   inkscape:connector-curvature="0"
   id="path2545"
   d="m 634.1,451.5 c -2.1,-0.2 -4.7,-1.2 -7.2,-2.8 -1.4,-0.9 -2.6,-2.2 -2.9,-4 -0.3,-1.9 0.1,-3.7 1.7,-4.9 1.8,-1.4 3.9,-1.6 5.6,-0.6 2.4,1.5 4.6,3.4 6.8,5.3 0.5,0.5 0.8,1.4 1,2.1 0.8,3.3 -0.8,5 -5,4.9 z m 1.1,-4.1 c -1.5,-2.1 -3.3,-4 -5.8,-4.8 -0.4,-0.1 -1.3,0.2 -1.4,0.5 -0.1,0.5 0,1.3 0.3,1.7 1.9,1.9 4.3,2.6 6.9,2.6 z" />
	</g><g
   id="g2577">
		<g
   id="g2573">
			<path
   inkscape:connector-curvature="0"
   id="path2549"
   d="m 783.9,204.6 c -2.8,0.5 -5.3,0.8 -7.8,1.3 -5.7,1 -11.3,0.7 -16.8,-1.1 -1.1,-0.3 -2.2,-0.5 -3.3,-0.8 -5.2,-1.1 -7.7,-3.9 -8.2,-9.2 -0.2,-2.1 -0.3,-4.3 -0.4,-6.5 -0.3,-6.6 -0.4,-13.3 -0.8,-19.9 -0.3,-5.8 -0.9,-11.6 -1.5,-17.4 -0.7,-6.8 -1.5,-13.7 -2.1,-20.5 -0.1,-1 -0.3,-1.8 -1.2,-2.4 -1.6,-1.2 -2.4,-2.9 -2.5,-5 -0.1,-2.9 -0.2,-5.9 -0.2,-8.8 0,-1.7 0.2,-3.3 0.5,-5 1,-6.1 8.1,-11.3 13,-11.6 2.5,-0.1 5,-0.5 7.5,-0.9 4.4,-0.8 8.9,-1 13.3,-1.3 2,-0.1 4,0.4 6,0.5 2.3,0.2 4.6,0.3 6.9,0.3 4.1,-0.1 8.1,0.8 11.9,2.3 4.4,1.7 7.1,5.1 9,9.1 0.6,1.4 0.6,3.1 0.6,4.7 0,2.1 0.2,4.1 -1.2,6.2 -0.9,1.4 -0.7,3.5 -0.9,5.4 -0.1,0.6 -0.2,1.3 -0.2,1.9 -0.2,1.8 -1.1,3.2 -2.8,3.9 -1.3,0.5 -1.7,1.4 -1.8,2.8 -0.1,5.4 -0.3,10.7 -0.5,16 -0.1,4.7 -0.3,9.4 -0.4,14.1 0,0.9 0,1.9 0,3.1 2.1,0.1 4.1,0.2 6.2,0.3 0.7,-1.8 1.3,-3.5 2,-5.2 1.2,-2.6 2.3,-5.3 3.8,-7.7 2.2,-3.6 4.6,-7.1 6.9,-10.6 0.5,-0.7 1.1,-1.4 1.7,-2 1.1,-1.1 2.5,-1.5 4,-0.8 1.1,0.5 2.2,1 3.1,1.8 3.8,3.3 7.5,6.7 11.2,10.1 0.6,0.5 1.1,1.2 1.6,1.8 1.7,2.2 1.7,4.9 0.1,7.1 -0.8,1.2 -2,1.6 -3.4,0.9 -1.3,-0.6 -2.5,-1.5 -3.6,-2.3 -2.8,-2.2 -5.6,-4.5 -8.6,-6.9 -3.9,4.9 -4.6,11.1 -7.4,16.7 2.7,0.1 5.1,0.2 7.5,0.2 2.3,0 4.2,0.5 6,2 1.2,1 2.4,1.8 3.6,2.8 2.9,2.3 3.8,5.3 3.4,9 -1,9 -2,17.9 -2.9,26.9 -0.4,4.4 -0.5,8.8 -1.1,13.1 -1,7.3 -2.7,14.4 -5.8,21.2 -0.5,1.1 -1.1,2.1 -1.8,3.1 -1.8,2.7 -4.4,4.1 -7.7,3.9 -4.6,-0.2 -9.3,0 -13.9,-0.4 -2.9,-0.2 -5.8,-1 -8.6,-1.9 -2.9,-1 -4.1,-3.8 -4.8,-6.5 -2.2,-7.8 -3.8,-15.8 -4.9,-23.9 -0.6,-4.6 -1.7,-9.1 -2.7,-13.9 z M 797,133 c -2.2,1 -4,1.9 -5.9,2.7 -1.5,0.6 -3,1.1 -4.5,1.4 -2.5,0.4 -5.1,0.4 -7.6,0.9 -4,0.8 -7.8,1.1 -11.9,0.5 -6.7,-1.1 -13.2,-2.3 -18.8,-6.5 -0.3,-0.2 -0.7,-0.3 -1.1,-0.5 -0.1,0.4 -0.1,0.6 -0.1,0.8 0.5,5 1,10 1.6,15 1,8.4 2,16.8 2,25.3 0,7.3 0.6,14.5 1,21.8 0.2,3.5 1.8,5.1 5.2,5.8 1.1,0.2 2.2,0.5 3.3,0.8 3.6,1.1 7.3,1.8 11.1,1.4 2.6,-0.2 5.2,-0.6 7.8,-1 1.3,-0.2 2.6,-0.6 4,-0.9 -0.7,-2.6 -1.4,-4.9 -1.9,-7.2 -0.9,-4.4 -2.3,-8.6 -1.4,-13.2 1.1,-5.7 5.6,-10.7 11.3,-12 1.7,-0.4 3.4,-0.9 5.1,-1.4 0.3,-11.1 0.5,-22.1 0.8,-33.7 z m -12.4,57.8 c 0.2,1 0.2,1.4 0.3,1.9 1,4.1 2.1,8.2 3,12.3 1.2,5.8 2.3,11.6 3.2,17.4 1,6.5 2.6,12.8 4.2,19.1 0.6,2.3 1.9,4.2 4.6,4.5 3,0.4 6,0.9 9,1.1 3.2,0.2 6.4,0 9.6,0.2 2.7,0.2 4.4,-1 5.7,-3.2 0.4,-0.6 0.7,-1.3 0.9,-1.9 3.2,-7.3 4.8,-15 5.7,-22.9 1,-9 1.8,-17.9 2.7,-26.9 0,-0.4 0,-0.7 0,-1.4 -0.8,0.5 -1.3,0.9 -1.8,1.1 -2.2,1 -4.4,2.3 -6.8,2.9 -4.7,1.2 -9.6,1.6 -14.5,1.5 -3.5,-0.1 -7,-0.7 -10.5,-0.8 -5.4,-0.1 -10.4,-1.5 -15.3,-4.9 z m -7.3,-65.5 c 4.2,-0.3 8.5,0.2 12.6,-1.1 2.1,-0.7 4.4,-1 6.3,-2 1.9,-1 3.4,-2.7 5,-4.1 2.2,-1.9 2.4,-4.5 2.7,-7.1 0.1,-0.7 0,-1.5 -0.3,-2.1 -1.7,-2.8 -3.6,-5.5 -6.8,-6.8 -3.2,-1.2 -6.5,-2 -10,-1.9 -2.6,0 -5.1,0 -7.7,-0.3 -7.1,-1 -14,-0.3 -20.8,1.5 -1.3,0.3 -2.7,0.5 -4,0.3 -1.8,-0.2 -3.3,0.2 -4.8,1.1 -1.3,0.8 -2.5,1.8 -3.6,2.8 -1.8,1.6 -2.5,3.7 -2.7,6 -0.1,1.6 0.3,3.3 0.7,4.9 0.1,0.4 0.6,0.7 1,1 0.7,0.4 1.4,0.8 2.1,1 4.1,1.4 8.3,2.8 12.5,4.2 2.3,0.8 4.7,1.6 7.1,2 3.6,0.4 7.2,0.4 10.7,0.6 z m 31.7,67.6 c 4,-0.3 7.5,-0.5 11,-0.9 1.4,-0.1 2.8,-0.4 4.2,-0.8 3.5,-0.9 6.5,-2.6 8.7,-5.5 2.2,-2.9 2,-6.6 -0.7,-9 -1.3,-1.2 -2.8,-2.2 -4.2,-3.2 -0.4,-0.3 -1,-0.5 -1.5,-0.5 -3.4,0 -6.8,0 -10.6,0 -0.6,2.1 -1.3,4.3 -2,6.5 -0.4,1.4 -0.5,2.8 -1.1,4.1 -1.1,3.1 -2.3,5.9 -3.8,9.3 z m -3.8,-22.6 c -3,-0.6 -5.7,-0.7 -8.3,0.4 -1.4,0.6 -2.9,0.8 -4.4,1.2 -3.2,0.8 -5.6,2.6 -7.5,5.2 -2.2,2.9 -1.9,6.7 0.6,9.3 3.3,3.5 7.4,5 12.2,5.4 2.5,-7.3 4.9,-14.3 7.4,-21.5 z m -3.4,-47.6 c -2.4,2.5 -5,3.8 -8.1,4.5 -4.1,0.9 -8,1.9 -12.3,1.8 -3.6,-0.1 -7.2,0 -10.8,0 -1,0 -2.1,-0.2 -3.1,-0.2 -3.4,-0.3 -6.5,-1.5 -9.7,-2.6 -4.3,-1.5 -8.6,-2.9 -12.9,-4.4 -0.5,-0.2 -1,-0.3 -1.8,-0.5 0.1,1.3 0.2,2.2 0.4,3.5 1.9,-0.4 3.2,0 3.5,2 0.1,0.3 0.5,0.6 0.9,0.8 4.8,3.1 9.6,5.9 15.5,6.6 4.2,0.5 8.3,1.6 12.6,0.7 3.2,-0.7 6.5,-0.9 9.7,-1.4 1.1,-0.2 2.2,-0.4 3.2,-0.8 3.7,-1.8 7.3,-3.6 10.9,-5.5 2.2,-1.2 2.2,-1.2 2,-4.5 z m 3.3,69.6 c 0.9,-2.2 1.8,-4.1 2.5,-6 0.8,-2 1.5,-4 2.2,-6 0.9,-2.7 1.5,-5.5 2.5,-8.2 1,-2.7 2.3,-5.3 3.3,-7.9 1.3,-3.2 1.2,-3.2 -1.3,-5.5 -0.2,-0.2 -0.4,-0.2 -0.6,-0.3 -1.6,2.5 -11.5,31.5 -11.6,33.9 1,-0.1 2,0 3,0 z m 32.5,-34.9 c 0.1,-0.1 0.2,-0.1 0.3,-0.2 -0.1,-0.4 -0.1,-0.9 -0.4,-1.2 -2.5,-2.4 -5.1,-4.8 -7.6,-7.2 -0.1,-0.1 -0.3,-0.1 -0.6,-0.1 -0.2,0.5 -0.5,1 -0.8,1.6 3.2,2.4 6.1,4.8 9.1,7.1 z m -12.1,-10.2 c 1.4,-1.3 0.9,-1.9 -0.5,-2.5 0.2,0.8 0.3,1.5 0.5,2.5 z" />
			<path
   inkscape:connector-curvature="0"
   id="path2551"
   d="m 627.1,162.7 c 1.7,-0.7 3.2,-1.4 4.8,-2.1 2.6,-1.1 5.1,-2.2 7.7,-3.3 6.2,-2.5 12.3,-5.3 18.1,-8.7 4.3,-2.5 8.9,-4.3 13.4,-6.2 1.1,-0.5 2.7,-0.3 4,-0.1 1.1,0.2 1.8,0.2 2.7,-0.7 0.9,-0.9 2.2,-1.6 3.4,-2.1 3.3,-1.2 6.6,-2.2 10,-3.2 6.1,-1.8 12.4,-2.2 18.7,-2.1 2.3,0.1 4.6,0 7,0 1.2,-3.5 3,-6.8 2.3,-10.7 -0.2,-1 0,-2.1 0,-3.1 -0.2,-3.6 1.8,-6.3 4.2,-8.5 0.8,-0.7 2.2,-0.9 3.3,-1.1 2,-0.3 3.8,0.4 5.4,1.5 1.5,0.9 2.4,2.2 2.1,4 -0.5,2.8 -1.2,5.6 -1.9,8.4 -0.2,0.7 -1,1.5 -1.8,1.8 -1,0.5 -1.5,1.3 -1.8,2.3 -0.6,2.1 -1.3,4.1 -2.1,6.3 1.6,0.7 3.1,1.4 4.6,2.1 1.1,0.5 2.3,0.9 3.1,1.7 0.9,0.7 1.7,1.8 2,2.8 0.5,1.6 0.6,3.3 0.6,4.9 0,2.5 -0.4,4.9 -0.6,7.4 -0.1,1.4 -0.5,2.8 -1.6,3.9 -0.3,0.3 -0.5,0.8 -0.6,1.2 -1,6.6 -1.9,13.3 -2.9,19.9 -1.2,8.1 -2.5,16.3 -3.8,24.4 -0.5,2.9 -1.4,5.7 -2.1,8.6 -0.3,1.1 -0.9,1.8 -1.9,2.3 -2.7,1.3 -5.3,2.9 -8.1,4.1 -7.9,3.5 -15.9,4 -23.9,0.5 -1.2,-0.5 -2.2,-1.2 -3.3,-1.9 -1.1,-0.7 -2.2,-1.5 -3.4,-2.3 -1.6,-1 -2.7,-2.2 -2.9,-4.1 -0.3,-2.5 -0.6,-4.9 -0.9,-7.4 -0.2,-2.6 -0.3,-5.2 -0.5,-8.3 -2.1,1.6 -3.9,2.9 -5.5,4.4 -3.9,3.4 -8.2,6.4 -12.7,9 -3.1,1.8 -6.2,2.1 -9.6,1 -8.5,-2.8 -17,-5.5 -25.5,-8.1 -2.5,-0.8 -5.1,-1.3 -7.6,-2 -2.9,-0.9 -5,-2.7 -6,-5.7 -1.5,-4.5 -2.9,-9.1 -4.4,-13.7 -0.8,-2.5 0.1,-4.4 1.7,-6.3 1.6,-2 3.4,-3.8 5.7,-5 0.5,-0.3 0.8,-0.7 1.3,-1.1 -4,-6.2 -5.6,-13.3 -7.5,-20.2 -1,-3.5 0,-5.3 3.2,-6.8 1.8,-0.8 3.1,-0.4 4,1.3 0.5,1 0.9,2.1 1.3,3.1 2.3,5.2 4.7,10.3 7,15.5 0.3,0.7 0.8,1.4 1.3,2.4 z M 730,118.4 c 0.2,-0.9 0.4,-1.7 0.7,-2.6 -0.9,-0.5 -1.5,-0.8 -2.2,-1.1 -1.5,-0.5 -2.4,-0.1 -3.4,1.2 -1.4,1.2 -2,2.8 -2,4.7 0,1.3 0,2.6 0.1,3.8 0.1,2 0,4 -0.7,5.9 -2,5.1 -4,10.3 -6.1,15.4 -0.4,0.9 -1,1.6 -1.4,2.5 -1,1.9 -2,3.8 -3,5.7 2.7,0.5 2.8,0.5 3.7,-1.3 0.3,-0.5 0.5,-1 0.7,-1.5 1.4,-4.1 2.8,-8.3 4.7,-12.3 1.1,-2.3 1.8,-4.8 2.7,-7.2 1,-2.7 1.5,-5.6 3.2,-7.9 1.4,0 2.2,-0.7 2.4,-2.1 0.2,-1.1 0.4,-2.2 0.6,-3.2 z m -96,57.1 c 0.4,1.4 0.7,2.7 1.1,4.1 0.1,0.4 0.6,0.6 1,0.9 -0.2,-2 -0.5,-3.8 -2.1,-5 -0.3,-2.2 -2.1,-2.8 -3.8,-3.3 -1.5,-0.4 -2.6,-1.2 -3.3,-2.5 -1.3,-2.3 -2.8,-4.5 -3.9,-6.8 -2.6,-5.5 -5.1,-11 -7.6,-16.5 -0.3,-0.6 -0.6,-1.2 -0.9,-1.8 -0.2,0 -0.3,0.1 -0.5,0.1 0.1,0.6 0,1.3 0.2,1.9 0.6,2.2 1.2,4.3 1.9,6.4 1.3,4.2 2.5,8.4 5.1,12.1 2.3,3.2 3.8,6.8 5.4,10.4 0.3,0.6 0.8,1.1 1.4,1.4 0.8,0.4 1.7,0.6 2.2,0.8 0.5,-1.1 0.6,-2.3 1.2,-2.9 0.8,-0.8 1.8,0.1 2.6,0.7 z m 45.7,-16.8 c 0,0.6 -0.1,1 0,1.5 0.7,4.7 1.5,9.5 2.1,14.2 0.9,7.2 1.8,14.4 2.6,21.6 0.4,3.8 0.6,7.6 0.8,11.5 0.1,2.2 0.7,4.1 3,4.9 0.8,0.3 1.4,1.1 2.1,1.5 1,0.6 2,1.3 3.1,1.8 5.2,2.3 10.5,2.2 16,1 4.3,-1 7.8,-3.6 11.7,-5.3 0.4,-0.2 0.7,-0.8 0.8,-1.3 0.6,-2.3 1.4,-4.6 1.8,-6.9 1.3,-7.9 2.5,-15.9 3.8,-23.9 0.3,-2 0.3,-3.8 -0.7,-5.7 -1,-1.8 -0.7,-2.6 1,-3.6 1,-0.6 1.3,-1.2 1.5,-2.2 0.2,-1.7 0.6,-3.5 0.8,-5.2 0.1,-0.5 0,-1 0,-1.7 -16.9,3.1 -33.5,1.4 -50.4,-2.2 z m -4.9,-12.4 c -1.7,-0.6 -1.7,-0.7 -2.8,-0.2 -4.5,2.1 -9.1,4.3 -13.6,6.5 -1.7,0.8 -3.3,2 -5,2.8 -4,1.8 -8,3.5 -12,5.3 -4.1,1.8 -8.1,3.6 -12.2,5.4 0.5,1.3 1.1,2.3 2.4,2.7 3.3,0.8 5.4,3.1 6.7,6 1.2,2.4 2.1,5 3.2,7.6 2.6,0.5 5.2,0.9 7.9,1.5 2.4,0.6 4.5,0.1 6.7,-1 2.5,-1.3 5,-2.4 7.6,-3.6 4.3,-2.1 8.6,-4.2 12.9,-6.3 0.7,-0.4 1.1,-0.9 1,-1.7 -0.3,-1.9 -0.5,-3.8 -0.7,-5.5 -3,-1.5 -2.9,-1.4 -5.7,-0.2 -2.8,1.2 -5.6,2.4 -8.5,3.1 -3.6,0.9 -6.9,2.3 -10,4.4 -0.8,0.5 -1.6,1 -2.5,1.3 -1,0.4 -2.1,-0.2 -2.4,-1.1 -0.3,-1 0,-1.7 0.8,-2.3 3.7,-2.3 7.4,-4.6 11.8,-5.8 2.2,-0.6 4.4,-1.4 6.6,-2.1 2.9,-0.9 5.5,-3 9.2,-2.4 -0.2,-2.2 -0.1,-4.3 -0.8,-6.1 -0.9,-2.4 -1.1,-4.6 -0.6,-7 -0.1,-0.4 -0.1,-0.9 0,-1.3 z m 3.3,30.1 c -6.9,3.3 -13.5,6.4 -20.1,9.7 -3,1.5 -5.9,2.3 -9.2,1.5 -2.5,-0.5 -5,-0.9 -7.5,-1.5 -1.9,-0.4 -3.7,-0.8 -5.5,-1.5 -4.9,-2 -9.8,-4.3 -14.7,-6.4 -1.8,-0.8 -3.7,-1.4 -5.6,-2 -1.9,-0.6 -2.9,0.4 -2.7,2.4 0.1,0.6 0.2,1.1 0.4,1.6 1.3,3.9 2.5,7.7 3.8,11.6 0.7,2.1 2,3.4 4.1,3.9 2.2,0.6 4.4,1 6.5,1.7 8.8,2.7 17.7,5.5 26.5,8.4 2.2,0.7 4.2,0.6 6.2,-0.6 4,-2.3 7.9,-4.8 11.4,-7.9 1.6,-1.4 3.2,-2.7 4.8,-4 4,-3.1 4,-3.1 3.1,-8.1 -0.1,-0.3 -0.1,-0.7 -0.2,-0.9 -0.3,-0.4 -0.6,-0.6 -1.1,-1.1 -0.4,0.6 -0.9,1.1 -1.1,1.7 -0.4,1.3 -0.6,2.6 -0.8,3.9 -0.2,1.1 -0.8,1.8 -1.9,1.9 -0.9,0.1 -1.7,-0.7 -1.9,-1.8 -0.1,-0.5 -0.1,-1 0,-1.4 0.6,-4.1 2.2,-7.4 6,-9.5 -0.2,-0.4 -0.3,-0.9 -0.5,-1.6 z m 37.1,-38.5 c -2.7,0 -5,0 -7.3,0 -5.3,0.1 -10.7,0.5 -15.8,2.1 -3.3,1 -6.5,2 -9.8,3 -2.5,0.8 -3.3,3.5 -1,5.3 0.5,0.4 1,0.8 1.6,1 1.7,0.6 3.5,1.3 5.2,1.6 4.6,0.9 9.2,1.7 13.9,2.4 1.9,0.3 3.8,0.5 5.8,0.8 2,-5.5 5.9,-10 7.4,-16.2 z m 4.2,16.1 c 1.2,-0.1 2,-0.1 2.7,-0.3 1.9,-0.5 3.8,-1.2 5.7,-1.7 2.8,-0.8 5.6,-4.6 5.1,-8.8 -0.1,-0.5 -0.5,-1.3 -0.9,-1.5 -2.1,-1.1 -4.3,-2 -6.8,-3.1 -2,5.2 -3.9,10.2 -5.8,15.4 z m -13.8,3.9 c -4.3,-0.7 -8.6,-1.3 -12.9,-2.1 -5,-0.8 -10,-1.7 -14.5,-4.5 0.3,0.8 0.6,1.6 1.1,2.2 1.3,1.5 3.2,2 5.1,2.3 3.5,0.5 7.1,0.9 10.6,1.7 3.5,0.8 7,0.7 10.6,0.4 z m 17.9,-0.3 c 5,0.3 8.3,-0.9 8.9,-3.3 -3,1 -6,2.2 -8.9,3.3 z m -103.6,12.8 c -0.7,1.2 -1.9,1.3 -2.1,2.5 1.2,0.4 2.3,0.7 3.7,1.1 -0.6,-1.2 -1,-2.1 -1.6,-3.6 z m 97.4,-11.8 c -2.4,-0.7 -7.1,-0.7 -8.9,0 3.2,0 6.1,0 8.9,0 z" />
			<path
   inkscape:connector-curvature="0"
   id="path2553"
   d="m 754.7,111.6 c 0.8,0.2 1.4,0.3 2,0.4 1,0.2 1.6,0.8 1.5,1.8 0,0.9 -0.6,1.4 -1.4,1.7 -1.6,0.6 -4.5,-0.3 -5.4,-1.7 -0.9,-1.4 -0.7,-4.4 0.7,-5.5 1.7,-1.4 3.5,-2.6 5.7,-2.9 5.8,-0.9 11.5,-1.9 17.3,-2.5 3.5,-0.4 7.1,-0.5 10.5,-0.1 3.8,0.4 7.1,2.4 9.6,5.4 0.4,0.5 0.8,1.2 0.9,1.9 0.3,1.2 -0.5,2.3 -1.6,2.5 -1.1,0.3 -2.1,-0.2 -2.3,-1.4 -0.3,-1.4 -1.2,-2 -2.2,-2.7 -2.3,-1.4 -4.6,-2.2 -7.4,-2.2 -5,0.1 -10,0.4 -15,1.4 -2.9,0.5 -5.8,0.9 -8.8,1.4 -1.5,0.3 -2.9,1 -4.1,2.5 z" />
			<path
   inkscape:connector-curvature="0"
   id="path2555"
   d="m 774.7,113.1 c -1.5,-0.2 -2.3,0.9 -3.1,1.9 -1.2,1.5 -2.2,1.9 -3.1,1.1 -0.9,-0.7 -0.8,-2.1 0.1,-3.5 1.6,-2.3 3.9,-3.4 6.6,-3.9 3.1,-0.5 6.1,-0.3 9,0.6 1.5,0.5 2.8,1.4 4.1,2.4 1.2,0.8 1.2,2.3 0.4,3.2 -0.8,0.8 -1.9,0.8 -3,-0.1 -0.9,-0.8 -1.6,-1.8 -3,-1.7 h 0.1 c -2.8,-1 -5.5,-1.2 -8.3,0 z" />
			<path
   inkscape:connector-curvature="0"
   id="path2557"
   d="m 782.8,113.1 c 0.4,0.7 1.1,1.4 1.3,2.1 0.2,1 -0.8,1.7 -2.2,1.7 -2,0.1 -4,0 -6,0 -1,0 -1.9,-0.2 -2.3,-1.3 -0.4,-1 0.1,-1.7 0.9,-2.3 0.1,-0.1 0.2,-0.2 0.3,-0.4 0,0 -0.1,0.1 -0.1,0.1 2.7,0.2 5.4,0.2 8.1,0.1 z" />
			<path
   inkscape:connector-curvature="0"
   id="path2559"
   d="m 704.6,185.9 c -0.1,-2.2 0.2,-4.4 2.2,-6.1 0.9,-0.8 1.6,-1.1 2.8,-0.5 1.1,0.5 2.3,0.5 3.4,1 1,0.4 2.1,1 2.7,1.8 2.1,2.9 2.8,6.2 2.2,9.8 -0.4,2.4 -2,3.7 -4.5,3.8 -5.3,0.2 -8.1,-2.8 -8.7,-8.1 -0.1,-0.5 -0.1,-1 -0.1,-1.7 z m 4,-2.1 c 0,1.5 -0.3,3.1 0.1,4.6 0.6,2.8 2.1,3.6 5.1,3.2 0.6,-1.5 0.5,-3.1 0,-4.6 -0.9,-3.2 -1.6,-3.6 -5.2,-3.2 z" />
			<path
   inkscape:connector-curvature="0"
   id="path2561"
   d="m 692.9,194.3 c -0.1,-2.3 0.1,-4.2 1.2,-5.9 0.8,-1.3 1.9,-2.4 3.6,-2.4 1.3,0 2.4,0.8 2.4,1.8 0.1,1.1 -0.5,1.9 -1.6,2 -1,0.1 -1.4,0.7 -1.6,1.5 -0.6,2.6 -0.7,5 1.5,7.1 1.6,1.6 3.6,2 5.6,0.8 0.5,-0.3 1,-0.8 1.5,-1.2 1.1,-0.8 2.1,-0.8 2.8,0 0.7,0.8 0.7,1.9 -0.3,2.8 -1.2,1 -2.5,2 -4,2.5 -3.1,1 -5.9,0.6 -8.2,-2.1 -1.9,-2 -3.4,-4.2 -2.9,-6.9 z" />
			<path
   inkscape:connector-curvature="0"
   id="path2563"
   d="m 720.2,176.7 c 0.5,0.8 0.7,1.2 1,1.7 0.3,0 0.5,0 0.7,-0.1 0.5,-0.2 1,-0.5 1.5,-0.7 1,-0.3 1.9,0 2.5,0.9 0.5,0.8 0.2,1.8 -0.8,2.5 -0.3,0.2 -0.7,0.3 -1.1,0.6 -0.3,0.2 -0.5,0.4 -0.8,0.7 0.6,1.1 1.2,2.1 1.7,3.1 0.6,1.3 0.4,2.4 -0.5,2.9 -0.9,0.5 -2,0.2 -2.8,-1.1 -1.9,-3.2 -3.7,-6.3 -5.4,-9.6 -1.1,-2 -0.6,-3 1.5,-4.1 0.5,-0.2 0.9,-0.6 1.4,-0.9 0.5,-0.3 0.9,-0.7 1.4,-0.9 1,-0.5 1.9,-0.4 2.6,0.4 0.6,0.8 0.5,1.7 -0.4,2.5 -0.4,0.4 -0.9,0.7 -1.3,1 -0.3,0.4 -0.6,0.7 -1.2,1.1 z" />
			<path
   inkscape:connector-curvature="0"
   id="path2565"
   d="m 623.5,190.1 c 0.1,0.8 0.3,1.5 0.3,2.3 0.1,1.1 -0.6,2 -1.6,2.1 -1,0.1 -1.8,-0.4 -2,-1.3 -0.8,-2.7 -1,-5.5 -0.3,-8.2 0.3,-1.2 1.1,-2.1 2.5,-2.3 1.3,-0.2 2.3,0.4 3,1.5 0.4,0.7 0.8,1.4 1.1,2.1 0.9,2.3 1.8,4.6 2.7,6.9 0.1,0.3 0.3,0.6 0.3,0.9 0.2,1 -0.1,1.8 -1,2.2 -1,0.5 -1.8,0.1 -2.3,-0.7 -0.5,-0.8 -0.9,-1.7 -1.3,-2.6 -0.4,-1 -0.8,-2 -1.3,-3 0.1,0.1 0,0.1 -0.1,0.1 z" />
			<path
   inkscape:connector-curvature="0"
   id="path2567"
   d="m 666,190.5 c 0,2 -0.1,4.1 -0.1,6.1 0,0.4 0.1,0.8 0.1,1.2 -0.1,1 -0.6,1.6 -1.6,1.8 -1,0.2 -2,-0.4 -2.1,-1.5 -0.2,-2 -0.4,-4 -0.2,-5.9 0.2,-1.8 0.8,-3.6 1.4,-5.3 0.5,-1.3 1.4,-2.4 3,-2.3 1.5,0 2.4,1 2.9,2.2 0.7,1.9 1.2,3.9 1.6,6 0.2,1 -0.2,1.9 -1.3,2.2 -1,0.3 -1.9,-0.3 -2.3,-1.6 -0.2,-0.5 -0.2,-1.1 -0.4,-1.6 -0.1,-0.4 -0.3,-0.9 -0.4,-1.3 -0.2,0 -0.4,0 -0.6,0 z" />
			<path
   inkscape:connector-curvature="0"
   id="path2569"
   d="m 635.8,192.5 c 0.1,0.8 0.3,1.7 0.4,2.5 0.2,1.1 -0.2,1.9 -1.2,2.3 -0.9,0.4 -2,0 -2.4,-1.1 -0.9,-2.7 -1.1,-5.5 0.3,-8.1 0.8,-1.5 2.8,-1.8 4.1,-0.7 1.1,0.9 2.1,2.2 2.8,3.5 1,1.8 1.7,3.8 2.5,5.7 0.4,1 -0.1,2.2 -1,2.6 -1.1,0.4 -1.9,0.1 -2.5,-0.9 -0.5,-0.8 -0.8,-1.7 -1.1,-2.6 -0.5,-1.2 -0.9,-2.3 -1.4,-3.5 -0.1,0.2 -0.3,0.2 -0.5,0.3 z" />
			<path
   inkscape:connector-curvature="0"
   id="path2571"
   d="m 649.5,195.7 c 0,0.5 0.2,1.1 0.1,1.6 -0.1,0.9 -0.5,1.5 -1.4,1.7 -1,0.2 -1.9,-0.1 -2.2,-1 -0.8,-2.2 -0.9,-4.6 0.1,-6.8 0.7,-1.6 2.7,-2 4.3,-0.9 1.5,1 2.5,2.5 3.1,4.2 0.6,2.1 1.1,4.3 1.6,6.5 0.2,1.3 -0.5,2.4 -1.5,2.6 -1.1,0.3 -2,-0.4 -2.4,-1.8 -0.2,-0.6 -0.2,-1.3 -0.3,-1.9 -0.3,-1.5 -0.6,-2.9 -0.9,-4.4 -0.2,0.2 -0.4,0.2 -0.5,0.2 z" />
		</g>
		<path
   inkscape:connector-curvature="0"
   id="path2575"
   d="m 730.1,118.4 c -0.9,1.2 -1.9,2.5 -2.2,4.1 -0.1,0.4 -0.5,0.8 -0.7,1.2 -2.4,0 -3.8,-1.8 -3.1,-4.3 0.3,-1.1 0.8,-2.2 1.3,-3.3 0.6,-0.2 1.2,-0.4 1.8,-0.6 2,-0.6 2.8,0 3,2 -0.1,0.3 -0.1,0.6 -0.1,0.9 z" />
	</g><path
   inkscape:connector-curvature="0"
   id="path2729"
   d="m 475.5,84.7 c -0.1,-1.6 -2.6,-1.6 -2.5,0 0.6,14.7 0.1,31.6 -12,41.9 -2,1.7 -4.3,3.1 -6.8,4 -0.2,-0.7 -0.4,-1.5 -0.6,-2.2 -0.2,-0.8 -1.1,-1 -1.7,-0.8 -0.6,-0.3 -1.3,-0.1 -1.9,0.2 -1.2,0.6 -2.4,1.4 -3.5,2.1 -0.9,0.6 -1.9,1.3 -2.5,2.2 -0.7,0.9 -1.1,2.2 -0.8,3.3 0.4,1.6 2.3,1.5 3.6,1.6 1.4,0.2 2.8,0.4 4.3,0.6 1.3,0.2 3.1,0.8 4.1,-0.4 1.1,-1.2 0.2,-2.9 -0.1,-4.2 0,0 0,0 0,-0.1 5.5,-2 10,-6 13.3,-10.8 4.6,-6.6 6.5,-14.6 7.1,-22.5 0.3,-4.9 0.2,-9.9 0,-14.9 z m -22.6,50.4 c 0,0.1 0.1,0.2 0.1,0.3 0,0 0,0 0,0 -0.1,0 -0.2,0 -0.3,0 0.1,-0.1 0.2,-0.2 0.2,-0.3 z" /><path
   inkscape:connector-curvature="0"
   id="path2731"
   d="m 598.3,197.1 c -0.7,-0.6 -1.6,-1 -2.4,-1.3 -2,-0.7 -4.1,-0.8 -6.2,-0.4 -0.5,0.1 -0.9,0.7 -0.9,1.2 0,0.2 0,0.5 0.1,0.7 0,0.2 -0.1,0.4 0,0.6 0.2,0.6 0.4,1.1 0.6,1.7 0,0 0,0 0,0 -4.9,2.6 -8.2,7.3 -9.9,12.5 -2,6.4 -1.5,13.2 -0.6,19.7 0.2,1.6 2.6,0.9 2.4,-0.7 -1.4,-10.2 -1.3,-23.5 8.9,-29.2 0.2,0.5 0.3,1 0.5,1.4 0.3,0.9 0.9,1.9 2,2.1 1.1,0.2 2,-0.5 2.8,-1.2 0.7,-0.6 1.3,-1.2 1.8,-1.9 0.6,-0.8 1.3,-1.6 1.6,-2.5 0.3,-0.9 0.1,-2 -0.7,-2.7 z m -5.2,6 c 0,0 0,0 0,0 0,0 0,0 0,0 -0.2,0 -0.1,0 0,0 z m 0.3,-0.3 c 0,0 0,0.1 0,0 -0.1,0.1 -0.1,0.1 -0.1,0.1 -0.1,-0.2 -0.1,-0.3 -0.2,-0.5 0.1,0 0.2,0 0.3,0 0.1,0.1 0.1,0.1 0.2,0.2 0,0 0,0 0,0 0,0.1 -0.1,0.2 -0.2,0.2 z m 3.2,-3.6 c -0.1,0.1 -0.1,0.3 -0.2,0.4 -0.1,0.1 -0.1,0.2 -0.2,0.2 0.1,-0.4 0.1,-0.9 -0.2,-1.4 0,0 0,0 0,0 0.1,0.1 0.2,0.1 0.4,0.2 0,0 0.1,0.1 0.1,0.1 0,0 0,0 0,0 0,0 0,0 0.1,0 0,0 0,0.1 0.1,0.1 0,0 0,0 0,0 0,0 0,0.1 0,0 0,0.1 -0.1,0.4 -0.1,0.4 z" /><g
   id="g2745">
		<g
   id="g2743">
			<path
   inkscape:connector-curvature="0"
   id="path2733"
   d="m 458.2,377.1 c -0.5,-2.7 -4.8,-2.8 -5,0.1 -0.1,1.8 0.1,3.6 0,5.4 -0.2,1.9 -0.6,3.8 -1.3,5.6 -2.5,7.4 -8.5,13.1 -16,15.4 0.5,0.3 1,0.6 1.5,0.9 -0.6,-2 -1.4,-4.4 -3.5,-5.3 0.2,0.2 0.5,0.4 0.7,0.6 -1.9,-3 -5.3,1 -6.9,2.2 -2.2,1.8 -4.8,4.2 -2.8,7.2 0.9,1.3 2.4,1.8 3.8,2.2 1.7,0.5 3.3,1 5,1.4 1.5,0.3 3.1,0.2 4.1,-1.1 1.1,-1.4 0.6,-3.2 0.2,-4.8 -0.3,0.5 -0.6,1 -0.9,1.5 6.5,-2.1 12.2,-6.2 16,-11.9 3.7,-5.6 5.4,-12.4 4.9,-19.1 -0.1,-1.6 -2.6,-1.6 -2.5,0 0.5,6.1 -1,12.3 -4.3,17.5 -3.4,5.3 -8.7,9.1 -14.7,11.1 -0.7,0.2 -1,0.9 -0.9,1.5 0.3,1 1,3 -0.8,2.9 -1.2,-0.1 -2.5,-0.7 -3.7,-1 -1.5,-0.4 -5.8,-1.1 -4.1,-3.5 0.6,-0.8 1.5,-1.4 2.2,-2 0.8,-0.7 1.5,-1.4 2.4,-2 0.2,-0.2 0.5,-0.4 0.7,-0.6 0.3,-0.3 -0.1,-0.3 0.1,-0.2 0.3,0.1 1,0.6 1.1,0.9 0.6,0.8 1,2.1 1.3,3.1 0.2,0.6 0.9,1.1 1.5,0.9 6.5,-2.1 12.1,-6.3 15.5,-12.3 1.6,-2.8 2.7,-5.9 3.3,-9 0.3,-1.6 0.4,-3.2 0.4,-4.8 0,-0.8 -0.2,-1.6 -0.1,-2.4 0,0 -0.1,0 -0.1,0.1 0.2,0.3 0,-0.6 0.2,0.3 0.6,1.4 3,0.8 2.7,-0.8 z" />
			<path
   inkscape:connector-curvature="0"
   id="path2735"
   d="m 430.5,403.7 c 0,0 0,0 0,0 -0.1,0.1 -0.1,0.2 -0.2,0.3 0,0.1 -0.1,0.2 -0.1,0.3 0,0.1 0,0.2 0,0.3 0,0.2 0,0.3 0.1,0.5 0,0.1 0.1,0.2 0.2,0.3 0.1,0.1 0.1,0.2 0.2,0.2 0.1,0.1 0.2,0.1 0.3,0.2 0.1,0.1 0.3,0.1 0.5,0.1 0,0 0,0 0,0 -0.2,-0.8 -0.4,-1.6 -0.6,-2.3 0,0 0,0 0,0 0.6,0.4 1.3,0.7 1.9,1.1 0,0 0,0 0,0 0,-0.2 0,-0.3 -0.1,-0.5 -0.1,-0.2 -0.1,-0.3 -0.3,-0.4 -0.1,-0.1 -0.2,-0.2 -0.4,-0.3 -0.1,-0.1 -0.3,-0.1 -0.5,-0.1 -0.1,0 -0.2,0 -0.3,0 -0.4,0.1 -0.6,0.2 -0.7,0.3 -0.1,0.1 -0.1,0.2 -0.2,0.3 -0.1,0.2 -0.2,0.4 -0.2,0.6 0,0 0,0 0,0 0,0.2 0.1,0.4 0.2,0.6 0.1,0.2 0.3,0.3 0.4,0.4 0.2,0.1 0.4,0.2 0.6,0.2 0.2,0 0.4,-0.1 0.6,-0.2 0,0 0,0 0,0 0.1,-0.1 0.2,-0.1 0.3,-0.2 0.1,-0.1 0.2,-0.2 0.3,-0.4 0.1,-0.1 0.1,-0.2 0.1,-0.3 0,-0.2 0,-0.3 0,-0.5 0,-0.1 -0.1,-0.2 -0.1,-0.3 -0.1,-0.1 -0.1,-0.2 -0.2,-0.3 -0.1,-0.1 -0.2,-0.2 -0.4,-0.3 -0.1,-0.1 -0.3,-0.1 -0.5,-0.1 0,0 0,0 0,0 0.3,0.7 0.6,1.4 0.9,2.1 0,0 0,0 0,0 0.1,-0.1 0.2,-0.2 0.3,-0.4 0.1,-0.1 0.1,-0.3 0.1,-0.5 0,-0.2 0,-0.3 -0.1,-0.5 -0.1,-0.2 -0.1,-0.3 -0.3,-0.4 -0.1,-0.1 -0.2,-0.1 -0.3,-0.2 -0.2,-0.1 -0.4,-0.2 -0.6,-0.2 -0.1,0 -0.2,0 -0.3,0 -0.3,0.4 -0.5,0.5 -0.6,0.6 z" />
			<path
   inkscape:connector-curvature="0"
   id="path2737"
   d="m 433.7,409.1 c 0,0.1 0,0.2 0.1,0.3 0.5,-0.5 1,-1 1.5,-1.5 -0.1,0 -0.3,-0.1 -0.4,-0.1 0,0.8 0,1.6 0,2.4 0,0 0,0 0,0 -0.1,0 -0.2,0 -0.3,0 0.1,0 0.3,0 0.4,-0.1 0.1,0 0.3,-0.1 0.4,-0.2 0.1,0 0.1,-0.1 0.2,-0.1 0.1,-0.1 0.3,-0.2 0.4,-0.3 0.1,-0.1 0.2,-0.3 0.2,-0.4 0.1,-0.2 0.1,-0.3 0,-0.5 0,-0.2 -0.1,-0.3 -0.1,-0.5 -0.1,-0.1 -0.1,-0.2 -0.2,-0.3 -0.2,-0.2 -0.3,-0.3 -0.6,-0.3 -0.1,0 -0.2,0 -0.3,0 -0.2,0 -0.4,0.1 -0.6,0.2 -0.1,0 -0.1,0.1 -0.2,0.1 0.1,0 0.2,-0.1 0.3,-0.1 0,0 -0.1,0 -0.1,0 0.1,0 0.2,0 0.3,0 -0.1,0 -0.1,0 -0.2,0 -0.1,0 -0.1,0 -0.2,0 -0.1,0 -0.2,0.1 -0.3,0.1 -0.1,0.1 -0.3,0.2 -0.4,0.3 -0.1,0.1 -0.1,0.2 -0.2,0.3 -0.1,0.1 -0.1,0.3 -0.1,0.5 0,0.1 0,0.2 0,0.3 0,0.1 0.1,0.2 0.1,0.3 0.1,0.1 0.2,0.3 0.3,0.4 0.1,0.1 0.3,0.2 0.4,0.2 0.1,0 0.3,0.1 0.4,0.1 0.2,0.1 0.4,0.1 0.7,0 0.2,-0.1 0.4,-0.2 0.6,-0.3 0.2,-0.2 0.3,-0.3 0.3,-0.6 0.1,-0.2 0.1,-0.4 0,-0.7 0,-0.1 0,-0.2 -0.1,-0.3 0,-0.2 -0.1,-0.3 -0.2,-0.4 -0.1,-0.1 -0.2,-0.2 -0.4,-0.3 -0.1,-0.1 -0.3,-0.1 -0.5,-0.1 -0.2,0 -0.3,0 -0.5,0 -0.1,0 -0.2,0.1 -0.3,0.1 -0.2,0.1 -0.3,0.3 -0.4,0.4 0,0.1 -0.1,0.2 -0.1,0.3 0,0.4 0,0.6 0.1,0.8 z" />
			<path
   inkscape:connector-curvature="0"
   id="path2739"
   d="m 432.3,407 c 0,0 -0.1,0 -0.1,0 -0.1,0.8 -0.2,1.6 -0.3,2.5 0.4,0 0.7,-0.1 1.1,-0.1 -0.3,0 -0.6,-0.1 -1,-0.1 0.2,0.2 0.5,0.4 0.7,0.5 0.3,-0.8 0.6,-1.5 1,-2.3 -0.5,-0.2 -0.9,-0.3 -1.4,-0.5 -0.2,-0.1 -0.3,-0.1 -0.5,0 -0.2,0 -0.3,0.1 -0.5,0.1 -0.1,0.1 -0.3,0.2 -0.4,0.3 -0.1,0.1 -0.2,0.3 -0.2,0.4 -0.1,0.3 -0.1,0.7 0.1,1 0.2,0.3 0.4,0.5 0.7,0.6 0.5,0.1 0.9,0.3 1.4,0.4 0.2,0.1 0.3,0.1 0.5,0 0.2,0 0.3,-0.1 0.5,-0.1 0.1,-0.1 0.2,-0.1 0.3,-0.2 0.1,-0.1 0.2,-0.2 0.3,-0.4 0.1,-0.1 0.1,-0.2 0.1,-0.3 0,-0.2 0,-0.3 0,-0.5 0,-0.1 -0.1,-0.2 -0.1,-0.3 -0.1,-0.2 -0.3,-0.3 -0.4,-0.4 -0.1,-0.1 -0.3,-0.2 -0.4,-0.3 -0.1,-0.1 -0.1,-0.1 -0.2,-0.2 0,0 0,0 0,0 -0.1,-0.1 -0.2,-0.1 -0.3,-0.1 -0.1,0 -0.2,0 -0.3,0 -0.1,0 -0.2,0 -0.4,0 0,0 -0.1,0 -0.1,0 0.1,0 0.2,0 0.3,0 -0.2,0 -0.4,0.1 -0.7,0.1 -0.2,0 -0.3,0 -0.5,0.1 -0.2,0.1 -0.3,0.1 -0.4,0.3 -0.1,0.1 -0.1,0.2 -0.2,0.3 -0.1,0.1 -0.1,0.3 -0.1,0.5 0,0.1 0,0.2 0,0.3 0,0.2 0.1,0.3 0.1,0.5 0.2,0.3 0.4,0.5 0.7,0.6 0,0 0.1,0 0.1,0 0.2,0.1 0.3,0.1 0.5,0 0.2,0 0.3,-0.1 0.5,-0.1 0.1,-0.1 0.3,-0.2 0.4,-0.3 0.1,-0.1 0.2,-0.3 0.2,-0.4 0.1,-0.3 0.1,-0.7 -0.1,-1 -0.3,-0.6 -0.6,-0.8 -0.9,-0.9 z" />
			<path
   inkscape:connector-curvature="0"
   id="path2741"
   d="m 435,410.7 c 1.6,0 1.6,-2.5 0,-2.5 -1.6,0 -1.6,2.5 0,2.5 z" />
		</g>
	</g><g
   id="g2757">
		<g
   id="g2755">
			<path
   inkscape:connector-curvature="0"
   id="path2747"
   d="m 604.9,386.1 c -1.4,-3.6 -5.9,-4.6 -9.2,-5.6 -1.6,-0.5 -3.5,-1.2 -5,-0.2 -1.3,0.8 -1.5,2.3 -1.4,3.7 0.1,-0.3 0.2,-0.6 0.4,-0.9 -1.2,1.4 -0.5,3.2 -0.2,4.9 0.3,-0.5 0.6,-1 0.9,-1.5 -6.4,1.5 -13.3,3 -19.8,1.4 -5.3,-1.2 -9.8,-4.4 -12.8,-9 -0.6,-0.9 -1.2,-1.5 -2.3,-1.5 -1,0 -1.9,0.6 -2.3,1.5 -0.5,1.1 0,2 0.5,2.9 0.7,1.1 1.6,2.2 2.5,3.2 3.5,3.8 8.2,6.6 13.3,7.8 7.4,1.7 15.1,0.2 22.4,-1.5 -0.5,-0.3 -1,-0.6 -1.5,-0.9 0.6,1.7 1.1,3.8 2.9,4.6 1.7,0.9 3.4,-0.1 4.9,-1 2.5,-1.9 7.7,-3.7 6.7,-7.9 -0.4,-1.6 -2.8,-0.9 -2.4,0.7 0.3,1.1 -0.6,1.8 -1.4,2.4 -1.2,0.8 -2.5,1.5 -3.8,2.3 -0.8,0.5 -2,1.6 -3,1.4 -1.1,-0.2 -1.5,-2.3 -1.8,-3.1 -0.2,-0.7 -0.8,-1 -1.5,-0.9 -6,1.4 -12.1,2.6 -18.2,1.9 -4.8,-0.5 -9.5,-2.5 -13.1,-5.7 -1.7,-1.5 -3.2,-3.5 -4.4,-5.1 1,1.3 2.4,3.2 3.8,4.5 3.4,3.2 7.7,5.4 12.3,6.1 6.6,1.1 13.2,-0.2 19.6,-1.7 0.7,-0.2 1,-0.9 0.9,-1.5 -0.2,-0.7 -0.5,-1.6 -0.4,-2.4 0,-0.5 0.3,-0.9 0.3,-1.5 0,-0.4 -0.1,-0.9 0.3,-1.2 0.6,-0.3 1.7,0.2 2.3,0.3 1.5,0.4 3,0.9 4.5,1.4 1.4,0.5 3.1,1.1 3.7,2.6 0.4,1.6 2.9,1 2.3,-0.5 z" />
			<path
   inkscape:connector-curvature="0"
   id="path2749"
   d="m 595.6,390.7 c 0,0 0,0 0,0 0,0 0.1,0.1 0.1,0.2 -0.1,-0.1 -0.1,-0.3 -0.2,-0.4 -0.5,0.6 -0.9,1.2 -1.4,1.8 0,0 0.1,0 0.1,0 0.2,0 0.3,0 0.5,0.1 -0.3,-0.1 -0.6,-0.2 -0.9,-0.4 0,0 0.1,0.1 0.1,0.1 0.1,0.1 0.2,0.2 0.3,0.3 0,-0.7 0,-1.4 0,-2.2 -0.1,0 -0.2,0.1 -0.2,0.2 0.6,0.1 1.1,0.3 1.7,0.4 -0.1,0 -0.1,0 -0.1,-0.1 -0.1,-0.1 -0.2,-0.3 -0.3,-0.4 -0.1,-0.1 -0.3,-0.2 -0.4,-0.2 -0.2,-0.1 -0.3,-0.1 -0.5,0 -0.2,0 -0.3,0.1 -0.5,0.1 -0.1,0.1 -0.2,0.1 -0.3,0.2 -0.2,0.2 -0.3,0.3 -0.3,0.6 0,0.1 0,0.2 0,0.3 0,0.2 0.1,0.4 0.2,0.6 0,0.1 0.1,0.1 0.1,0.2 0.1,0.1 0.2,0.3 0.3,0.4 0.1,0.1 0.3,0.2 0.4,0.2 0.1,0 0.2,0 0.3,0 0.2,0 0.4,-0.1 0.6,-0.2 0.1,-0.1 0.2,-0.1 0.2,-0.2 0.4,-0.2 0.6,-0.6 0.6,-1.1 0,-0.2 -0.1,-0.4 -0.2,-0.6 -0.1,-0.2 -0.3,-0.3 -0.4,-0.4 0,0 0,0 0,0 0.1,0.1 0.2,0.1 0.3,0.2 0,0 -0.1,0 -0.1,-0.1 0,0 0,0 0,0 -0.2,-0.2 -0.4,-0.3 -0.6,-0.3 -0.1,0 -0.2,0 -0.4,0 0.1,0 0.2,0 0.3,0 -0.1,0 -0.2,0 -0.2,-0.1 -0.1,0 -0.2,0 -0.3,0 -0.1,0 -0.2,0 -0.3,0 -0.1,0 -0.2,0.1 -0.3,0.1 -0.1,0.1 -0.3,0.2 -0.4,0.3 -0.1,0.1 -0.1,0.2 -0.2,0.3 -0.1,0.1 -0.1,0.2 -0.1,0.3 0,0.1 0,0.2 0,0.3 0,0.2 0.1,0.3 0.1,0.5 0,0 0,0 0,0 0,-0.1 -0.1,-0.2 -0.1,-0.3 0,0 0,0 0,0.1 0,0.1 0.1,0.2 0.1,0.3 0,0 0,0 0,0 0.1,0.1 0.2,0.3 0.3,0.4 0.1,0.1 0.3,0.2 0.4,0.2 0.2,0.1 0.3,0.1 0.5,0 0.2,0 0.3,-0.1 0.5,-0.1 0.1,-0.1 0.2,-0.1 0.3,-0.2 0.2,-0.2 0.3,-0.3 0.3,-0.6 0,-0.1 0,-0.2 0,-0.3 0.3,-0.1 0.2,-0.3 0.1,-0.5 z" />
			<path
   inkscape:connector-curvature="0"
   id="path2751"
   d="m 595.2,383.1 c -0.2,0.1 -0.3,0.1 -0.5,0.2 -0.2,0.1 -0.3,0.2 -0.4,0.3 -0.1,0.1 -0.2,0.3 -0.3,0.4 -0.1,0.1 -0.1,0.2 -0.1,0.2 0.8,0.1 1.5,0.2 2.3,0.3 -0.2,-0.4 -0.4,-0.9 -0.6,-1.3 -0.5,0.6 -0.9,1.2 -1.4,1.8 0.4,0.1 0.7,0.2 1.1,0.3 0.2,0.1 0.3,0.1 0.5,0 0.2,0 0.3,-0.1 0.5,-0.1 0.1,-0.1 0.3,-0.2 0.4,-0.3 0.1,-0.1 0.2,-0.3 0.2,-0.4 0,-0.1 0,-0.2 0,-0.3 0,-0.2 -0.1,-0.4 -0.2,-0.6 -0.1,-0.1 -0.1,-0.2 -0.2,-0.3 -0.2,-0.2 -0.3,-0.3 -0.6,-0.3 -0.4,-0.1 -0.7,-0.2 -1.1,-0.3 -0.1,0 -0.2,0 -0.3,0 -0.1,0 -0.2,0 -0.3,0 -0.1,0 -0.2,0.1 -0.3,0.1 -0.1,0.1 -0.3,0.2 -0.4,0.3 -0.1,0.1 -0.1,0.2 -0.2,0.3 -0.1,0.1 -0.1,0.2 -0.1,0.3 0,0.1 0,0.2 0,0.3 0,0.2 0.1,0.3 0.1,0.5 0.1,0.3 0.3,0.6 0.4,0.8 0,-0.1 -0.1,-0.2 -0.1,-0.3 0,0 0,0.1 0,0.1 0,0.1 0.1,0.2 0.1,0.3 0.1,0.1 0.1,0.2 0.2,0.3 0.1,0.1 0.2,0.1 0.3,0.2 0.1,0.1 0.3,0.1 0.5,0.1 0.1,0 0.2,0 0.3,0 0.1,0 0.2,0 0.3,-0.1 0.1,0 0.2,-0.1 0.3,-0.2 0.1,-0.1 0.2,-0.2 0.3,-0.4 0,-0.1 0.1,-0.2 0.2,-0.3 -0.1,0.1 -0.1,0.2 -0.2,0.3 0.1,-0.1 0.1,-0.1 0.2,-0.2 -0.1,0.1 -0.2,0.1 -0.3,0.2 0.1,-0.1 0.2,-0.1 0.3,-0.1 -0.1,0 -0.2,0.1 -0.3,0.1 0,0 0,0 0,0 0.2,0 0.3,-0.1 0.4,-0.2 0.1,-0.1 0.2,-0.2 0.3,-0.4 0.1,-0.1 0.1,-0.3 0.1,-0.5 0,-0.2 0,-0.3 0,-0.5 0,-0.1 -0.1,-0.2 -0.1,-0.3 -0.1,-0.2 -0.3,-0.3 -0.4,-0.4 -0.1,0 -0.2,-0.1 -0.3,-0.1 -0.2,0.2 -0.4,0.2 -0.6,0.2 z" />
			<path
   inkscape:connector-curvature="0"
   id="path2753"
   d="m 593.9,390.5 c -0.1,0 -0.1,0.1 0,0 -1.4,0.9 -0.2,3.1 1.2,2.2 0,0 0.1,0 0.1,-0.1 1.3,-0.8 0,-2.9 -1.3,-2.1 -0.1,0 -0.1,0.1 0,0 -1.4,0.9 -0.2,3.1 1.2,2.2 0,0 0.1,0 0.1,-0.1 1.3,-0.8 0,-2.9 -1.3,-2.1 z" />
		</g>
	</g><g
   id="g2763">
		<g
   id="g2761">
			<path
   inkscape:connector-curvature="0"
   id="path2759"
   d="m 865.7,500.5 c -1.5,-11 -7.2,-21.1 -15.6,-28.2 0.1,0.5 0.1,1 0.2,1.5 0.9,-1.4 1.4,-3 0.6,-4.6 -0.9,-1.8 -2.8,-2 -4.6,-2.3 -2.4,-0.4 -7.9,-2.2 -8,2 -0.1,1.7 0.9,3.2 1.4,4.8 0.5,1.5 1,3.1 2,4.3 0.9,1.1 2.3,1.9 3.8,1.6 1.8,-0.4 2.6,-2.3 3.5,-3.7 -0.7,0.1 -1.3,0.2 -2,0.3 5.2,4.4 9.3,10.1 11.7,16.5 0.6,1.6 1.1,3.1 1.4,4.8 0.2,0.8 0.4,1.7 0.5,2.5 0.1,0.7 0.1,1.4 0.5,2 1.2,2.1 4.8,1.5 4.7,-1.1 -0.1,-1.6 -2.6,-1.6 -2.5,0 0,0.4 0.2,-0.2 0.2,-0.1 0,0 -0.2,0 -0.2,-0.1 -0.1,-0.5 -0.1,-1 -0.2,-1.6 -0.2,-1.4 -0.5,-2.7 -0.9,-4.1 -0.8,-2.7 -1.8,-5.2 -3.1,-7.7 -2.5,-4.9 -6.1,-9.3 -10.3,-12.9 -0.6,-0.5 -1.5,-0.5 -2,0.3 -0.4,0.7 -1,2.3 -1.8,2.5 -0.9,0.3 -1.5,-0.9 -1.9,-1.5 -0.4,-0.8 -0.7,-1.7 -1,-2.6 -0.3,-0.9 -0.8,-1.8 -1.1,-2.7 -0.3,-0.9 -0.6,-1.9 0.7,-1.7 1,0.1 2,0.3 3,0.5 1,0.2 2.2,0.2 3.2,0.6 1.4,0.6 0.9,1.8 0.3,2.8 -0.3,0.4 -0.2,1.2 0.2,1.5 8.2,6.9 13.5,16.5 15,27.1 0.1,1.5 2.5,0.9 2.3,-0.7 z" />
		</g>
	</g><path
   inkscape:connector-curvature="0"
   id="path2765"
   d="m 176.2,365.4 c -0.4,-1.1 -0.9,-2.2 -1.4,-3.2 -0.3,-0.5 -0.5,-1 -0.8,-1.5 -0.3,-0.5 -0.7,-1.1 -1.2,-1.3 -0.7,-0.3 -1.3,-0.2 -1.9,0.2 -0.1,0 -0.2,0 -0.3,0 -0.7,0 -1.2,0.5 -1.3,1.3 0,0 0,0 0,0 0,0 0,0 0,0 0,0.1 -0.1,0.3 0,0.1 0,0.1 -0.1,0.1 -0.1,0.2 -0.1,0.1 -0.3,0.1 -0.4,0.2 -10.3,-8.9 -16.2,-22.6 -15.2,-36.3 0.1,-1.6 -2.4,-1.6 -2.5,0 -0.9,13.1 4.3,26.4 13.5,35.8 0.8,0.8 1.7,1.6 2.6,2.4 -0.5,0.6 -0.8,1.3 -0.8,2.1 0,1.3 1,2.3 2.1,2.7 0.5,0.2 0.9,0.2 1.4,0.3 0.6,0.1 1.2,0.2 1.8,0.3 0.6,0.1 1.2,0.2 1.8,0.3 0.7,0.1 1.4,0.1 2.1,-0.4 1,-0.8 1,-2.2 0.6,-3.2 z" />
<text
   xml:space="preserve"
   style="font-style:normal;font-weight:normal;font-size:40px;line-height:1.25;font-family:PreciousPlastic;letter-spacing:0px;word-spacing:0px;fill:#000000;fill-opacity:1;stroke:none;-inkscape-font-specification:PreciousPlastic;font-stretch:normal;font-variant:normal;"
   x="495.83649"
   y="567.41895"
   id="text2905"><tspan
     sodipodi:role="line"
     id="tspan2903"
     x="495.83649"
     y="603.81396"></tspan></text>
<text
   xml:space="preserve"
   style="font-style:normal;font-variant:normal;font-weight:normal;font-stretch:normal;font-size:27.93285561px;line-height:1.25;font-family:PreciousPlastic;-inkscape-font-specification:PreciousPlastic;letter-spacing:0px;word-spacing:0px;fill:#000000;fill-opacity:1;stroke:none;stroke-width:0.6983214"
   x="84.5672"
   y="322.69052"
   id="text2913"
   transform="scale(1.0332408,0.9678286)"><tspan
     sodipodi:role="line"
     id="tspan2911"
     x="84.5672"
     y="322.69052"
     style="stroke-width:0.6983214">produits d'hygiene</tspan></text>
<text
   xml:space="preserve"
   style="font-style:normal;font-variant:normal;font-weight:normal;font-stretch:normal;font-size:29.98970795px;line-height:1.25;font-family:PreciousPlastic;-inkscape-font-specification:PreciousPlastic;letter-spacing:0px;word-spacing:0px;fill:#000000;fill-opacity:1;stroke:none;stroke-width:0.74974269"
   x="382.48413"
   y="66.269646"
   id="text2917"
   transform="scale(0.96667122,1.0344779)"><tspan
     sodipodi:role="line"
     id="tspan2915"
     x="382.48413"
     y="66.269646"
     style="stroke-width:0.74974269">emballages alimentaires</tspan></text>
<text
   xml:space="preserve"
   style="font-style:normal;font-variant:normal;font-weight:normal;font-stretch:normal;font-size:31.53873825px;line-height:1.25;font-family:PreciousPlastic;-inkscape-font-specification:PreciousPlastic;letter-spacing:0px;word-spacing:0px;fill:#000000;fill-opacity:1;stroke:none;stroke-width:0.78846848"
   x="509.83099"
   y="262.12344"
   id="text2946"
   transform="scale(0.98493744,1.0152929)"><tspan
     sodipodi:role="line"
     id="tspan2944"
     x="509.83099"
     y="262.12344"
     style="stroke-width:0.78846848">plastique a usage unique</tspan></text>
<text
   xml:space="preserve"
   style="font-style:normal;font-variant:normal;font-weight:normal;font-stretch:normal;font-size:28.92301178px;line-height:1.25;font-family:PreciousPlastic;-inkscape-font-specification:PreciousPlastic;letter-spacing:0px;word-spacing:0px;fill:#000000;fill-opacity:1;stroke:none;stroke-width:0.72307533"
   x="731.05127"
   y="551.09607"
   id="text2950"
   transform="scale(1.0318008,0.96917932)"><tspan
     sodipodi:role="line"
     id="tspan2948"
     x="731.05127"
     y="551.09607"
     style="stroke-width:0.72307533">articles de nettoyage</tspan></text>
<text
   xml:space="preserve"
   style="font-style:normal;font-variant:normal;font-weight:normal;font-stretch:normal;font-size:30.64263153px;line-height:1.25;font-family:PreciousPlastic;-inkscape-font-specification:PreciousPlastic;letter-spacing:0px;word-spacing:0px;fill:#000000;fill-opacity:1;stroke:none;stroke-width:0.76606578"
   x="418.61011"
   y="371.25229"
   id="text2954"
   transform="scale(1.0205257,0.97988713)"><tspan
     sodipodi:role="line"
     id="tspan2952"
     x="418.61011"
     y="371.25229"
     style="stroke-width:0.76606578">plus d'emballages</tspan></text>
</svg>