<?xml version="1.0" encoding="UTF-8" standalone="no"?>
<svg
   xmlns:dc="http://purl.org/dc/elements/1.1/"
   xmlns:cc="http://creativecommons.org/ns#"
   xmlns:rdf="http://www.w3.org/1999/02/22-rdf-syntax-ns#"
   xmlns:svg="http://www.w3.org/2000/svg"
   xmlns="http://www.w3.org/2000/svg"
   id="svg98"
   xml:space="preserve"
   style="enable-background:new 0 0 1000 284.8;"
   viewBox="0 0 1000 284.8"
   y="0px"
   x="0px"
   version="1.1"><metadata
   id="metadata104"><rdf:RDF><cc:Work
       rdf:about=""><dc:format>image/svg+xml</dc:format><dc:type
         rdf:resource="http://purl.org/dc/dcmitype/StillImage" /><dc:title></dc:title></cc:Work></rdf:RDF></metadata><defs
   id="defs102">
	
	
	
	
	
	
	
	
	
	
</defs>
<style
   id="style2"
   type="text/css">
	.st0{fill:#FFE87B;}
	.st1{fill:#1E1E1C;}
	.st2{fill:#1E1E1C;stroke:#1E1E1C;stroke-width:0.25;stroke-miterlimit:10;}
	.st3{fill:#1E1E1C;stroke:#1E1E1C;stroke-width:0.15;stroke-miterlimit:10;}
	.st4{fill:#FFFFFF;}
	.st5{stroke:#1E1E1C;stroke-miterlimit:10;}
	.st6{fill:none;stroke:#1E1E1C;stroke-width:3;stroke-linecap:round;stroke-linejoin:round;stroke-miterlimit:10;}
	.st7{stroke:#000000;stroke-width:1.5;stroke-miterlimit:10;}
</style>


<g
   id="g944"><g
     id="Calque_2">
</g><g
     id="g1005"
     transform="translate(9.4030157)"><g
       transform="translate(-83.68684)"
       id="g9">
		<g
   id="g7">
			<path
   d="m 198.4,154.1 c -1.6,-0.1 -3.3,0.7 -4.7,1.5 -1.8,1 -3.4,2.2 -4.9,3.6 -1.2,1.1 -2.4,2.4 -3,3.9 -1.1,2.7 -1.1,5.6 -0.7,8.4 1.3,10.5 5.6,21.1 14.1,27.8 7.3,5.8 20.7,10.2 28.1,2.1 3.1,-3.4 4.5,-8.1 4.2,-12.7 -0.3,-5.5 -2.8,-10.6 -5.8,-15.2 -3.3,-5.1 -7.1,-10.1 -12.2,-13.5 -4.6,-3.1 -9.6,-7.6 -15.5,-5.8 -2.3,0.7 -1.3,4.3 1,3.6 4.3,-1.2 8.2,2.4 11.5,4.7 3.9,2.7 7,5.8 9.8,9.6 4.8,6.7 10.4,15.9 6.1,24.3 -4.4,8.5 -15.7,6 -22.4,1.8 -7.8,-4.9 -12.4,-13.4 -14.3,-22.3 -0.9,-4 -2.2,-9.7 0.9,-13 1.3,-1.3 2.7,-2.5 4.3,-3.5 0.6,-0.4 1.3,-0.8 2,-1.1 0.3,-0.2 0.7,-0.3 1.1,-0.4 0,0 0.4,-0.1 0.1,0 0.2,0 0.3,0 0.5,0 2.2,0.1 2.2,-3.6 -0.2,-3.8 z"
   id="path5" />
		</g>
	</g><g
       transform="translate(-83.68684)"
       id="g15">
		<g
   id="g13">
			<path
   d="m 252.7,129.7 c -5.2,10.3 -3.7,22.4 0.1,32.9 1.9,5.2 4.1,10.4 8,14.4 3.7,3.8 9.1,6.1 14.4,5 9.8,-1.9 13.1,-13.5 13.4,-22.1 0.2,-5.9 -0.6,-11.8 -2.3,-17.4 -1.6,-5.1 -4,-10.3 -7.7,-14.2 -3.6,-3.9 -8.3,-6.1 -13.6,-5.5 -4.6,0.5 -9.7,2.6 -12.3,6.9 -1.3,2.1 2,4 3.2,1.9 1.8,-2.9 5.5,-4.4 8.7,-5 3.8,-0.6 7.2,0.4 10,3 3.4,3 5.6,7.1 7.2,11.3 1.8,4.9 2.9,10.1 3.1,15.4 0.1,4.4 -0.2,8.9 -1.8,13.1 -1.2,3.3 -3.3,6.6 -6.6,8.2 -3.9,1.9 -8.6,0.5 -11.8,-2.1 -3.7,-3 -5.9,-7.4 -7.6,-11.8 -4,-10 -6.4,-22.1 -1.3,-32.2 1.2,-2.1 -2,-4 -3.1,-1.8 z"
   id="path11" />
		</g>
	</g><g
       transform="translate(-83.68684)"
       id="g21">
		<g
   id="g19">
			<path
   d="m 189.2,164.5 c 2.5,-4.4 6.1,-8.7 11,-10.5 2.6,-1 4.9,-0.8 7.5,0 2.5,0.8 4.8,1.9 7,3.2 9.1,5.6 15.3,15.5 17.1,26 1,5.6 0.9,14.8 -6.4,15.9 -1,0.2 -1.6,1.4 -1.3,2.3 0.3,1.1 1.3,1.5 2.3,1.3 3.2,-0.5 5.8,-2.6 7.5,-5.3 1.9,-3.1 2.3,-7 2.1,-10.5 -0.4,-6.3 -2.2,-12.5 -5.3,-18 -3,-5.4 -7.1,-10.1 -12.1,-13.6 -2.5,-1.8 -5.3,-3.2 -8.1,-4.3 -3.1,-1.1 -6.3,-1.9 -9.6,-1.1 -6.6,1.6 -11.6,7.1 -14.8,12.8 -1.4,2.1 1.9,3.9 3.1,1.8 z"
   id="path17" />
		</g>
	</g><g
       transform="translate(-83.68684)"
       id="g27">
		<g
   id="g25">
			<path
   d="m 269.5,122.7 c -2.9,-0.7 -5.8,-1 -8.7,-0.2 -2.1,0.6 -4.2,1.6 -6.2,2.4 -2.9,1.1 -5.8,2.5 -7.8,5 -2,2.5 -2.8,5.7 -3.1,8.9 -0.3,3.1 -0.1,6.3 0.1,9.4 0.2,3.4 0.6,6.8 1.3,10.2 1.3,6.4 3.7,12.7 7.7,17.9 4.4,5.6 12,9.7 18.8,5.8 2.1,-1.2 0.2,-4.4 -1.9,-3.2 -5.1,2.9 -10.7,-0.7 -13.9,-4.7 -3.6,-4.5 -5.6,-10 -6.9,-15.5 -1.2,-5.6 -1.7,-11.3 -1.6,-17 0,-2.6 0.2,-5.4 1.4,-7.8 1.2,-2.3 3.3,-3.8 5.6,-4.8 2.1,-0.9 4.3,-1.7 6.4,-2.5 2.6,-0.9 5.1,-0.8 7.7,-0.1 2.5,0.4 3.5,-3.2 1.1,-3.8 z"
   id="path23" />
		</g>
	</g><g
       transform="translate(-83.68684)"
       id="g33">
		<g
   id="g31">
			<path
   d="m 233.2,199.8 c 3.5,1.4 7.3,2.4 11.2,2 3.3,-0.3 6.5,-1.4 9.4,-3 2.9,-1.6 5.5,-3.8 7.9,-6.1 2.4,-2.3 4.7,-5 5.4,-8.3 0.5,-2.4 -3.2,-3.4 -3.6,-1 -0.6,2.9 -2.6,5 -4.7,6.9 -2.1,2 -4.3,3.8 -6.9,5.2 -2.4,1.4 -5.1,2.3 -7.9,2.5 -3.4,0.2 -6.7,-0.7 -9.8,-1.9 -0.9,-0.4 -2.1,0.4 -2.3,1.3 -0.3,1.1 0.3,2 1.3,2.4 z"
   id="path29" />
		</g>
	</g><g
       transform="translate(-83.68684)"
       id="g39">
		<g
   id="g37">
			<path
   d="m 189.3,178.3 c -2.8,-1.7 -5.5,-3.4 -8.3,-5.1 -2.2,-1.3 -4.6,-2.6 -6.5,-4.4 -1.7,-1.6 -2.9,-3.6 -2.9,-6 0,-2.8 1.5,-5.3 3.3,-7.4 3.5,-4 8.1,-7 12.4,-10 4.2,-3.1 8.5,-6.2 12,-10.1 3.9,-4.2 6.1,-9.3 8.7,-14.3 2.2,-4.4 5.3,-9.2 10.3,-10.7 5.6,-1.7 11.2,1.9 16.5,3.1 5.9,1.3 12,1 18,0.8 6.2,-0.2 13.2,-0.7 19,1.9 2.4,1.1 4.7,2.8 5.7,5.3 1,2.4 1,5 -0.6,7.1 -0.6,0.8 -0.1,2.1 0.7,2.6 0.9,0.6 2,0.1 2.6,-0.7 3.3,-4.5 1.7,-11 -2.1,-14.6 -4.4,-4.1 -10.7,-5.2 -16.5,-5.5 -6.7,-0.3 -13.3,0.6 -20,0.2 -3.3,-0.2 -6.4,-0.8 -9.5,-1.8 -3,-1 -6,-2.2 -9.2,-2.5 -6,-0.7 -11.1,2.6 -14.7,7.3 -3.8,5 -5.6,11.1 -9.2,16.2 -6.6,9.4 -17.9,14 -25.8,22 -4.7,4.8 -7.5,12.1 -3,18 1.9,2.4 4.5,4.1 7,5.7 3.4,2.1 6.8,4.1 10.1,6.2 2.2,1.2 4.1,-2.1 2,-3.3 z"
   id="path35" />
		</g>
	</g><g
       transform="translate(-83.68684)"
       id="g45">
		<g
   id="g43">
			<path
   d="m 177.8,171.3 c -5.4,-2.8 -11.2,-4.5 -16.9,-6.5 -5.4,-1.9 -10.6,-4.3 -15.4,-7.4 -9,-5.8 -16.6,-14.8 -18.1,-25.7 -1.3,-9.8 3.2,-20.2 12.4,-24.5 4.5,-2.1 9.6,-2.7 14.5,-3.1 5.2,-0.4 10.4,-0.6 15.6,-1.7 5.2,-1.1 9.9,-3.3 14,-6.6 4.2,-3.3 7.6,-7.4 11.4,-11.2 7.3,-7.4 16.1,-12.5 26,-15.5 10,-3 20.5,-3.8 30.9,-3.4 10.4,0.4 21.6,1.6 31.1,6.1 9,4.2 16.3,11.7 17.8,21.8 0.6,4.4 -0.1,8.9 -2.5,12.7 -2.7,4.3 -7.1,7 -11.5,9.1 -2.3,1.1 -4.7,2 -7,2.8 -2.2,0.8 -1.3,4.4 1,3.6 9.7,-3.5 20.5,-8.5 23.3,-19.5 2.5,-9.8 -1.9,-20.7 -9.2,-27.3 -8.6,-7.8 -20.3,-10.7 -31.6,-12.2 -11,-1.4 -22.1,-1.5 -33.1,0.3 -10.6,1.7 -21.1,5.4 -29.9,11.8 -4.5,3.3 -8.3,7.3 -12.2,11.3 -3.8,4 -7.7,7.9 -12.8,10.3 -9.8,4.6 -21.3,2.6 -31.7,5.1 -5.2,1.2 -10,3.7 -13.6,7.7 -3.5,3.9 -5.8,9 -6.6,14.2 -1.7,11.3 3.5,22.5 11.4,30.3 4.3,4.2 9.4,7.5 14.7,10.2 5.6,2.8 11.5,4.6 17.3,6.7 3,1 5.9,2.2 8.7,3.7 2.2,1.3 4.1,-2 2,-3.1 z"
   id="path41" />
		</g>
	</g><g
       transform="translate(-83.68684)"
       id="g51">
		<g
   id="g49">
			<path
   d="m 170.9,159.4 c -1.7,-1.3 -3.8,-1.3 -5.9,-1 -2.1,0.4 -3.8,0.7 -5.9,0.2 -4.2,-1 -8,-3.1 -11.4,-5.8 -3.4,-2.7 -6.6,-5.8 -9.2,-9.3 -2.6,-3.4 -4.7,-7.4 -5.1,-11.8 -0.8,-8.9 5.4,-16.3 13.2,-19.8 8.7,-3.9 18.3,-2.5 27.5,-3.2 4.7,-0.4 9.2,-1.3 13.4,-3.5 3.9,-2 7.3,-4.9 10.4,-8 6.4,-6.6 11.4,-14.7 19,-20.1 3.6,-2.5 7.8,-4.5 12.2,-4.8 4.9,-0.4 9,1.8 13.5,3.4 9.4,3.4 19.3,1.8 29,2.4 8.2,0.4 17.5,3 21.2,11.1 4,8.5 -3.1,16.8 -9.8,21.3 -1.9,1.3 -3.9,2.4 -5.8,3.5 -2.1,1.2 -0.2,4.4 1.9,3.2 8.2,-4.6 17,-10.7 18.4,-20.7 1.3,-9.1 -5.6,-16.6 -13.6,-19.8 -9.7,-3.8 -20.4,-1.9 -30.6,-2.6 -2.6,-0.2 -5.1,-0.6 -7.6,-1.3 -2.5,-0.7 -4.8,-1.8 -7.3,-2.7 -4.7,-1.7 -9.5,-2.1 -14.4,-0.6 -9.7,2.8 -16.3,10.6 -22.5,18 -6,7.2 -12.5,14.6 -22.1,16.8 -9.8,2.2 -20.1,-0.1 -29.9,2.6 -9,2.5 -17.1,8.9 -19.4,18.3 -2.4,9.5 2.7,18.4 9.1,25.1 3.2,3.4 6.8,6.5 10.9,8.8 3.9,2.2 8.7,4.2 13.2,3.5 1.9,-0.3 3.9,-1.2 5.6,0.1 0.8,0.6 2.1,0.1 2.6,-0.7 0.6,-1 0.2,-2 -0.6,-2.6 z"
   id="path47" />
		</g>
	</g></g><g
     id="g61"
     transform="translate(61.119602)">
		<path
   id="path53"
   d="m 741.9,168.2 c -2.7,-2.6 -5,-5 -7.5,-7.2 -1.4,-1.3 -2.5,-2.7 -3.4,-4.4 -1.5,-2.7 -3.3,-5.3 -5.1,-7.8 -2.7,-3.8 -4,-8.1 -4.6,-12.6 -0.5,-4 -0.9,-7.9 -1.3,-11.9 -0.5,-5.2 0.5,-10 3,-14.6 1.3,-2.4 2.6,-4.9 3.9,-7.4 -1.2,-1.2 -2.3,-2.5 -3.6,-3.6 -4.1,-3.4 -8.2,-6.8 -12.4,-10.2 -1.2,-1 -2.7,-1.7 -4,-2.5 -0.8,-0.5 -1.8,-0.8 -2.5,-1.4 -1.2,-0.9 -2.1,-0.7 -3.2,0.1 -2,1.4 -4,2.6 -6.6,2.6 -3.8,-0.1 -6.8,-2.3 -8.1,-5.8 -0.9,-2.4 0.4,-6.8 2.4,-8.2 0.7,-0.5 1.7,-0.7 2.5,-0.9 1.1,-0.3 2.2,-0.3 3.3,-0.6 1.6,-0.5 2.9,-1.3 3.6,-2.9 0.8,-1.9 1.7,-3.8 2.8,-5.6 0.9,-1.4 1.9,-2.9 3.2,-4 1.8,-1.7 5.4,-1.7 7.5,-0.3 2.1,1.5 3.7,3.5 4.8,5.9 1.1,2.5 0,4.7 -1.2,6.8 -1.6,2.7 -1.7,2.7 0.7,4.6 4.8,3.9 9.6,7.9 15.2,10.8 1.7,0.9 3.3,1.9 5,2.8 0.3,0.1 0.9,0 1.2,-0.2 3.2,-3.1 6.3,-6.3 9.6,-9.4 5.7,-5.3 12,-9.4 19.8,-10.5 4.1,-0.6 8.4,-0.5 12.6,-0.7 7.4,-0.3 14.7,0.5 21.8,2.7 3.9,1.2 7.5,3.1 11.3,4.7 4.7,2 8.8,4.9 12.4,8.6 3.1,-3.6 7.5,-5.7 9.7,-9.8 -0.9,-1.6 -1.9,-3 -2.5,-4.6 -1.1,-2.9 -0.2,-5.5 2.2,-7.4 2.4,-1.8 5.3,-1.9 7.8,-0.3 2.5,1.7 4.2,3.8 4.3,7 0,0.4 0.7,1 1.1,1 1,0.1 2.1,-0.1 3.1,-0.2 0.6,0 1.3,-0.1 1.9,-0.2 4.2,-0.1 6.7,3.1 5.8,7.2 -0.9,4.1 -5,6.9 -9.7,6.4 -1.1,-0.1 -2.1,-0.3 -3.2,-0.7 -0.9,-0.3 -1.6,-0.2 -2.3,0.5 -3.5,3.3 -7.1,6.6 -10.7,10 -0.4,0.4 -0.6,0.7 -0.3,1.3 3,4.8 3.8,10.4 4.8,15.8 1.6,8.4 2,17 1.6,25.6 -0.3,6.5 -2.1,12.7 -5.2,18.5 -1.3,2.5 -2.6,5 -4.6,7.1 -0.8,0.8 -0.5,1.3 0.4,1.9 2.3,1.7 4.6,3.5 6.9,5.2 0.8,0.6 1.6,1.3 2.5,1.8 4.1,2.2 7.6,5.3 11.2,8.2 1,0.8 1.8,0.9 2.9,0.5 2.1,-0.9 4.2,-1.2 6.5,-0.6 1.6,0.5 2.8,1.3 3.5,2.8 1.1,2.6 1.5,5.3 0.7,8.1 -0.8,2.8 -2.7,4.3 -5.7,4.5 -1,0.1 -1.9,0 -2.9,-0.1 -2,-0.2 -3.4,0.4 -4,2.4 -0.5,1.4 -0.8,2.9 -1,4.3 -0.5,3 -2.5,5.1 -5.6,5.4 -2.9,0.3 -5.6,-1.2 -6.7,-3.8 -1.2,-3 -1.1,-5.8 0.8,-8.5 0.8,-1.2 1.6,-2.4 2.3,-3.6 0.6,-1 0.6,-1.9 -0.4,-2.6 -1,-0.7 -2.1,-1.3 -3.1,-2.1 -1.6,-1.2 -3.1,-2.5 -4.6,-3.8 -0.5,-0.4 -1,-0.9 -1.5,-1.2 -2,-0.9 -3.4,-2.5 -5,-4 -1.7,-1.6 -3.8,-2.7 -5.7,-4.1 -0.6,-0.4 -1.2,-0.7 -1.7,-1 -2.6,1 -5.2,2.2 -7.9,3.1 -2.3,0.8 -4.8,0.8 -7.2,0.3 -1.6,-0.3 -3.6,0.4 -4,1.9 -0.6,2 -1.3,4 -1.5,6 -0.5,5.3 -0.8,10.7 -1.2,16 -0.2,3 -1.6,5.4 -3.5,7.6 -1.4,1.6 -3.2,2.3 -5.2,2.4 -3.6,0.2 -7.2,0.2 -10.8,-0.8 -2.2,-0.6 -4.6,-0.3 -6.9,-0.6 -4,-0.6 -8,-1.3 -11.9,-2.3 -3.7,-0.9 -5.8,-4.7 -5.5,-8.9 0.3,-3.9 0.5,-7.9 0.8,-11.8 0.2,-3 -1.1,-5.5 -2.9,-7.9 -0.1,0.1 -0.2,0.1 -0.3,0.1 -3.4,3.9 -6.8,7.8 -10.3,11.6 -2.4,2.6 -3.2,5.7 -3.9,8.9 -0.2,1.1 -0.5,2.1 -0.7,3.2 -0.7,2.9 -2.5,4.5 -4.8,4.6 -2.7,0.1 -5.5,-1.9 -6.2,-4.4 -0.4,-1.3 -0.5,-2.7 -0.6,-4 -0.1,-0.9 -0.5,-1.4 -1.4,-1.5 -1.1,-0.1 -2.1,-0.4 -3.2,-0.5 -2.4,-0.1 -4.1,-2 -3.6,-4.4 0.6,-3.2 2.7,-6.3 6.8,-6.2 1.2,0 2.4,0.1 3.6,0 0.5,0 1.1,-0.2 1.4,-0.5 1.9,-2 3.8,-4.1 5.7,-6.2 1,-1.1 2.1,-2.1 3.1,-3.2 1.5,-1.8 3.5,-4 5.4,-6.3 z m 34.2,-95.4 c -2.2,0.1 -4.4,0.1 -6.6,0.4 -5.3,0.5 -10.2,2.2 -14.4,5.5 -3.4,2.7 -6.7,5.4 -9.8,8.4 -3.5,3.3 -7.1,6.7 -10,10.5 -3.3,4.3 -6.3,8.7 -8.8,13.6 -2.3,4.6 -3.2,9.2 -2.7,14.3 0.3,3.2 0.7,6.4 1.1,9.5 0.5,3.7 1.2,7.3 3.3,10.4 0.8,1.3 1.7,2.6 2.6,3.9 1.5,2.4 2.8,5 4.6,7.2 2,2.4 4.3,4.5 6.6,6.6 1.8,1.6 3.7,3 5.5,4.6 4,3.3 6.5,7.8 9.3,12 0.2,0.3 0.3,0.7 0.4,1.1 0.3,4.3 0.5,8.6 -0.2,12.9 -0.2,1.4 -0.3,2.8 -0.3,4.2 0,2.9 1,4.2 3.8,4.9 3.1,0.7 6.3,1.3 9.4,1.7 2.8,0.4 5.6,0.2 8.3,0.8 3.1,0.7 6.2,0.9 9.3,0.6 0.9,-0.1 2.2,-0.4 2.7,-1 1.1,-1.4 2.3,-3 2.6,-4.7 0.6,-3.6 0.5,-7.2 0.9,-10.8 0.4,-4.4 0.4,-8.8 2.2,-13 1.4,-3.1 4.8,-5.3 8.4,-4.2 1.1,0.3 2.4,0.4 3.5,0.2 4.1,-0.7 7.8,-2.6 11.3,-4.7 1.1,-0.7 2.3,-1.4 3.1,-2.4 2.7,-3.5 5.8,-6.8 7.6,-11 0.8,-1.9 1.9,-3.8 2.7,-5.7 1.8,-5 2.5,-10.2 2.5,-15.5 0,-6.4 -0.3,-12.9 -1.3,-19.2 -0.6,-3.7 -1.4,-7.4 -2.3,-11 -0.9,-3.6 -3.3,-6.6 -5,-9.8 -2.5,-4.4 -6,-7.6 -10.1,-10.2 -4.9,-3.2 -10.3,-5.6 -15.8,-7.3 -8.1,-2.7 -16.2,-3.2 -24.4,-2.8 z m -42.3,20.3 c -3,-1.9 -6.1,-3.7 -9.1,-5.6 -1.4,-0.9 -2.9,-1.7 -4.2,-2.7 -2.7,-2.1 -5.4,-4.4 -8.1,-6.5 -2.6,-2 -3,-4.6 -1.1,-7.3 0.6,-0.9 1.3,-1.9 1.6,-2.9 0.2,-0.7 0.2,-1.7 -0.1,-2.3 -0.7,-1.2 -1.5,-2.2 -2.5,-3.2 -1.2,-1.2 -3.1,-1.2 -4.3,0.1 -0.6,0.7 -1.2,1.5 -1.6,2.3 -1.1,2.2 -2.1,4.4 -3.3,6.5 -0.5,0.9 -1.4,1.8 -2.3,2.4 -2,1.4 -4.3,2.1 -6.8,2.2 -0.3,0 -0.6,0.1 -0.8,0.2 -0.9,0.7 -1.5,3.1 -1.1,4.2 1.2,2.9 4.6,3.9 7.2,2.3 1.3,-0.8 2.7,-1.6 4.1,-2.3 1.3,-0.7 2.6,-0.4 3.9,0.3 0.9,0.6 1.8,1.2 2.8,1.6 2.3,1 4.4,2.4 6.3,4.1 1.1,1 2.2,1.9 3.3,2.8 3.8,3.2 7.7,6.5 11.5,9.7 0.1,0.1 0.2,0.1 0.3,0.1 1.4,-1.9 2.9,-4 4.3,-6 z m 88.5,77.1 c 1.3,0.9 2.7,1.7 4.1,2.6 0.6,0.4 1.2,0.7 1.6,1.2 1.5,1.6 3.1,3.1 5.1,4.3 3.4,2.2 6.6,4.8 9.7,7.3 2.4,1.9 2.7,4.4 1.2,7.1 -0.8,1.4 -1.6,2.6 -2.5,3.9 -0.9,1.3 -1.2,2.6 -0.8,4.1 0.4,1.6 1.4,2.5 2.9,2.5 1.5,0 2.2,-0.8 2.6,-2.6 0.4,-1.7 0.6,-3.5 1.3,-5.1 1.2,-2.9 3.4,-4.5 6.6,-4.4 0.8,0 1.6,0.1 2.4,0.1 2.5,0.1 3.4,-0.7 3.5,-3.1 0.1,-1.3 -0.3,-2.7 -0.7,-4 -0.1,-0.4 -0.6,-0.7 -1,-0.9 -1.5,-0.6 -2.9,-0.2 -4.3,0.4 -2.4,0.9 -4.5,0.7 -6.7,-1.1 -3.4,-2.8 -7,-5.2 -10.6,-7.8 -1.2,-0.8 -2.3,-1.7 -3.4,-2.6 -2.4,-1.9 -4.9,-3.7 -7.2,-5.6 -1.4,1.4 -2.5,2.5 -3.8,3.7 z m -77.6,0 c -2.1,3.7 -4.9,6.5 -7.9,9.1 -0.5,0.4 -0.8,1 -1.2,1.5 -2,2.2 -4,4.4 -6,6.5 -1.1,1.2 -2.5,1.5 -4.2,1.2 -1.2,-0.2 -2.4,-0.1 -3.6,0 -1.4,0.2 -2.3,1.5 -2.3,3 1.2,0.2 2.4,0.4 3.5,0.6 3.1,0.6 4.4,2.2 4.5,5.4 0,0.9 0.2,1.9 0.5,2.8 0.4,1.1 1.3,1.7 2.4,1.6 0.5,0 1.1,-0.8 1.2,-1.4 0.7,-2.6 1.2,-5.2 1.8,-7.8 0.2,-0.7 0.3,-1.4 0.7,-1.9 1.9,-2.5 3.7,-5.1 5.8,-7.5 2.5,-2.9 5.1,-5.7 7.7,-8.5 0.4,-0.4 0.8,-0.8 0.2,-1.4 -0.9,-1 -1.9,-2 -3.1,-3.2 z m 85,-78.7 c 0.2,-0.2 0.4,-0.3 0.5,-0.4 3.5,-3.2 7,-6.4 10.4,-9.7 1.7,-1.6 3.5,-2.1 5.8,-1.3 1.3,0.4 2.7,0.5 4,0.5 1.8,-0.1 3.2,-1 3.9,-2.7 0.9,-2.1 -0.1,-3.5 -2.3,-3.3 -1.6,0.1 -3.3,0.3 -4.9,0.3 -2.7,-0.1 -4.4,-1.8 -4.5,-4.4 -0.1,-1.9 -1,-3.1 -2.5,-4.1 -1.3,-0.9 -2.5,-0.8 -3.7,0.1 -1.1,0.9 -1.4,1.9 -0.8,3.3 0.5,1 1.2,2 1.9,2.8 1.4,1.7 1.4,2.8 0.2,4.6 -1.9,2.9 -4.4,5.3 -7.1,7.4 -1,0.8 -1.9,1.8 -2.8,2.8 -0.2,0.2 -0.3,0.8 -0.2,1.1 0.8,1 1.4,1.9 2.1,3 z" />
		<path
   id="path55"
   d="m 783.9,128.6 c -0.1,-2.8 0.6,-5.9 1.6,-8.9 1.3,-3.9 2.4,-7.8 3.7,-11.6 1.2,-3.3 3.1,-6.2 5.8,-8.4 3.1,-2.6 6.6,-3 10.2,-1.6 5.2,2.1 7.7,6.2 8.6,11.7 1.1,6.7 1.2,13.5 0.4,20.2 -0.3,2.9 -1.1,5.9 -2.3,8.6 -2.8,6.3 -8.8,8.7 -15.3,7.9 -0.8,-0.1 -1.6,-0.3 -2.3,-0.5 -2.4,-0.4 -4.1,-1.8 -5.4,-3.7 -1.1,-1.7 -2.2,-3.4 -3.3,-5.2 -1.3,-1.8 -1.8,-4.8 -1.7,-8.5 z m 26.9,-7.3 c 0.1,0 0.2,0 0.3,0 -0.4,-4 -0.8,-7.9 -1.3,-11.9 -0.5,-3.7 -2.6,-6.4 -6.1,-7.8 -2.1,-0.8 -4.4,-0.5 -6.3,1 -2.3,1.9 -3.9,4.4 -4.8,7.2 -1.2,3.5 -2.4,7.1 -3.4,10.7 -0.7,2.5 -1.4,5.1 -1.5,7.7 -0.1,2.3 0.3,4.6 0.9,6.8 0.4,1.4 1.6,2.6 2.4,4 1.1,2.1 2.7,3.3 5.2,3.8 3.2,0.6 6.2,0.1 8.8,-1.6 2.4,-1.5 3.6,-4 4.4,-6.8 1.2,-4.4 1.4,-8.7 1.4,-13.1 z" />
		<path
   id="path57"
   d="m 777.4,116.8 c -0.5,3.1 -0.9,7.5 -2,11.5 -1.3,4.4 -3.5,8.5 -6.6,12.1 -3.6,4.3 -8.9,4.5 -13,2.1 -4.9,-2.9 -8.3,-7.2 -9.2,-13.1 -0.5,-3.8 0.1,-7.6 0.6,-11.5 0.8,-5.9 3.7,-10.8 7.8,-14.9 2.4,-2.3 5.3,-3.9 8.7,-4.3 2.8,-0.3 5.4,0.3 7.6,2.3 4.1,3.9 5.6,9 6.1,15.8 z m -3.9,0.5 c 0,-5.6 -1.2,-9.3 -3.8,-12.6 -1.6,-2 -3.7,-2.6 -6.1,-2.2 -1.2,0.2 -2.5,0.7 -3.6,1.3 -3.7,2.4 -6.5,5.8 -7.9,10 -1,3 -1.3,6.3 -1.8,9.5 -1,6.6 1.4,11.9 6.8,15.7 2,1.4 6.2,2 8.5,-0.6 3.1,-3.6 5.3,-7.6 6.5,-12.1 0.8,-3.4 1,-6.9 1.4,-9 z" />
		<path
   id="path59"
   d="m 783.7,163.4 c 0,2.7 -1.3,3.8 -3.3,3.2 -1.5,-0.5 -3,-1.2 -4.4,-1.8 -1.1,-0.5 -2.3,-0.9 -3.4,-1.5 -1.4,-0.8 -3,-1.6 -4.1,-2.8 -1.3,-1.5 -1,-3.5 -0.2,-5.2 1.2,-2.4 2.6,-4.7 4,-7 0.5,-0.8 1.1,-1.5 1.8,-2.2 1.1,-1 2.4,-0.7 3,0.7 1.8,4.3 3.7,8.6 5.4,13 0.6,1.3 1,2.8 1.2,3.6 z m -4.5,-1.2 c 0.1,-0.1 0.2,-0.2 0.2,-0.2 -1.5,-3.4 -3,-6.8 -4.5,-10.3 -0.1,0 -0.3,0 -0.4,0 -0.9,1.7 -1.9,3.5 -2.8,5.2 -0.3,0.7 -0.3,1.3 0.5,1.7 1.5,0.8 3,1.5 4.5,2.3 0.9,0.4 1.7,0.9 2.5,1.3 z" />
	</g><g
     aria-label="NE BRULEZ PAS LES PLASTIQUES !"
     style="font-style:normal;font-weight:normal;font-size:60.60606003px;line-height:1.25;font-family:sans-serif;letter-spacing:0px;word-spacing:0px;fill:#000000;fill-opacity:1;stroke:none;stroke-width:0.99999994"
     id="text956"><path
       d="m 237.09185,136.82724 q 0.30303,-2.54545 1.93939,-2.54545 0.90909,0 2,1.09091 0.66667,0.66667 2.12121,3.81818 1.45455,3.15152 3.69697,8.66667 l 0.84849,2.0606 q 0.48485,1.09091 0.84848,2.06061 0.42425,0.9697 0.72728,1.81818 0.48484,1.27273 0.78788,2.06061 0.30303,0.72727 0.54545,1.33333 0.24242,0.60606 0.48485,1.15152 0.24242,0.54545 0.54545,1.27272 -0.0606,-2.42424 -0.24242,-4.78788 -0.12121,-2.42424 -0.30303,-4.78787 -0.12121,-0.84849 -0.12121,-1.45455 0,-0.66667 0,-0.9697 0,-2 -0.12122,-3.69697 -0.12121,-1.75757 -0.30303,-3.21212 -0.12121,-1.09091 -0.18181,-2.0606 -0.0606,-0.9697 -0.0606,-1.81819 v -0.24242 q 0,-0.84849 0.54545,-1.69697 0.60606,-0.90909 1.33334,-0.90909 1.69697,0 2.18182,2.12121 0.18181,0.84849 0.30303,3.57576 0.18181,2.72727 0.48484,7.45454 0.12122,2.72728 0.30303,5.9394 0.24243,3.21212 0.48485,7.0303 0.12121,2.18182 0.18182,4 0.0606,1.75758 0.0606,3.0303 0,0.42425 -0.0606,1.21213 0,0.72727 -0.24242,1.45454 -0.18182,0.72727 -0.66667,1.27273 -0.42424,0.54545 -1.27273,0.54545 -1.0303,0 -1.69697,-0.90909 -0.60606,-0.9697 -1.0303,-1.81818 -0.42424,-0.84849 -1.57576,-3.27273 -1.15151,-2.42424 -2.72727,-6.42424 -1.21212,-3.15151 -2.54545,-6.30303 -1.33334,-3.21212 -2.66667,-6.30303 0.12121,2.54545 0.18182,5.09091 0.12121,2.54545 0.24242,5.09091 0.12121,4.36363 0.24243,7.33333 0.18181,2.9697 0.18181,4.36364 0,0.66666 -0.0606,1.15151 0,0.42424 -0.0606,0.72728 -0.12121,0.66666 -0.66667,0.90909 -0.54545,0.24242 -1.0303,0.24242 -0.78788,0 -1.39394,-0.48485 -0.60606,-0.54545 -0.78788,-1.63636 -0.0606,-0.30303 -0.30303,-4.06061 -0.24242,-3.75757 -0.48485,-11.09091 -0.0606,-1.57575 -0.12121,-3.0303 -0.0606,-1.51515 -0.12121,-2.84848 -0.12121,-4.54546 -0.30303,-7.33334 -0.12121,-2.78788 -0.12121,-3.81818 z"
       style="font-style:normal;font-variant:normal;font-weight:normal;font-stretch:normal;font-family:PreciousPlastic;-inkscape-font-specification:PreciousPlastic;stroke-width:0.99999994"
       id="path1020" /><path
       d="m 259.69783,139.79694 q 0,-4.90909 0.24242,-5.39394 0.66667,-1.0303 1.69697,-1.15151 1.0303,-0.18182 2.84848,-0.18182 h 0.42425 q 0.36363,-0.0606 0.78788,-0.0606 0.42424,0 0.90909,0 h 0.96969 q 0.66667,0 1.33334,0.0606 0.66666,0 1.15151,0.24242 0.54546,0.24243 0.84849,0.72728 0.36363,0.48484 0.36363,1.33333 h 0.12122 q -0.42425,0.72727 -1.21213,1.15151 -0.78787,0.42425 -1.69697,0.60606 -0.90909,0.18182 -1.87878,0.24243 -0.90909,0 -1.69697,0 -0.24243,0 -0.48485,0.0606 -0.24243,0 -0.48485,0 l 0.0606,6 q 0.0606,2.54546 0.12121,4.36364 0.0606,1.75758 0.0606,2.66667 v 0.54545 q 2.9091,0.0606 2.9091,2.12121 0,1.27273 -0.9091,1.81819 -0.84848,0.48484 -1.87878,0.54545 v 0.9697 q -0.0606,0.30303 -0.0606,0.66666 0,0.30303 0,0.78788 0,1.45455 0,3.03031 0.0606,1.51515 0.18182,3.27272 0.0606,0.66667 0,1.27273 0,0.60606 0.12121,0.9697 0.0606,0.18182 0.0606,0.54545 0.30303,0.0606 0.72727,0.12121 0.48485,0 1.15151,0 2.78788,0 3.63637,0.36364 0.90909,0.36364 0.90909,1.57576 v 0.12121 q 0,0.66667 -0.90909,2.30303 l -4.24243,-0.0606 h -0.54545 q -1.63636,0 -2.48485,0 -0.84848,-0.0606 -1.33333,-0.18181 -0.42424,-0.12122 -0.60606,-0.42425 -0.18182,-0.36363 -0.42425,-0.90909 -0.12121,-0.30303 -0.24242,-2.42424 -0.0606,-2.12121 -0.18182,-5.15151 -0.0606,-3.09091 -0.18182,-6.66667 -0.0606,-3.57576 -0.12121,-6.78788 0,-3.27273 -0.0606,-5.75758 0,-2.48484 0,-3.33333 z"
       style="font-style:normal;font-variant:normal;font-weight:normal;font-stretch:normal;font-family:PreciousPlastic;-inkscape-font-specification:PreciousPlastic;stroke-width:0.99999994"
       id="path1022" /><path
       d="m 290.24313,134.22118 -0.12121,-0.0606 q 0.0606,-0.18182 0.12121,-0.36364 0.0606,-0.18182 0.18182,-0.42424 h 0.0606 q 0.66666,-1.09091 2.0606,-1.09091 2.30303,0 5.15152,2.30303 3.69697,2.9697 3.69697,8.30303 0,2.78788 -1.15152,4.90909 -1.15151,2.12121 -3.09091,4.06061 3.63637,1.81818 5.15152,4.54545 1.57576,2.66667 1.57576,6.54546 0,2.30303 -1.03031,3.93939 -0.96969,1.63636 -2.54545,2.72727 -1.57576,1.03031 -3.57576,1.51515 -2,0.48485 -3.93939,0.48485 -0.90909,0 -1.57576,-0.36363 -0.60606,-0.42425 -0.72727,-1.45455 0,-0.18182 -0.0606,-0.66667 0,-0.48484 -0.0606,-1.15151 -0.30303,-4.36364 -0.36363,-10.72727 -0.0606,-6.36364 -0.0606,-14.9697 0,-3.09091 0.0606,-5.0303 0.12121,-2 0.24242,-3.03031 z m 4.18182,24.66667 q 0.0606,1.21212 0.0606,2.48485 0.0606,1.21212 0.0606,2.24242 0,0.30303 0,0.60606 0.0606,0.30303 0.0606,0.60606 0,0.78788 0,1.33334 0,0.54545 0.0606,0.84848 1.81819,-0.12121 3.33334,-1.27273 1.57575,-1.21212 1.57575,-3.15151 0,-2.42424 -1.45454,-4.24242 -1.45455,-1.81819 -3.75758,-2.84849 v 0.54546 q 0,0.36363 0,1.0909 0,0.66667 0.0606,1.75758 z m 2.66667,-16.06061 q 0,-1.69697 -0.60606,-3.0303 -0.60606,-1.33333 -2.18182,-2.24242 v 10.54545 q 0,0.30303 0,0.24243 0.0606,-0.0606 0,0.12121 1.33333,-1.03031 2.0606,-2.42424 0.72728,-1.45455 0.72728,-3.21213 z"
       style="font-style:normal;font-variant:normal;font-weight:normal;font-stretch:normal;font-family:PreciousPlastic;-inkscape-font-specification:PreciousPlastic;stroke-width:0.99999994"
       id="path1024" /><path
       d="m 307.51575,161.00906 v -5.09091 q 0,-1.09091 0,-1.93939 0.0606,-0.90909 0.0606,-1.57576 0.18182,-6.18182 0.18182,-12.9697 0.0606,-2.30303 0.18182,-3.87878 0.12121,-1.63637 0.30303,-2.54546 l -0.30303,-0.42424 0.48485,-0.48485 q 0.72727,-0.72727 1.69697,-0.72727 0.90909,0 1.87879,0.36364 1.0303,0.30303 2,0.84848 0.96969,0.54545 1.81818,1.21212 0.84848,0.66667 1.39394,1.27273 2.36363,2.60606 3.15151,5.15151 0.78788,2.54546 0.78788,5.87879 v 0.66667 q 0,1.0303 -0.48485,2.24242 -0.42424,1.21212 -1.15151,2.36364 -0.72728,1.15151 -1.63637,2.0606 -0.90909,0.9091 -1.81818,1.39394 l 0.12121,0.12122 q 0.0606,0 0.0606,0.0606 0,0 0.0606,0 l 0.0606,0.0606 q 1.57576,1.21212 3.0303,3.81818 0.30303,0.54545 0.9091,2 0.60606,1.45455 1.21212,3.09091 0.60606,1.63636 1.0303,3.15151 0.48485,1.45455 0.48485,2.06061 0,0.84848 -0.66667,1.57576 -0.60606,0.66666 -1.45454,0.66666 h -0.24243 q -0.18182,0 -0.42424,-0.12121 -0.18182,-0.12121 -0.48485,-0.24242 v 0.0606 q -0.0606,-0.0606 -0.12121,-0.12121 0,-0.0606 -0.0606,-0.12121 -0.18182,-0.0606 -0.30303,-0.18182 l 0.0606,-0.12121 q -0.84849,-1.33333 -1.75758,-4.36364 -0.36363,-1.21212 -0.84848,-2.54545 -0.48485,-1.39394 -1.21212,-2.66667 -0.66667,-1.27273 -1.57576,-2.30303 -0.84849,-1.09091 -2,-1.69697 v 1.33334 q 0,1.0909 -0.0606,2.30303 0,1.15151 0.12122,2.36363 0.0606,0.78788 0.0606,1.69697 0,0.90909 0,1.81818 v 1.87879 q 0,0.84849 -0.0606,1.45455 0,0.60606 -0.0606,0.90909 -0.12121,0.66666 -0.72727,0.96969 -0.54546,0.24243 -1.15152,0.24243 -1.21212,0 -1.63636,-0.60606 -0.36364,-0.66667 -0.60606,-1.69697 -0.0606,-0.24243 -0.0606,-0.66667 0,-0.42424 0,-1.0303 0,-1.27273 -0.18182,-3.27273 -0.0606,-0.66666 -0.0606,-1.57576 0,-0.90909 0,-2.12121 z m 4.54545,-10.12121 v 0.54545 h 0.12121 l 0.24243,-0.12121 q 0.66666,-0.30303 1.15151,-0.42424 0.48485,-0.12121 0.60606,-0.24242 0.30303,-0.24243 0.72728,-0.72728 0.42424,-0.48485 0.90909,-1.15151 0.66666,-0.84849 0.78788,-1.33334 0.12121,-0.54545 0.12121,-1.81818 0,-3.09091 -1.03031,-5.21212 -0.96969,-2.12121 -3.51515,-3.69697 v 0.60606 q 0,1.09091 -0.0606,2.36364 0,1.21212 0,2.60606 0,1.87879 -0.0606,4 0,2.06061 0,4.60606 z"
       style="font-style:normal;font-variant:normal;font-weight:normal;font-stretch:normal;font-family:PreciousPlastic;-inkscape-font-specification:PreciousPlastic;stroke-width:0.99999994"
       id="path1026" /><path
       d="m 327.27332,136.64543 v -0.12122 q 0.90909,-0.72727 1.69697,-0.72727 0.60606,0 0.9697,0.30303 0.36363,0.30303 0.54545,0.78788 0.24242,0.42424 0.30303,0.9697 0.12121,0.54545 0.18182,1.0303 0.12121,0.66667 0.18182,2.18182 0.0606,1.51515 0.18182,3.93939 0.12121,1.33334 0.18181,2.84849 0.0606,1.51515 0.18182,3.33333 0.30303,3.63636 0.54546,6.30303 0.30303,2.66667 0.78788,4.18182 0.24242,0.78788 0.60606,1.69697 0.42424,0.90909 0.96969,1.69697 0.54546,0.78788 1.27273,1.27273 0.72727,0.48484 1.63636,0.48484 0.9697,0 1.81819,-0.54545 0.84848,-0.60606 1.45454,-1.45455 0.66667,-0.90909 1.0303,-1.93939 0.42425,-1.0303 0.48485,-1.93939 0.0606,-0.72728 0.0606,-2.66667 0.0606,-2 0.18182,-5.33333 0.18181,-6.30303 0.18181,-12.54546 0,-0.18182 0,-0.30303 0.0606,-0.18182 0.0606,-0.30303 v -0.36364 q -0.24242,-0.24242 -0.24242,-0.96969 0,-0.78788 0.48485,-1.33334 0.48484,-0.60606 1.27272,-0.72727 1.09091,0 1.57576,0.42424 0.48485,0.36364 0.84848,1.27273 0.36364,0.90909 0.36364,8.84849 0,13.93939 -0.72727,16.48484 -0.42424,1.45455 -1.21212,2.84849 -0.78788,1.39394 -1.9394,2.48485 -1.09091,1.09091 -2.48485,1.75757 -1.39393,0.60606 -3.0303,0.60606 -3.21212,0 -5.15151,-1.81818 -1.9394,-1.87879 -3.03031,-4.54545 -1.0303,-2.66667 -1.45454,-5.63637 -0.36364,-3.0303 -0.48485,-5.33333 0,-0.36364 -0.0606,-1.57576 -0.0606,-1.21212 -0.18181,-2.72727 l -0.0606,-1.09091 q -0.0606,-0.78788 -0.12121,-1.51515 0,-0.72727 -0.0606,-1.33333 l -0.0606,-1.57576 q -0.0606,-1.69697 -0.18182,-3.0303 -0.0606,-1.39394 -0.0606,-2.18182 0,-1.27273 0.48485,-2.12121 z"
       style="font-style:normal;font-variant:normal;font-weight:normal;font-stretch:normal;font-family:PreciousPlastic;-inkscape-font-specification:PreciousPlastic;stroke-width:0.99999994"
       id="path1028" /><path
       d="m 350.60657,150.16058 q 0,-7.39394 0.12121,-11.27273 0.12121,-3.87879 0.42424,-4.18182 0.60606,-0.60606 1.21212,-0.60606 1.39394,0 2,1.63636 0.12121,0.66667 0.18182,3.75758 0.12121,3.09091 0.18182,8.42424 0.0606,4.72728 0.0606,8.42425 0,3.69697 0,6.24242 0,3.69697 -0.24243,4.60606 0.84849,0 1.63636,0.0606 0.84849,0.0606 1.63637,0.24242 v -0.54545 q 1.81818,1.81818 1.81818,2.60606 0,1.09091 -0.84848,1.63636 -0.84849,0.54545 -1.69697,0.54545 -0.24243,0 -0.9697,0 -0.66667,-0.0606 -1.45455,-0.12121 -0.78788,-0.0606 -1.45454,-0.12121 -0.60606,-0.0606 -0.72728,-0.12121 -1.21212,-0.72727 -1.63636,-2.78788 -0.24242,-1.0303 -0.24242,-18.42424 z"
       style="font-style:normal;font-variant:normal;font-weight:normal;font-stretch:normal;font-family:PreciousPlastic;-inkscape-font-specification:PreciousPlastic;stroke-width:0.99999994"
       id="path1030" /><path
       d="m 363.27322,139.79694 q 0,-4.90909 0.24242,-5.39394 0.66667,-1.0303 1.69697,-1.15151 1.0303,-0.18182 2.84848,-0.18182 h 0.42425 q 0.36363,-0.0606 0.78788,-0.0606 0.42424,0 0.90909,0 h 0.96969 q 0.66667,0 1.33334,0.0606 0.66666,0 1.15151,0.24242 0.54546,0.24243 0.84849,0.72728 0.36363,0.48484 0.36363,1.33333 h 0.12122 q -0.42425,0.72727 -1.21213,1.15151 -0.78787,0.42425 -1.69697,0.60606 -0.90909,0.18182 -1.87878,0.24243 -0.90909,0 -1.69697,0 -0.24243,0 -0.48485,0.0606 -0.24243,0 -0.48485,0 l 0.0606,6 q 0.0606,2.54546 0.12121,4.36364 0.0606,1.75758 0.0606,2.66667 v 0.54545 q 2.9091,0.0606 2.9091,2.12121 0,1.27273 -0.9091,1.81819 -0.84848,0.48484 -1.87878,0.54545 v 0.9697 q -0.0606,0.30303 -0.0606,0.66666 0,0.30303 0,0.78788 0,1.45455 0,3.03031 0.0606,1.51515 0.18182,3.27272 0.0606,0.66667 0,1.27273 0,0.60606 0.12121,0.9697 0.0606,0.18182 0.0606,0.54545 0.30303,0.0606 0.72727,0.12121 0.48485,0 1.15151,0 2.78788,0 3.63637,0.36364 0.90909,0.36364 0.90909,1.57576 v 0.12121 q 0,0.66667 -0.90909,2.30303 l -4.24243,-0.0606 h -0.54545 q -1.63636,0 -2.48485,0 -0.84848,-0.0606 -1.33333,-0.18181 -0.42424,-0.12122 -0.60606,-0.42425 -0.18182,-0.36363 -0.42425,-0.90909 -0.12121,-0.30303 -0.24242,-2.42424 -0.0606,-2.12121 -0.18182,-5.15151 -0.0606,-3.09091 -0.18182,-6.66667 -0.0606,-3.57576 -0.12121,-6.78788 0,-3.27273 -0.0606,-5.75758 0,-2.48484 0,-3.33333 z"
       style="font-style:normal;font-variant:normal;font-weight:normal;font-stretch:normal;font-family:PreciousPlastic;-inkscape-font-specification:PreciousPlastic;stroke-width:0.99999994"
       id="path1032" /><path
       d="m 378.66712,169.19088 v -0.18182 q 0,-0.36363 0.48484,-1.45454 0.48485,-1.15152 1.33334,-3.15152 0.30303,-0.78788 0.66666,-1.63636 0.42425,-0.90909 0.9091,-1.9394 0.66666,-1.51515 1.27272,-2.96969 0.60606,-1.45455 1.15152,-2.78788 1.21212,-2.90909 2.30303,-5.39394 1.09091,-2.48485 1.93939,-4.66667 1.03031,-2.60606 1.69697,-4.48485 0.72727,-1.87878 1.09091,-3.0303 -0.48485,0.0606 -1.27273,0.18182 -0.72727,0.0606 -1.57575,0.0606 -0.36364,0 -0.72728,0.0606 -0.36363,0 -0.66666,0.0606 -1.21212,0.18182 -2.18182,0.18182 -0.9697,0 -1.63637,0 -1.0303,0 -2,-0.36364 -0.90909,-0.42424 -1.0303,-1.81818 l 0.0606,-0.30303 q 0.18182,-0.9697 1.09091,-1.27273 0.90909,-0.36364 1.63636,-0.48485 0.84849,-0.12121 2.48485,-0.12121 1.69697,-0.0606 4.12121,-0.36364 0.36364,-0.0606 0.78788,-0.0606 0.42424,0 0.90909,0 h 1.0303 q 0.66667,0 1.33334,0.0606 0.66666,0.0606 1.21212,0.30303 0.60606,0.24243 0.9697,0.72728 0.36363,0.42424 0.36363,1.21212 0,0.60606 -0.48485,2.12121 -0.42424,1.51515 -1.15151,3.51515 -0.72727,2 -1.63637,4.24242 -0.90909,2.24243 -1.75757,4.24243 -0.78788,2 -1.45455,3.57576 -0.66666,1.57575 -0.96969,2.24242 -2.06061,4.54546 -3.39394,7.51515 -1.27273,2.9697 -1.75758,4.42424 5.75758,0 9.57576,-0.36363 l 2.78788,-0.12121 q 1.45454,1.51515 1.45454,2.30303 0,0.78787 -0.66666,1.45454 l -0.78788,0.72727 -4.72728,0.12122 q -2.90909,0.12121 -4.66666,0.18181 -1.69697,0 -2,0 -0.30303,0.0606 -0.66667,0.0606 -0.36363,0 -0.66667,0 h -0.78787 q -0.54546,0 -1.27273,-0.0606 -0.66667,-0.12121 -1.27273,-0.42424 -0.60606,-0.30303 -1.0303,-0.78788 -0.42424,-0.54545 -0.42424,-1.33333 z"
       style="font-style:normal;font-variant:normal;font-weight:normal;font-stretch:normal;font-family:PreciousPlastic;-inkscape-font-specification:PreciousPlastic;stroke-width:0.99999994"
       id="path1034" /><path
       d="m 416.6063,134.03937 h -0.0606 q 0,-0.12122 0.0606,-0.24243 0.0606,-0.12121 0.0606,-0.24242 0,-0.12122 0,-0.18182 0.0606,-0.12121 0.0606,-0.24243 h 0.0606 q 0.60606,-1.51515 1.93939,-1.69697 h 0.36364 q 2.66666,0 6.24242,2.42425 2.42424,1.63636 3.87879,4.42424 1.45454,2.78788 1.45454,5.87879 0,2.0606 -0.66666,3.75757 -0.60606,1.63637 -1.69697,3.03031 -1.03031,1.39394 -2.42424,2.60606 -1.39394,1.15151 -2.9697,2.24242 l -1.15152,0.78788 q -0.12121,0.48485 -0.12121,2.90909 v 3.57576 l 0.12121,7.0303 q -1.27272,1.33333 -2.36363,1.33333 -0.90909,0 -1.45455,-0.66666 -0.54545,-0.66667 -0.66667,-1.45455 -0.0606,-0.48485 -0.18181,-3.57576 -0.0606,-3.0909 -0.0606,-8.24242 0,-1.21212 -0.0606,-2.36364 0,-1.15151 0,-2.18181 0,-6.54546 -0.18181,-8.90909 -0.12122,-2.72728 -0.18182,-4.9091 -0.0606,-2.18181 -0.0606,-3.75757 0,-0.42424 0,-0.72727 0,-0.30303 0.0606,-0.60606 z m 4.42424,4.24242 q 0.12121,1.21212 0.12121,2.48485 0.0606,1.21212 0.0606,2.42424 0,0.54545 0,1.0303 0,0.48485 0.0606,0.84849 0.18182,1.39394 0.18182,2.60606 0,1.21212 0,2.0606 0,0.84849 0,1.15152 0,0.30303 -0.0606,0.72727 1.87878,-1.21212 3.33333,-3.09091 1.45455,-1.93939 1.45455,-4.12121 0,-5.75757 -5.21213,-8.0606 v 0.78787 q 0,0.18182 0,0.48485 0,0.24243 0.0606,0.66667 z"
       style="font-style:normal;font-variant:normal;font-weight:normal;font-stretch:normal;font-family:PreciousPlastic;-inkscape-font-specification:PreciousPlastic;stroke-width:0.99999994"
       id="path1036" /><path
       d="m 434.42447,169.73633 q 0,-0.30303 0.0606,-0.78787 0.0606,-0.48485 0.18182,-1.09091 0.24242,-1.39394 1.0303,-5.39394 0.78788,-4 2.12121,-10.60606 1.27273,-6.42425 2,-10.12122 0.78788,-3.75757 0.90909,-4.18181 0.24243,-1.03031 1.33333,-1.87879 1.09091,-0.90909 2.18182,-0.90909 0.84849,0 1.33334,0.48485 0.48484,0.48484 1.39394,2.96969 0.90909,2.48485 1.93939,7.21212 0.24242,1.03031 0.48485,2.06061 0.30303,1.0303 0.60606,2.24242 0.72727,2.9091 1.63636,6.42425 0.9697,3.45454 2.06061,7.81818 1.45454,5.81818 1.45454,6.84848 0,0.84849 -0.60606,1.45455 -0.54545,0.60606 -1.39394,0.60606 -1.27272,0 -1.93939,-1.57576 -0.30303,-0.78788 -1.51515,-4.42424 -1.21212,-3.63636 -2.36364,-9.87879 -0.12121,-0.72727 -0.30303,-1.27273 -0.12121,-0.54545 -0.24242,-0.78787 -0.90909,-0.18182 -4.78788,-0.18182 h -0.36364 q -0.12121,0.48485 -0.24242,1.21212 -0.12121,0.72727 -0.36364,1.81818 -0.24242,1.09091 -0.48485,2.18182 -0.24242,1.09091 -0.42424,2.24242 -0.12121,0.78788 -0.36364,2 -0.18181,1.15152 -0.42424,2.36364 -0.18182,1.21212 -0.48485,2.30303 -0.24242,1.09091 -0.54545,1.69697 -0.60606,1.27273 -1.81818,1.27273 -0.84849,0 -1.45455,-0.60606 -0.60606,-0.66667 -0.60606,-1.51516 z m 8.06061,-19.33333 h 1.69697 q 0.48484,0 0.84848,0 0.42424,0 0.72727,0.0606 -0.0606,-0.18182 -0.12121,-0.36364 -0.0606,-0.18182 -0.12121,-0.42424 l -0.0606,-0.30303 q -0.0606,-0.30303 -0.24242,-0.84849 -0.12121,-0.60606 -0.36364,-1.39394 -0.30303,-0.84848 -0.42424,-1.63636 -0.12121,-0.78788 -0.36364,-1.63636 l -0.18181,-0.72728 q -0.12122,0.48485 -0.24243,1.03031 -0.0606,0.54545 -0.18182,1.15151 -0.42424,1.75758 -0.66666,3.03031 -0.18182,1.27272 -0.30303,2.0606 z"
       style="font-style:normal;font-variant:normal;font-weight:normal;font-stretch:normal;font-family:PreciousPlastic;-inkscape-font-specification:PreciousPlastic;stroke-width:0.99999994"
       id="path1038" /><path
       d="m 458.90922,169.61512 q 0,-1.09091 0.72727,-1.63636 0.78788,-0.60606 4.18182,-1.33333 2.72727,-0.60606 4.18181,-2.66667 1.45455,-2.06061 1.45455,-4.66667 0,-1.63636 -0.24242,-2.84848 -0.24243,-1.21212 -0.72728,-2.18182 -0.48485,-1.0303 -1.33333,-2 -0.78788,-0.9697 -1.87879,-2.06061 -0.90909,-0.90909 -1.63636,-1.57575 -0.66667,-0.66667 -1.09091,-1.09091 -1.39394,-1.39394 -2.42424,-3.03031 -1.03031,-1.69697 -1.03031,-3.69697 0,-1.51515 0.66667,-3.0303 0.66667,-1.51515 1.75758,-2.72727 1.09091,-1.27273 2.54545,-2 1.45455,-0.78788 2.9697,-0.78788 2.0606,0 2.0606,1.93939 0,0.9697 -0.36363,1.27273 -0.30303,0.30303 -1.75758,0.84849 -1.57576,0.60606 -2.60606,1.75757 -1.0303,1.09091 -1.0303,2.84849 0,0.42424 0.12121,0.84848 0.12121,0.42424 0.24242,0.72727 0,0.0606 0.54546,0.66667 0.60606,0.60606 1.33333,1.33333 0.72728,0.72728 1.45455,1.39394 0.72727,0.66667 0.96969,0.9697 l 0.78788,0.72727 q 0.90909,0.84849 1.51516,1.45455 0.60606,0.60606 0.78787,0.90909 1.15152,2.06061 1.9394,4.30303 0.84848,2.24242 0.84848,5.15151 0,3.15152 -1.75757,6.06061 -1.69697,2.84849 -4.42425,4.42424 -0.42424,0.18182 -1.33333,0.48485 -0.90909,0.30303 -1.93939,0.60606 -0.9697,0.24243 -1.9394,0.48485 -0.96969,0.18182 -1.51515,0.18182 -2.0606,0 -2.0606,-2.06061 z"
       style="font-style:normal;font-variant:normal;font-weight:normal;font-stretch:normal;font-family:PreciousPlastic;-inkscape-font-specification:PreciousPlastic;stroke-width:0.99999994"
       id="path1040" /><path
       d="m 492.60601,150.16058 q 0,-7.39394 0.12121,-11.27273 0.12121,-3.87879 0.42424,-4.18182 0.60607,-0.60606 1.21213,-0.60606 1.39394,0 2,1.63636 0.12121,0.66667 0.18181,3.75758 0.12122,3.09091 0.18182,8.42424 0.0606,4.72728 0.0606,8.42425 0,3.69697 0,6.24242 0,3.69697 -0.24243,4.60606 0.84849,0 1.63637,0.0606 0.84848,0.0606 1.63636,0.24242 v -0.54545 q 1.81818,1.81818 1.81818,2.60606 0,1.09091 -0.84848,1.63636 -0.84849,0.54545 -1.69697,0.54545 -0.24243,0 -0.9697,0 -0.66667,-0.0606 -1.45454,-0.12121 -0.78788,-0.0606 -1.45455,-0.12121 -0.60606,-0.0606 -0.72727,-0.12121 -1.21212,-0.72727 -1.63637,-2.78788 -0.24242,-1.0303 -0.24242,-18.42424 z"
       style="font-style:normal;font-variant:normal;font-weight:normal;font-stretch:normal;font-family:PreciousPlastic;-inkscape-font-specification:PreciousPlastic;stroke-width:0.99999994"
       id="path1042" /><path
       d="m 505.27267,139.79694 q 0,-4.90909 0.24242,-5.39394 0.66667,-1.0303 1.69697,-1.15151 1.0303,-0.18182 2.84849,-0.18182 h 0.42424 q 0.36363,-0.0606 0.78788,-0.0606 0.42424,0 0.90909,0 h 0.96969 q 0.66667,0 1.33334,0.0606 0.66666,0 1.15151,0.24242 0.54546,0.24243 0.84849,0.72728 0.36363,0.48484 0.36363,1.33333 h 0.12122 q -0.42425,0.72727 -1.21212,1.15151 -0.78788,0.42425 -1.69697,0.60606 -0.9091,0.18182 -1.87879,0.24243 -0.90909,0 -1.69697,0 -0.24243,0 -0.48485,0.0606 -0.24242,0 -0.48485,0 l 0.0606,6 q 0.0606,2.54546 0.12121,4.36364 0.0606,1.75758 0.0606,2.66667 v 0.54545 q 2.90909,0.0606 2.90909,2.12121 0,1.27273 -0.90909,1.81819 -0.84849,0.48484 -1.87879,0.54545 v 0.9697 q -0.0606,0.30303 -0.0606,0.66666 0,0.30303 0,0.78788 0,1.45455 0,3.03031 0.0606,1.51515 0.18182,3.27272 0.0606,0.66667 0,1.27273 0,0.60606 0.12121,0.9697 0.0606,0.18182 0.0606,0.54545 0.30303,0.0606 0.72727,0.12121 0.48485,0 1.15152,0 2.78787,0 3.63636,0.36364 0.90909,0.36364 0.90909,1.57576 v 0.12121 q 0,0.66667 -0.90909,2.30303 l -4.24243,-0.0606 h -0.54545 q -1.63636,0 -2.48485,0 -0.84848,-0.0606 -1.33333,-0.18181 -0.42424,-0.12122 -0.60606,-0.42425 -0.18182,-0.36363 -0.42424,-0.90909 -0.12122,-0.30303 -0.24243,-2.42424 -0.0606,-2.12121 -0.18182,-5.15151 -0.0606,-3.09091 -0.18182,-6.66667 -0.0606,-3.57576 -0.12121,-6.78788 0,-3.27273 -0.0606,-5.75758 0,-2.48484 0,-3.33333 z"
       style="font-style:normal;font-variant:normal;font-weight:normal;font-stretch:normal;font-family:PreciousPlastic;-inkscape-font-specification:PreciousPlastic;stroke-width:0.99999994"
       id="path1044" /><path
       d="m 520.54534,169.61512 q 0,-1.09091 0.72727,-1.63636 0.78788,-0.60606 4.18182,-1.33333 2.72727,-0.60606 4.18182,-2.66667 1.45454,-2.06061 1.45454,-4.66667 0,-1.63636 -0.24242,-2.84848 -0.24242,-1.21212 -0.72727,-2.18182 -0.48485,-1.0303 -1.33334,-2 -0.78788,-0.9697 -1.87878,-2.06061 -0.9091,-0.90909 -1.63637,-1.57575 -0.66666,-0.66667 -1.09091,-1.09091 -1.39394,-1.39394 -2.42424,-3.03031 -1.0303,-1.69697 -1.0303,-3.69697 0,-1.51515 0.66666,-3.0303 0.66667,-1.51515 1.75758,-2.72727 1.09091,-1.27273 2.54545,-2 1.45455,-0.78788 2.9697,-0.78788 2.06061,0 2.06061,1.93939 0,0.9697 -0.36364,1.27273 -0.30303,0.30303 -1.75757,0.84849 -1.57576,0.60606 -2.60607,1.75757 -1.0303,1.09091 -1.0303,2.84849 0,0.42424 0.12121,0.84848 0.12122,0.42424 0.24243,0.72727 0,0.0606 0.54545,0.66667 0.60606,0.60606 1.33334,1.33333 0.72727,0.72728 1.45454,1.39394 0.72727,0.66667 0.9697,0.9697 l 0.78788,0.72727 q 0.90909,0.84849 1.51515,1.45455 0.60606,0.60606 0.78788,0.90909 1.15151,2.06061 1.93939,4.30303 0.84849,2.24242 0.84849,5.15151 0,3.15152 -1.75758,6.06061 -1.69697,2.84849 -4.42424,4.42424 -0.42424,0.18182 -1.33334,0.48485 -0.90909,0.30303 -1.93939,0.60606 -0.9697,0.24243 -1.93939,0.48485 -0.9697,0.18182 -1.51515,0.18182 -2.06061,0 -2.06061,-2.06061 z"
       style="font-style:normal;font-variant:normal;font-weight:normal;font-stretch:normal;font-family:PreciousPlastic;-inkscape-font-specification:PreciousPlastic;stroke-width:0.99999994"
       id="path1046" /><path
       d="m 554.30276,134.03937 h -0.0606 q 0,-0.12122 0.0606,-0.24243 0.0606,-0.12121 0.0606,-0.24242 0,-0.12122 0,-0.18182 0.0606,-0.12121 0.0606,-0.24243 h 0.0606 q 0.60606,-1.51515 1.9394,-1.69697 h 0.36363 q 2.66667,0 6.24243,2.42425 2.42424,1.63636 3.87879,4.42424 1.45454,2.78788 1.45454,5.87879 0,2.0606 -0.66667,3.75757 -0.60606,1.63637 -1.69697,3.03031 -1.0303,1.39394 -2.42424,2.60606 -1.39394,1.15151 -2.96969,2.24242 l -1.15152,0.78788 q -0.12121,0.48485 -0.12121,2.90909 v 3.57576 l 0.12121,7.0303 q -1.27273,1.33333 -2.36364,1.33333 -0.90909,0 -1.45454,-0.66666 -0.54546,-0.66667 -0.66667,-1.45455 -0.0606,-0.48485 -0.18182,-3.57576 -0.0606,-3.0909 -0.0606,-8.24242 0,-1.21212 -0.0606,-2.36364 0,-1.15151 0,-2.18181 0,-6.54546 -0.18182,-8.90909 -0.12121,-2.72728 -0.18181,-4.9091 -0.0606,-2.18181 -0.0606,-3.75757 0,-0.42424 0,-0.72727 0,-0.30303 0.0606,-0.60606 z m 4.42424,4.24242 q 0.12121,1.21212 0.12121,2.48485 0.0606,1.21212 0.0606,2.42424 0,0.54545 0,1.0303 0,0.48485 0.0606,0.84849 0.18182,1.39394 0.18182,2.60606 0,1.21212 0,2.0606 0,0.84849 0,1.15152 0,0.30303 -0.0606,0.72727 1.87879,-1.21212 3.33334,-3.09091 1.45454,-1.93939 1.45454,-4.12121 0,-5.75757 -5.21212,-8.0606 v 0.78787 q 0,0.18182 0,0.48485 0,0.24243 0.0606,0.66667 z"
       style="font-style:normal;font-variant:normal;font-weight:normal;font-stretch:normal;font-family:PreciousPlastic;-inkscape-font-specification:PreciousPlastic;stroke-width:0.99999994"
       id="path1048" /><path
       d="m 571.93911,150.16058 q 0,-7.39394 0.12121,-11.27273 0.12121,-3.87879 0.42424,-4.18182 0.60606,-0.60606 1.21213,-0.60606 1.39393,0 2,1.63636 0.12121,0.66667 0.18181,3.75758 0.12122,3.09091 0.18182,8.42424 0.0606,4.72728 0.0606,8.42425 0,3.69697 0,6.24242 0,3.69697 -0.24243,4.60606 0.84849,0 1.63637,0.0606 0.84848,0.0606 1.63636,0.24242 v -0.54545 q 1.81818,1.81818 1.81818,2.60606 0,1.09091 -0.84848,1.63636 -0.84849,0.54545 -1.69697,0.54545 -0.24243,0 -0.9697,0 -0.66667,-0.0606 -1.45454,-0.12121 -0.78788,-0.0606 -1.45455,-0.12121 -0.60606,-0.0606 -0.72727,-0.12121 -1.21212,-0.72727 -1.63637,-2.78788 -0.24242,-1.0303 -0.24242,-18.42424 z"
       style="font-style:normal;font-variant:normal;font-weight:normal;font-stretch:normal;font-family:PreciousPlastic;-inkscape-font-specification:PreciousPlastic;stroke-width:0.99999994"
       id="path1050" /><path
       d="m 584.78758,169.73633 q 0,-0.30303 0.0606,-0.78787 0.0606,-0.48485 0.18182,-1.09091 0.24242,-1.39394 1.0303,-5.39394 0.78788,-4 2.12121,-10.60606 1.27273,-6.42425 2,-10.12122 0.78788,-3.75757 0.90909,-4.18181 0.24243,-1.03031 1.33334,-1.87879 1.09091,-0.90909 2.18182,-0.90909 0.84848,0 1.33333,0.48485 0.48485,0.48484 1.39394,2.96969 0.90909,2.48485 1.93939,7.21212 0.24243,1.03031 0.48485,2.06061 0.30303,1.0303 0.60606,2.24242 0.72727,2.9091 1.63637,6.42425 0.96969,3.45454 2.0606,7.81818 1.45455,5.81818 1.45455,6.84848 0,0.84849 -0.60606,1.45455 -0.54546,0.60606 -1.39394,0.60606 -1.27273,0 -1.9394,-1.57576 -0.30303,-0.78788 -1.51515,-4.42424 -1.21212,-3.63636 -2.36363,-9.87879 -0.12122,-0.72727 -0.30304,-1.27273 -0.12121,-0.54545 -0.24242,-0.78787 -0.90909,-0.18182 -4.78788,-0.18182 h -0.36363 q -0.12122,0.48485 -0.24243,1.21212 -0.12121,0.72727 -0.36364,1.81818 -0.24242,1.09091 -0.48484,2.18182 -0.24243,1.09091 -0.42425,2.24242 -0.12121,0.78788 -0.36363,2 -0.18182,1.15152 -0.42424,2.36364 -0.18182,1.21212 -0.48485,2.30303 -0.24243,1.09091 -0.54546,1.69697 -0.60606,1.27273 -1.81818,1.27273 -0.84848,0 -1.45455,-0.60606 -0.60606,-0.66667 -0.60606,-1.51516 z m 8.06061,-19.33333 h 1.69697 q 0.48485,0 0.84848,0 0.42425,0 0.72728,0.0606 -0.0606,-0.18182 -0.12121,-0.36364 -0.0606,-0.18182 -0.12122,-0.42424 l -0.0606,-0.30303 q -0.0606,-0.30303 -0.24243,-0.84849 -0.12121,-0.60606 -0.36363,-1.39394 -0.30303,-0.84848 -0.42425,-1.63636 -0.12121,-0.78788 -0.36363,-1.63636 l -0.18182,-0.72728 q -0.12121,0.48485 -0.24242,1.03031 -0.0606,0.54545 -0.18182,1.15151 -0.42425,1.75758 -0.66667,3.03031 -0.18182,1.27272 -0.30303,2.0606 z"
       style="font-style:normal;font-variant:normal;font-weight:normal;font-stretch:normal;font-family:PreciousPlastic;-inkscape-font-specification:PreciousPlastic;stroke-width:0.99999994"
       id="path1052" /><path
       d="m 609.27233,169.61512 q 0,-1.09091 0.72727,-1.63636 0.78788,-0.60606 4.18182,-1.33333 2.72727,-0.60606 4.18182,-2.66667 1.45454,-2.06061 1.45454,-4.66667 0,-1.63636 -0.24242,-2.84848 -0.24242,-1.21212 -0.72727,-2.18182 -0.48485,-1.0303 -1.33334,-2 -0.78788,-0.9697 -1.87878,-2.06061 -0.9091,-0.90909 -1.63637,-1.57575 -0.66666,-0.66667 -1.09091,-1.09091 -1.39394,-1.39394 -2.42424,-3.03031 -1.0303,-1.69697 -1.0303,-3.69697 0,-1.51515 0.66666,-3.0303 0.66667,-1.51515 1.75758,-2.72727 1.09091,-1.27273 2.54545,-2 1.45455,-0.78788 2.9697,-0.78788 2.06061,0 2.06061,1.93939 0,0.9697 -0.36364,1.27273 -0.30303,0.30303 -1.75757,0.84849 -1.57576,0.60606 -2.60607,1.75757 -1.0303,1.09091 -1.0303,2.84849 0,0.42424 0.12121,0.84848 0.12122,0.42424 0.24243,0.72727 0,0.0606 0.54545,0.66667 0.60606,0.60606 1.33334,1.33333 0.72727,0.72728 1.45454,1.39394 0.72727,0.66667 0.9697,0.9697 l 0.78788,0.72727 q 0.90909,0.84849 1.51515,1.45455 0.60606,0.60606 0.78788,0.90909 1.15151,2.06061 1.93939,4.30303 0.84849,2.24242 0.84849,5.15151 0,3.15152 -1.75758,6.06061 -1.69697,2.84849 -4.42424,4.42424 -0.42424,0.18182 -1.33334,0.48485 -0.90909,0.30303 -1.93939,0.60606 -0.9697,0.24243 -1.93939,0.48485 -0.9697,0.18182 -1.51515,0.18182 -2.06061,0 -2.06061,-2.06061 z"
       style="font-style:normal;font-variant:normal;font-weight:normal;font-stretch:normal;font-family:PreciousPlastic;-inkscape-font-specification:PreciousPlastic;stroke-width:0.99999994"
       id="path1054" /><path
       d="m 628.18138,136.58482 q 0,-1.57576 1.45454,-1.93939 0.54546,-0.12122 3.09091,-0.0606 2.54546,0 6.54546,-0.36364 0.48484,-0.0606 1.09091,-0.0606 0.66666,0 1.21212,0 h 1.21212 q 1.15151,0 2.0606,0.30303 0.9697,0.30303 0.9697,1.69697 v 0.18182 q 0,0.54545 -0.42424,1.0303 -0.42424,0.48485 -0.9697,0.78788 -0.24242,0.12121 -0.9697,0.24242 -0.66666,0.0606 -1.45454,0.12121 -0.78788,0 -1.51515,0.0606 -0.72728,0 -1.09091,0 h -0.36364 v 15.27273 q 0,8 -0.18182,12.54545 -0.12121,4.48485 -0.42424,4.9697 -0.18182,0.30303 -0.54545,0.36363 -0.36364,0.0606 -0.9697,0.0606 -0.36364,0 -0.78788,0 -0.36363,-0.0606 -0.66667,-0.30303 -0.48484,-0.54545 -0.66666,-1.15151 -0.18182,-0.66667 -0.18182,-1.45455 0,-0.84849 0.0606,-1.87879 0.0606,-1.09091 0.0606,-2.54545 0,-2.06061 0,-4 0.0606,-2 0.0606,-4 -0.0606,-1.9394 -0.0606,-3.81818 0.0606,-1.87879 0.0606,-3.75758 l 0.0606,-10.18182 h -1.69697 q -1.51515,0 -2.48484,-0.0606 -0.90909,-0.0606 -1.33334,-0.30303 -1.15151,-0.60607 -1.15151,-1.75758 z"
       style="font-style:normal;font-variant:normal;font-weight:normal;font-stretch:normal;font-family:PreciousPlastic;-inkscape-font-specification:PreciousPlastic;stroke-width:0.99999994"
       id="path1056" /><path
       d="m 649.57528,138.403 q 0,-3.87879 2.12121,-3.87879 0.78788,0 1.51515,0.72728 l 0.72727,0.72727 0.0606,3.45454 q 0.0606,2.9091 0.12121,5.9394 0.0606,3.0303 0.18182,5.93939 0.12121,2.9697 0.12121,5.87879 0.0606,2.90909 0.12121,6 0.0606,2.36364 0.0606,3.69697 0.0606,1.33333 0.0606,1.39394 0,0.54545 -0.0606,1.15151 0,0.54546 -0.24242,1.09091 -0.18182,0.48485 -0.60606,0.84849 -0.42425,0.30303 -1.27273,0.30303 -0.66667,0 -1.21212,-0.42424 -0.48485,-0.48485 -0.72728,-1.15152 -0.18181,-0.60606 -0.30303,-4.84848 -0.0606,-4.24243 -0.30303,-11.69697 l -0.0606,-1.87879 q -0.0606,-1.57576 -0.0606,-2.90909 0,-1.33334 -0.0606,-2.54546 -0.12122,-3.15151 -0.12122,-4.90909 0,-1.81818 -0.0606,-2.12121 z"
       style="font-style:normal;font-variant:normal;font-weight:normal;font-stretch:normal;font-family:PreciousPlastic;-inkscape-font-specification:PreciousPlastic;stroke-width:0.99999994"
       id="path1058" /><path
       d="m 658.30245,152.16058 q 0,-2.54546 0.24242,-5.09091 0.30303,-2.54546 0.78788,-5.09091 0.30303,-1.57576 1.0303,-3.21212 0.72728,-1.69697 1.81818,-3.09091 1.09091,-1.39394 2.54546,-2.24243 1.45454,-0.90909 3.27273,-0.90909 4.54545,0 7.0909,2.06061 2.60607,2.06061 3.87879,5.27273 1.27273,3.15151 1.57576,6.96969 0.30303,3.75758 0.30303,7.21213 0,1.93939 -0.18182,4 -0.12121,2.0606 -0.66666,4.0606 -0.48485,1.9394 -1.39394,3.75758 -0.84849,1.75757 -2.30303,3.21212 0.48484,0.72727 0.96969,1.81818 0.48485,1.09091 0.48485,1.75758 0,0.96969 -0.60606,1.51515 -0.54545,0.48485 -1.39394,0.48485 -1.21212,0 -3.33333,-3.27273 -0.54546,0.12121 -1.09091,0.24242 -0.54546,0.12121 -1.21212,0.12121 -3.87879,0 -6.24243,-1.93939 -2.30303,-1.93939 -3.57575,-4.84848 -1.21212,-2.9697 -1.63637,-6.36364 -0.36363,-3.45455 -0.36363,-6.42424 z m 6.48484,11.87879 q 0.84849,1.57575 2.18182,2.42424 1.33334,0.78788 3.03031,0.90909 l -0.12122,-0.18182 q -0.48484,-0.78788 -0.72727,-1.39394 -0.18182,-0.66667 -0.18182,-1.0303 0,-0.78788 0.66667,-1.39394 0.66667,-0.66667 1.45454,-0.66667 1.09091,0 1.45455,1.0303 0.12121,0.36364 0.36364,0.9091 0.30303,0.48484 0.84848,0.78787 0.72727,-0.84848 1.39394,-2.36363 0.72727,-1.57576 1.0303,-3.57576 0.12122,-0.84848 0.18182,-2.54545 0.12121,-1.75758 0.12121,-4.42425 0,-1.33333 -0.0606,-2.90909 -0.0606,-1.63636 -0.24243,-3.27272 -0.18181,-1.63637 -0.54545,-3.15152 -0.36364,-1.51515 -0.9697,-2.66667 -0.84848,-1.63636 -2.60606,-2.60606 -1.75757,-1.0303 -3.51515,-1.0303 -1.33333,0 -2.30303,0.84848 -0.9697,0.84849 -1.63636,2.24243 -0.66667,1.33333 -1.09091,3.09091 -0.36364,1.69697 -0.60606,3.45454 -0.24243,1.69697 -0.30303,3.33334 -0.0606,1.57575 -0.0606,2.66666 0,1.21212 0.12121,2.78788 0.18182,1.51515 0.42425,3.09091 0.30303,1.57576 0.72727,3.09091 0.42424,1.45455 0.96969,2.54546 z m 5.81819,3.93939 v -0.54546 l -0.18182,0.24243 v 0.30303 z"
       style="font-style:normal;font-variant:normal;font-weight:normal;font-stretch:normal;font-family:PreciousPlastic;-inkscape-font-specification:PreciousPlastic;stroke-width:0.99999994"
       id="path1060" /><path
       d="m 685.02961,136.64543 v -0.12122 q 0.90909,-0.72727 1.69697,-0.72727 0.60606,0 0.96969,0.30303 0.36364,0.30303 0.54546,0.78788 0.24242,0.42424 0.30303,0.9697 0.12121,0.54545 0.18182,1.0303 0.12121,0.66667 0.18181,2.18182 0.0606,1.51515 0.18182,3.93939 0.12121,1.33334 0.18182,2.84849 0.0606,1.51515 0.18182,3.33333 0.30303,3.63636 0.54545,6.30303 0.30303,2.66667 0.78788,4.18182 0.24243,0.78788 0.60606,1.69697 0.42424,0.90909 0.9697,1.69697 0.54545,0.78788 1.27273,1.27273 0.72727,0.48484 1.63636,0.48484 0.9697,0 1.81818,-0.54545 0.84849,-0.60606 1.45455,-1.45455 0.66666,-0.90909 1.0303,-1.93939 0.42424,-1.0303 0.48485,-1.93939 0.0606,-0.72728 0.0606,-2.66667 0.0606,-2 0.18181,-5.33333 0.18182,-6.30303 0.18182,-12.54546 0,-0.18182 0,-0.30303 0.0606,-0.18182 0.0606,-0.30303 v -0.36364 q -0.24243,-0.24242 -0.24243,-0.96969 0,-0.78788 0.48485,-1.33334 0.48485,-0.60606 1.27273,-0.72727 1.09091,0 1.57576,0.42424 0.48485,0.36364 0.84848,1.27273 0.36364,0.90909 0.36364,8.84849 0,13.93939 -0.72727,16.48484 -0.42425,1.45455 -1.21213,2.84849 -0.78787,1.39394 -1.93939,2.48485 -1.09091,1.09091 -2.48485,1.75757 -1.39394,0.60606 -3.0303,0.60606 -3.21212,0 -5.15152,-1.81818 -1.93939,-1.87879 -3.0303,-4.54545 -1.0303,-2.66667 -1.45455,-5.63637 -0.36363,-3.0303 -0.48484,-5.33333 0,-0.36364 -0.0606,-1.57576 -0.0606,-1.21212 -0.18182,-2.72727 l -0.0606,-1.09091 q -0.0606,-0.78788 -0.12122,-1.51515 0,-0.72727 -0.0606,-1.33333 l -0.0606,-1.57576 q -0.0606,-1.69697 -0.18182,-3.0303 -0.0606,-1.39394 -0.0606,-2.18182 0,-1.27273 0.48485,-2.12121 z"
       style="font-style:normal;font-variant:normal;font-weight:normal;font-stretch:normal;font-family:PreciousPlastic;-inkscape-font-specification:PreciousPlastic;stroke-width:0.99999994"
       id="path1062" /><path
       d="m 708.36288,139.79694 q 0,-4.90909 0.24242,-5.39394 0.66667,-1.0303 1.69697,-1.15151 1.0303,-0.18182 2.84849,-0.18182 h 0.42424 q 0.36363,-0.0606 0.78788,-0.0606 0.42424,0 0.90909,0 h 0.96969 q 0.66667,0 1.33334,0.0606 0.66666,0 1.15151,0.24242 0.54546,0.24243 0.84849,0.72728 0.36363,0.48484 0.36363,1.33333 h 0.12122 q -0.42425,0.72727 -1.21212,1.15151 -0.78788,0.42425 -1.69697,0.60606 -0.9091,0.18182 -1.87879,0.24243 -0.90909,0 -1.69697,0 -0.24243,0 -0.48485,0.0606 -0.24242,0 -0.48485,0 l 0.0606,6 q 0.0606,2.54546 0.12121,4.36364 0.0606,1.75758 0.0606,2.66667 v 0.54545 q 2.90909,0.0606 2.90909,2.12121 0,1.27273 -0.90909,1.81819 -0.84849,0.48484 -1.87879,0.54545 v 0.9697 q -0.0606,0.30303 -0.0606,0.66666 0,0.30303 0,0.78788 0,1.45455 0,3.03031 0.0606,1.51515 0.18182,3.27272 0.0606,0.66667 0,1.27273 0,0.60606 0.12121,0.9697 0.0606,0.18182 0.0606,0.54545 0.30303,0.0606 0.72727,0.12121 0.48485,0 1.15152,0 2.78787,0 3.63636,0.36364 0.90909,0.36364 0.90909,1.57576 v 0.12121 q 0,0.66667 -0.90909,2.30303 l -4.24243,-0.0606 h -0.54545 q -1.63636,0 -2.48485,0 -0.84848,-0.0606 -1.33333,-0.18181 -0.42424,-0.12122 -0.60606,-0.42425 -0.18182,-0.36363 -0.42424,-0.90909 -0.12122,-0.30303 -0.24243,-2.42424 -0.0606,-2.12121 -0.18182,-5.15151 -0.0606,-3.09091 -0.18182,-6.66667 -0.0606,-3.57576 -0.12121,-6.78788 0,-3.27273 -0.0606,-5.75758 0,-2.48484 0,-3.33333 z"
       style="font-style:normal;font-variant:normal;font-weight:normal;font-stretch:normal;font-family:PreciousPlastic;-inkscape-font-specification:PreciousPlastic;stroke-width:0.99999994"
       id="path1064" /><path
       d="m 723.63555,169.61512 q 0,-1.09091 0.72727,-1.63636 0.78788,-0.60606 4.18182,-1.33333 2.72727,-0.60606 4.18182,-2.66667 1.45454,-2.06061 1.45454,-4.66667 0,-1.63636 -0.24242,-2.84848 -0.24242,-1.21212 -0.72727,-2.18182 -0.48485,-1.0303 -1.33334,-2 -0.78788,-0.9697 -1.87878,-2.06061 -0.9091,-0.90909 -1.63637,-1.57575 -0.66666,-0.66667 -1.09091,-1.09091 -1.39394,-1.39394 -2.42424,-3.03031 -1.0303,-1.69697 -1.0303,-3.69697 0,-1.51515 0.66666,-3.0303 0.66667,-1.51515 1.75758,-2.72727 1.09091,-1.27273 2.54545,-2 1.45455,-0.78788 2.9697,-0.78788 2.06061,0 2.06061,1.93939 0,0.9697 -0.36364,1.27273 -0.30303,0.30303 -1.75757,0.84849 -1.57576,0.60606 -2.60607,1.75757 -1.0303,1.09091 -1.0303,2.84849 0,0.42424 0.12121,0.84848 0.12122,0.42424 0.24243,0.72727 0,0.0606 0.54545,0.66667 0.60606,0.60606 1.33334,1.33333 0.72727,0.72728 1.45454,1.39394 0.72727,0.66667 0.9697,0.9697 l 0.78788,0.72727 q 0.90909,0.84849 1.51515,1.45455 0.60606,0.60606 0.78788,0.90909 1.15151,2.06061 1.93939,4.30303 0.84849,2.24242 0.84849,5.15151 0,3.15152 -1.75758,6.06061 -1.69697,2.84849 -4.42424,4.42424 -0.42424,0.18182 -1.33334,0.48485 -0.90909,0.30303 -1.93939,0.60606 -0.9697,0.24243 -1.93939,0.48485 -0.9697,0.18182 -1.51515,0.18182 -2.06061,0 -2.06061,-2.06061 z"
       style="font-style:normal;font-variant:normal;font-weight:normal;font-stretch:normal;font-family:PreciousPlastic;-inkscape-font-specification:PreciousPlastic;stroke-width:0.99999994"
       id="path1066" /><path
       d="m 757.99906,130.94846 -0.12122,0.0606 q 0,-0.12121 0.0606,-0.42424 0.12121,-0.36364 0.12121,-0.48485 h 0.0606 q 0.66667,-1.21212 1.75757,-1.21212 0.9697,0 1.51516,0.66667 0.60606,0.66666 0.78787,3.39394 0.0606,0.96969 0.0606,4.90909 0.0606,3.93939 0.0606,10.90909 v 14.0606 q -0.78788,0.42425 -0.84849,0.48485 -0.54545,0.60606 -1.33333,0.60606 -0.54546,0 -1.27273,-0.54545 l -0.84848,-0.66667 -0.12122,-16.0606 v -7.39394 q 0,-3.15152 0,-5.21212 0.0606,-2.06061 0.12122,-3.09091 z m -0.72728,38.60606 q 0,-1.21212 0.84849,-2.18182 0.84848,-0.9697 2.12121,-0.9697 2.66667,0 2.66667,2.60606 0,1.21212 -0.84849,2.24243 -0.78788,0.96969 -2.0606,0.96969 l -1.57576,-0.42424 -0.54546,-0.54545 q -0.42424,-0.42425 -0.54545,-0.78788 -0.0606,-0.42425 -0.0606,-0.90909 z"
       style="font-style:normal;font-variant:normal;font-weight:normal;font-stretch:normal;font-family:PreciousPlastic;-inkscape-font-specification:PreciousPlastic;stroke-width:0.99999994"
       id="path1068" /></g><g
     aria-label=" JAMAIS "
     transform="rotate(-10.946578)"
     style="font-style:normal;font-weight:normal;font-size:68.76811218px;line-height:1.25;font-family:sans-serif;letter-spacing:0px;word-spacing:0px;fill:#000000;fill-opacity:1;stroke:none;stroke-width:1.00000012"
     id="text921"><path
       d="m 377.18743,190.00862 q 0,-1.92551 2.54442,-2.54442 2.26935,-0.55015 3.57594,-1.99428 1.37536,-1.5129 1.99428,-3.50717 0.68768,-1.99428 0.89398,-4.19486 0.20631,-2.26934 0.20631,-4.26362 v -3.85101 q 0,-0.82522 0,-1.58167 0.0688,-0.75645 0,-1.5129 -0.0688,-0.68768 -0.0688,-1.30659 0,-0.61892 0,-1.16906 V 149.5042 q 1.58166,-1.58167 2.54442,-1.58167 1.03152,0 1.7192,0.89399 0.2063,0.41261 0.34384,2.20058 0.13754,1.78797 0.20631,4.26362 0.0688,2.40689 0.13753,5.22638 0.0688,2.81949 0.0688,5.36391 0.0688,2.47565 0.0688,4.46993 0,1.9255 0,2.61319 0,2.54442 -0.20631,5.08884 -0.2063,2.54442 -0.89398,4.88253 -0.68768,2.26935 -2.06305,4.26363 -1.37536,1.99427 -3.71347,3.57594 -2.40689,1.58166 -4.46993,1.58166 -2.88826,0 -2.88826,-2.33811 z"
       style="font-style:normal;font-variant:normal;font-weight:normal;font-stretch:normal;font-family:PreciousPlastic;-inkscape-font-specification:PreciousPlastic;stroke-width:1.00000012"
       id="path1007" /><path
       d="m 395.5484,190.14615 q 0,-0.34384 0.0688,-0.89398 0.0688,-0.55015 0.20631,-1.23783 0.27507,-1.58166 1.16906,-6.12036 0.89398,-4.53869 2.40688,-12.03442 1.44413,-7.28942 2.26935,-11.48427 0.89398,-4.26363 1.03152,-4.745 0.27507,-1.16906 1.5129,-2.13182 1.23782,-1.03152 2.47565,-1.03152 0.96275,0 1.5129,0.55015 0.55014,0.55014 1.58167,3.36964 1.03152,2.81949 2.20057,8.1834 0.27508,1.16906 0.55015,2.33812 0.34384,1.16905 0.68768,2.54442 0.82522,3.30087 1.85674,7.28942 1.10029,3.91978 2.33812,8.87108 1.65043,6.60174 1.65043,7.7708 0,0.96275 -0.68768,1.65043 -0.61891,0.68769 -1.58167,0.68769 -1.44413,0 -2.20058,-1.78798 -0.34384,-0.89398 -1.7192,-5.02007 -1.37536,-4.12608 -2.68196,-11.2092 -0.13753,-0.82522 -0.34384,-1.44413 -0.13753,-0.61891 -0.27507,-0.89399 -1.03152,-0.2063 -5.43268,-0.2063 h -0.41261 q -0.13753,0.55015 -0.27507,1.37536 -0.13754,0.82522 -0.41261,2.06305 -0.27507,1.23782 -0.55014,2.47565 -0.27508,1.23782 -0.48138,2.54442 -0.13754,0.89398 -0.41261,2.26935 -0.2063,1.30659 -0.48138,2.68195 -0.2063,1.37536 -0.55014,2.61319 -0.27507,1.23783 -0.61891,1.92551 -0.68769,1.44413 -2.06305,1.44413 -0.96275,0 -1.65043,-0.68768 -0.68768,-0.75645 -0.68768,-1.71921 z m 9.14615,-21.93702 h 1.92551 q 0.55015,0 0.96276,0 0.48137,0 0.82521,0.0688 -0.0688,-0.2063 -0.13753,-0.4126 -0.0688,-0.20631 -0.13754,-0.48138 l -0.0688,-0.34384 q -0.0688,-0.34384 -0.27507,-0.96276 -0.13754,-0.68768 -0.41261,-1.58166 -0.34384,-0.96276 -0.48138,-1.85674 -0.13753,-0.89399 -0.4126,-1.85674 l -0.20631,-0.82522 q -0.13753,0.55015 -0.27507,1.16906 -0.0688,0.61891 -0.20631,1.30659 -0.48137,1.99428 -0.75644,3.43841 -0.20631,1.44413 -0.34385,2.33812 z"
       style="font-style:normal;font-variant:normal;font-weight:normal;font-stretch:normal;font-family:PreciousPlastic;-inkscape-font-specification:PreciousPlastic;stroke-width:1.00000012"
       id="path1009" /><path
       d="m 423.33059,189.87108 q 0,-1.30659 0.68768,-8.52724 0.68768,-7.28942 2.20058,-20.69921 0.20631,-1.85674 0.34384,-3.64471 0.20631,-1.78797 0.34384,-3.50717 0.20631,-2.40688 0.68768,-2.95703 0.55015,-0.55014 1.71921,-0.55014 1.78797,0 3.2321,1.85674 0.48137,0.61891 1.16906,1.7192 0.68768,1.10029 1.85673,2.68195 0.55015,0.75645 0.96276,1.44414 0.48138,0.68768 0.75645,1.16905 0.2063,0.41261 0.34384,0.55015 0.41261,-0.55015 1.03152,-1.44413 0.61891,-0.96276 1.44413,-2.20058 2.95703,-4.60747 3.78225,-5.29515 0.75645,-0.68768 1.85674,-0.68768 1.7192,0 2.33811,1.58167 0.20631,0.55014 0.41261,2.20058 0.27507,1.65043 0.82522,4.53869 0.13753,0.82522 0.27507,1.71921 0.13754,0.89398 0.27507,1.85674 0.96276,5.84529 1.71921,11.2092 0.75644,5.29514 1.51289,10.24645 0.13754,1.03152 0.27508,1.99427 0.13753,0.96276 0.27507,1.65044 0.2063,1.44413 0.27507,1.78797 0.27507,1.10029 0.27507,1.7192 0,0.55015 0,0.89399 0,1.03152 -0.68768,1.7192 -0.68768,0.61891 -1.44413,0.61891 h -0.2063 q -0.41261,0 -0.89399,-0.2063 -0.41261,-0.27508 -0.61891,-0.55015 -0.61891,-0.75645 -1.3066,-4.53869 -0.68768,-3.78225 -1.65043,-10.59029 -0.96275,-6.87681 -1.65043,-11.75935 -0.68769,-4.88254 -1.23783,-7.9771 -0.75645,1.10029 -1.5129,2.26935 -0.75645,1.10029 -1.5129,2.13181 l -1.23782,1.65043 q -1.03153,1.37537 -1.5129,1.85674 -0.41261,0.48138 -1.16906,0.48138 -0.68768,0 -1.5129,-0.68768 -0.82522,-0.75645 -1.65043,-2.33812 -0.20631,-0.41261 -0.68768,-1.16906 -0.41261,-0.75645 -0.89399,-1.58166 -0.48138,-0.82522 -0.96275,-1.5129 -0.48138,-0.68768 -0.82522,-0.89399 -0.0688,1.23783 -0.2063,3.09457 -0.13754,1.78797 -0.34385,4.05732 -0.55014,5.57021 -1.03152,11.14043 -0.48137,5.50145 -1.10029,11.07167 -0.27507,2.68195 -0.96275,3.91978 l 0.13754,0.13754 -0.34384,0.27507 q -0.20631,0.2063 -0.20631,0.27507 l -0.0688,-0.0688 q -0.48137,0.41261 -1.16906,0.41261 h -0.2063 q -0.96275,0 -1.58167,-0.68768 -0.61891,-0.68768 -0.61891,-1.85674 z"
       style="font-style:normal;font-variant:normal;font-weight:normal;font-stretch:normal;font-family:PreciousPlastic;-inkscape-font-specification:PreciousPlastic;stroke-width:1.00000012"
       id="path1011" /><path
       d="m 458.53975,190.14615 q 0,-0.34384 0.0688,-0.89398 0.0688,-0.55015 0.2063,-1.23783 0.27508,-1.58166 1.16906,-6.12036 0.89399,-4.53869 2.40689,-12.03442 1.44413,-7.28942 2.26934,-11.48427 0.89399,-4.26363 1.03153,-4.745 0.27507,-1.16906 1.51289,-2.13182 1.23783,-1.03152 2.47566,-1.03152 0.96275,0 1.51289,0.55015 0.55015,0.55014 1.58167,3.36964 1.03152,2.81949 2.20058,8.1834 0.27507,1.16906 0.55015,2.33812 0.34384,1.16905 0.68768,2.54442 0.82521,3.30087 1.85674,7.28942 1.10029,3.91978 2.33811,8.87108 1.65044,6.60174 1.65044,7.7708 0,0.96275 -0.68768,1.65043 -0.61892,0.68769 -1.58167,0.68769 -1.44413,0 -2.20058,-1.78798 -0.34384,-0.89398 -1.7192,-5.02007 -1.37537,-4.12608 -2.68196,-11.2092 -0.13754,-0.82522 -0.34384,-1.44413 -0.13754,-0.61891 -0.27507,-0.89399 -1.03152,-0.2063 -5.43268,-0.2063 h -0.41261 q -0.13754,0.55015 -0.27508,1.37536 -0.13753,0.82522 -0.4126,2.06305 -0.27508,1.23782 -0.55015,2.47565 -0.27507,1.23782 -0.48138,2.54442 -0.13753,0.89398 -0.4126,2.26935 -0.20631,1.30659 -0.48138,2.68195 -0.20631,1.37536 -0.55015,2.61319 -0.27507,1.23783 -0.61891,1.92551 -0.68768,1.44413 -2.06304,1.44413 -0.96276,0 -1.65044,-0.68768 -0.68768,-0.75645 -0.68768,-1.71921 z m 9.14616,-21.93702 h 1.92551 q 0.55014,0 0.96275,0 0.48138,0 0.82522,0.0688 -0.0688,-0.2063 -0.13754,-0.4126 -0.0688,-0.20631 -0.13753,-0.48138 l -0.0688,-0.34384 q -0.0688,-0.34384 -0.27507,-0.96276 -0.13754,-0.68768 -0.41261,-1.58166 -0.34384,-0.96276 -0.48138,-1.85674 -0.13754,-0.89399 -0.41261,-1.85674 l -0.2063,-0.82522 q -0.13754,0.55015 -0.27507,1.16906 -0.0688,0.61891 -0.20631,1.30659 -0.48138,1.99428 -0.75645,3.43841 -0.2063,1.44413 -0.34384,2.33812 z"
       style="font-style:normal;font-variant:normal;font-weight:normal;font-stretch:normal;font-family:PreciousPlastic;-inkscape-font-specification:PreciousPlastic;stroke-width:1.00000012"
       id="path1013" /><path
       d="m 486.32194,154.59304 q 0,-4.40116 2.40688,-4.40116 0.89399,0 1.71921,0.82522 l 0.82521,0.82522 0.0688,3.91978 q 0.0688,3.30087 0.13754,6.73927 0.0688,3.43841 0.2063,6.73928 0.13754,3.36964 0.13754,6.6705 0.0688,3.30087 0.13753,6.80805 0.0688,2.68195 0.0688,4.19485 0.0688,1.5129 0.0688,1.58167 0,0.61891 -0.0688,1.30659 0,0.61892 -0.27507,1.23783 -0.2063,0.55014 -0.68768,0.96275 -0.48138,0.34384 -1.44413,0.34384 -0.75645,0 -1.37536,-0.48137 -0.55015,-0.55015 -0.82522,-1.3066 -0.20631,-0.68768 -0.34384,-5.50145 -0.0688,-4.81376 -0.34384,-13.27224 l -0.0688,-2.13181 q -0.0688,-1.78797 -0.0688,-3.30087 0,-1.5129 -0.0688,-2.88826 -0.13753,-3.57595 -0.13753,-5.57022 0,-2.06304 -0.0688,-2.40688 z"
       style="font-style:normal;font-variant:normal;font-weight:normal;font-stretch:normal;font-family:PreciousPlastic;-inkscape-font-specification:PreciousPlastic;stroke-width:1.00000012"
       id="path1015" /><path
       d="m 496.08689,190.00862 q 0,-1.23783 0.82522,-1.85674 0.89399,-0.68768 4.745,-1.5129 3.09456,-0.68768 4.745,-3.0258 1.65043,-2.33811 1.65043,-5.29514 0,-1.85674 -0.27507,-3.2321 -0.27507,-1.37536 -0.82522,-2.47565 -0.55014,-1.16906 -1.51289,-2.26935 -0.89399,-1.10029 -2.13182,-2.33812 -1.03152,-1.03152 -1.85673,-1.78797 -0.75645,-0.75645 -1.23783,-1.23783 -1.58167,-1.58166 -2.75072,-3.4384 -1.16906,-1.92551 -1.16906,-4.19486 0,-1.7192 0.75645,-3.4384 0.75645,-1.7192 1.99427,-3.09457 1.23783,-1.44413 2.88826,-2.26934 1.65044,-0.89399 3.36964,-0.89399 2.33812,0 2.33812,2.20058 0,1.10029 -0.41261,1.44413 -0.34384,0.34384 -1.99428,0.96275 -1.78797,0.68769 -2.95703,1.99428 -1.16905,1.23783 -1.16905,3.2321 0,0.48138 0.13753,0.96275 0.13754,0.48138 0.27507,0.82522 0,0.0688 0.61892,0.75645 0.68768,0.68768 1.5129,1.5129 0.82521,0.82522 1.65043,1.58167 0.82522,0.75645 1.10029,1.10029 l 0.89399,0.82521 q 1.03152,0.96276 1.7192,1.65044 0.68768,0.68768 0.89398,1.03152 1.3066,2.33812 2.20058,4.88254 0.96276,2.54442 0.96276,5.84528 0,3.57595 -1.99428,6.87682 -1.92551,3.2321 -5.02007,5.02007 -0.48138,0.2063 -1.5129,0.55014 -1.03152,0.34384 -2.20058,0.68768 -1.10029,0.27508 -2.20058,0.55015 -1.10029,0.2063 -1.7192,0.2063 -2.33812,0 -2.33812,-2.33811 z"
       style="font-style:normal;font-variant:normal;font-weight:normal;font-stretch:normal;font-family:PreciousPlastic;-inkscape-font-specification:PreciousPlastic;stroke-width:1.00000012"
       id="path1017" /></g></g></svg>