<?xml version="1.0" encoding="UTF-8" standalone="no"?>
<svg
   xmlns:dc="http://purl.org/dc/elements/1.1/"
   xmlns:cc="http://creativecommons.org/ns#"
   xmlns:rdf="http://www.w3.org/1999/02/22-rdf-syntax-ns#"
   xmlns:svg="http://www.w3.org/2000/svg"
   xmlns="http://www.w3.org/2000/svg"
   id="svg118"
   xml:space="preserve"
   style="enable-background:new 0 0 1000 365.3;"
   viewBox="0 0 1000 365.3"
   y="0px"
   x="0px"
   version="1.1"><metadata
   id="metadata124"><rdf:RDF><cc:Work
       rdf:about=""><dc:format>image/svg+xml</dc:format><dc:type
         rdf:resource="http://purl.org/dc/dcmitype/StillImage" /><dc:title></dc:title></cc:Work></rdf:RDF></metadata><defs
   id="defs122">
	
	
	
	
	
	
	
	
	
	
	
	
	
	
	
	
	
	
	
	
	
	
	
	
	
	
	
</defs>
<style
   id="style2"
   type="text/css">
	.st0{fill:#95D2EF;}
	.st1{fill:#1E1E1C;}
	.st2{fill:#1E1E1C;stroke:#1E1E1C;stroke-width:0.25;stroke-miterlimit:10;}
	.st3{fill:#1E1E1C;stroke:#1E1E1C;stroke-width:0.15;stroke-miterlimit:10;}
	.st4{fill:#FFFFFF;}
	.st5{stroke:#1E1E1C;stroke-miterlimit:10;}
	.st6{fill:none;stroke:#1E1E1C;stroke-width:3;stroke-linecap:round;stroke-linejoin:round;stroke-miterlimit:10;}
</style>
<g
   style="stroke-width:0.87740415"
   transform="matrix(1.1397256,0,0,1.1397256,-71.194508,-26.717533)"
   id="Calque_2">
</g>

<g
   style="stroke-width:0.87740415"
   transform="matrix(1.1397256,0,0,1.1397256,-71.194508,-26.717533)"
   id="g5005"><path
     style="stroke-width:0.87740415"
     id="path5"
     d="m 237.8,179.3 c -1.9,5.2 -4.5,10.6 -3.6,16.3 1,6.7 6.8,10.3 13.1,11.4 3.1,0.5 6.5,0.3 8.9,-1.9 2.4,-2.2 3,-5.5 3.3,-8.5 0.8,-6.5 0.3,-13.8 -4.6,-18.6 -4.7,-4.6 -13,-4.9 -16.8,0.9 -1.3,2 1.9,3.9 3.2,1.9 2.4,-3.7 7.8,-3.1 10.7,-0.4 4,3.7 4.5,9.3 4,14.4 -0.2,2.3 -0.4,5.2 -1.9,7.1 -1.5,1.9 -4.1,1.9 -6.2,1.5 -4.8,-0.9 -9.4,-3.3 -10,-8.6 -0.6,-4.9 1.9,-9.9 3.6,-14.4 0.8,-2.4 -2.9,-3.4 -3.7,-1.1 z" /><path
     style="stroke-width:0.87740415"
     id="path7"
     d="m 304.5,164.9 c -0.4,3.3 -0.2,6.6 1.1,9.7 1.1,2.5 3,5 5,6.8 4.9,4.2 13.8,7.9 19.3,2.7 4.8,-4.5 4.5,-13 2.3,-18.7 -2.4,-6 -7.4,-11.2 -14,-12.1 -6.9,-0.9 -13.8,4.4 -13.7,11.6 0,2.4 3.8,2.4 3.8,0 0,-2.3 0.8,-4.2 2.5,-5.7 1.5,-1.3 3.5,-2.2 5.5,-2.2 5.3,-0.1 9.7,4 11.9,8.5 2.1,4.3 2.7,10.4 0.2,14.6 -3.1,5.3 -10.5,2 -14.3,-0.7 -2.1,-1.5 -4,-3.8 -5,-6.1 -1.2,-2.6 -1.2,-5.6 -0.8,-8.4 0.1,-1 -0.9,-1.9 -1.9,-1.9 -1.2,0 -1.8,0.9 -1.9,1.9 z" /><path
     style="stroke-width:0.87740415"
     id="path9"
     d="m 236.3,116.9 c -5.2,1.4 -11.2,3.1 -13.6,8.4 -1.3,2.9 -1.4,6.5 0.4,9.2 1.7,2.6 4.6,4 7.6,4.6 3.6,0.8 7.3,0.9 11,0.8 2.1,0 4.2,-0.1 6.3,-0.3 1.8,-0.2 3.6,-0.4 5.2,-1.3 3,-1.6 4.3,-5.4 4.4,-8.7 0.2,-3.1 -0.8,-6.4 -2.6,-8.9 -2,-2.7 -4.7,-4.6 -8,-4.8 -3.4,-0.3 -6.8,0.6 -10.1,0.8 -2.4,0.1 -2.4,3.9 0,3.8 2.7,-0.1 5.3,-0.6 7.9,-0.8 1.9,-0.1 3.7,0 5.3,1.2 3.6,2.8 5.4,9.4 2.4,13.2 -0.8,1 -2.1,1.4 -3.3,1.6 -1.6,0.3 -3.3,0.3 -5,0.4 -3.3,0.1 -6.6,0.1 -9.9,-0.2 -2.2,-0.2 -4.8,-0.7 -6.6,-2.1 -1.9,-1.4 -2.5,-3.7 -1.9,-5.9 1.4,-5 7.2,-6.3 11.6,-7.5 2.2,-0.5 1.2,-4.1 -1.1,-3.5 z" /><path
     style="stroke-width:0.87740415"
     id="path11"
     d="m 133.7,180.1 c -0.7,3.5 -1.3,7.1 -0.9,10.6 0.3,3.1 1.3,6.2 3,8.8 3.1,4.8 9.1,8.9 15,6.9 6.1,-2 7.1,-9 6.3,-14.5 -0.4,-3.2 -1.5,-6.4 -3,-9.3 -1.4,-2.8 -3.4,-5.7 -6,-7.5 -5.1,-3.4 -12.3,-0.6 -14.4,5 -0.8,2.3 2.8,3.2 3.6,1 1.2,-3.3 5.7,-4.8 8.6,-2.9 2,1.3 3.5,3.6 4.6,5.6 1.3,2.3 2.1,4.7 2.7,7.2 0.7,3.6 1.1,9.5 -2.8,11.5 -4,2.1 -8.8,-1.2 -11.1,-4.5 -1.5,-2.2 -2.5,-4.7 -2.8,-7.4 -0.4,-3.2 0.2,-6.5 0.8,-9.6 0.5,-2.2 -3.1,-3.2 -3.6,-0.9 z" /><path
     style="stroke-width:0.87740415"
     id="path13"
     d="m 182.5,187.3 c -4,-0.5 -7.5,-3.5 -9.2,-7.1 -0.8,-1.7 -1.2,-3.8 -0.9,-5.7 0.4,-2.2 2.3,-2.7 4.3,-2.9 4.6,-0.3 9.3,0.9 13.2,3.4 1.9,1.2 3.8,2.7 5.1,4.5 1.1,1.5 2.2,3.5 1.7,5.4 -0.5,2.2 -3.1,2.8 -5.1,2.9 -3,0.2 -6.1,0 -9.1,-0.2 -2.4,-0.2 -2.4,3.6 0,3.8 3.3,0.3 6.7,0.5 10,0.1 2.7,-0.3 5.5,-1.3 7,-3.7 3.4,-5.4 -1.7,-11.5 -5.8,-14.6 -4.8,-3.6 -10.9,-5.6 -16.9,-5.2 -2.8,0.2 -5.9,1 -7.4,3.6 -1.3,2.4 -1.1,5.7 -0.4,8.2 1.8,6.1 7.1,10.6 13.4,11.3 1,0.1 1.9,-0.9 1.9,-1.9 0.1,-1.1 -0.7,-1.8 -1.8,-1.9 z" /><path
     style="stroke-width:0.87740415"
     id="path15"
     d="m 190.2,142.3 c -4.8,3.5 -6.7,10.1 -4,15.5 1.4,2.9 4.1,5.1 6.8,6.7 2.9,1.7 6.1,3.2 9.3,4 3.3,0.8 6.8,0.7 9.8,-0.9 2.8,-1.5 4.5,-4.2 4.7,-7.4 0.4,-6 -4.6,-11.4 -8.8,-15.2 -2.1,-1.9 -4.5,-3.6 -7.4,-4.2 -3.5,-0.8 -7.1,0.1 -10.4,1.5 -0.9,0.4 -1.1,1.8 -0.7,2.6 0.5,1 1.6,1.1 2.6,0.7 2.2,-0.9 4.6,-1.6 7,-1.2 1.9,0.3 3.6,1.2 5.1,2.4 1.6,1.2 3,2.8 4.4,4.3 1.6,1.8 3.2,3.7 4,6.1 0.8,2.2 0.7,4.7 -1.1,6.4 -1.7,1.6 -4.3,2.1 -6.5,1.8 -2.7,-0.3 -5.4,-1.5 -7.8,-2.7 -2.2,-1.1 -4.4,-2.3 -6.1,-4.2 -3.4,-3.6 -3.1,-9.8 1,-12.8 0.8,-0.6 1.2,-1.6 0.7,-2.6 -0.5,-0.9 -1.8,-1.4 -2.6,-0.8 z" /><path
     style="stroke-width:0.87740415"
     id="path17"
     d="m 270.6,203.9 c -1.5,2.3 -1.8,5.1 -0.8,7.6 1.1,2.7 3.2,4.7 5.4,6.4 4.4,3.3 11.3,5.1 16.5,2.8 4.5,-2 5.8,-7.5 4.5,-11.9 -1.6,-5.2 -6.5,-8.3 -11.1,-10.4 -3,-1.3 -6.2,-2.7 -9.4,-0.9 -2.4,1.3 -3.9,4 -5.1,6.4 -1.1,2.2 2.2,4.1 3.2,1.9 0.8,-1.6 1.7,-3.4 3.1,-4.6 1.7,-1.3 3.6,-0.6 5.3,0.1 3.6,1.5 7.7,3.5 9.7,7 1.4,2.5 1.6,6.4 -0.8,8.4 -1.5,1.2 -3.8,1.3 -5.6,1.2 -2.1,-0.1 -4.2,-0.7 -6.1,-1.7 -2.1,-1.1 -4.2,-2.7 -5.5,-4.8 -1.2,-1.9 -1.4,-3.7 -0.1,-5.6 1.3,-2.1 -1.9,-4 -3.2,-1.9 z" /><path
     style="stroke-width:0.87740415"
     id="path19"
     d="m 333,213.3 c -0.8,2.3 -2.3,4.3 -3.3,6.6 -1.2,2.6 -1.7,5.6 -1.3,8.4 0.4,3 1.9,5.7 4.8,6.8 2.9,1 6.1,0.1 8.7,-1.4 5.1,-2.8 8.9,-7.7 10.8,-13.2 1.9,-5.6 1.8,-13.6 -4.6,-16.1 -6.4,-2.6 -12.1,3.4 -14.8,8.5 -1.2,2.1 2.1,4 3.2,1.9 1.2,-2.1 2.7,-4.1 4.6,-5.6 1.3,-1 2.7,-1.9 4.5,-1.6 5.3,0.8 4.9,7.5 3.8,11.3 -1.3,4.3 -4,8.2 -7.7,10.7 -1.8,1.3 -4.2,2.6 -6.5,2.2 -2.2,-0.3 -3,-2.5 -3.1,-4.5 -0.1,-2.4 0.4,-4.6 1.5,-6.7 1.1,-2.1 2.3,-4 3.1,-6.2 0.7,-2.4 -2.9,-3.4 -3.7,-1.1 z" /><path
     style="stroke-width:0.87740415"
     id="path21"
     d="m 557.8,189 c -6,-1.9 -13.5,0.8 -15.5,7.1 -1.9,5.7 1.8,11.9 6.1,15.4 4.7,3.8 11.4,6.4 17.5,5.2 3.1,-0.6 5.6,-2.7 6.4,-5.8 0.8,-2.8 0.5,-6 -0.5,-8.7 -2.4,-6.3 -7.9,-11 -14,-13.2 -2.3,-0.8 -3.2,2.8 -1,3.6 4.2,1.5 8,4.5 10.3,8.4 1.1,1.9 1.8,4 1.9,6.2 0,2.1 -0.4,4.5 -2.5,5.4 -2,0.9 -4.6,0.7 -6.7,0.3 -2.4,-0.5 -4.7,-1.4 -6.8,-2.7 -3.7,-2.3 -7.4,-6.2 -7.4,-10.8 -0.1,-5.7 6.5,-8.3 11.3,-6.8 2.2,0.7 3.2,-2.9 0.9,-3.6 z" /><path
     style="stroke-width:0.87740415"
     id="path23"
     d="m 589.8,195.3 c -1.7,2.5 -2.6,5.3 -3.2,8.2 -0.6,2.8 -0.8,5.6 0.2,8.3 1,2.8 3.1,5 6,5.8 3,0.9 6.3,0.2 9.1,-1.2 4.9,-2.5 8.4,-7.4 9.7,-12.7 1.2,-4.8 1.2,-12.8 -4,-15.4 -6.2,-3.1 -13.8,2 -17.6,6.7 -0.6,0.8 -0.8,1.9 0,2.7 0.7,0.7 2,0.8 2.7,0 2.7,-3.3 7.3,-7 11.8,-6.4 4.3,0.5 4.3,7.1 3.7,10.3 -0.8,4 -2.9,7.9 -6.3,10.4 -3.4,2.5 -9,3.9 -11.4,-0.6 -1.1,-2.1 -0.9,-4.5 -0.4,-6.7 0.6,-2.7 1.3,-5 2.8,-7.3 1.5,-2.3 -1.7,-4.1 -3.1,-2.1 z" /><path
     style="stroke-width:0.87740415"
     id="path25"
     d="m 639.8,189.1 c -2.6,0.5 -5,1.5 -6.9,3.3 -0.7,0.6 -1.2,1.3 -1.9,1.9 -1,0.9 -2.2,1.7 -2.3,3.2 -0.1,1.7 1.2,3.2 2.1,4.5 1,1.3 2,2.6 3.1,3.8 2.2,2.4 4.6,4.4 7.3,6.2 4.7,3.2 13.1,7.9 17.6,2 3.7,-4.8 2.2,-12.6 -0.7,-17.5 -3.8,-6.1 -11.3,-9.6 -18.3,-7.4 -2.3,0.7 -1.3,4.3 1,3.6 4.7,-1.5 9.9,0.4 13,4.2 2.8,3.5 4.2,9 2.8,13.3 -1.9,5.7 -8.9,1.5 -12.2,-0.5 -4.2,-2.6 -8,-6.1 -10.8,-10.2 -0.2,-0.3 -0.5,-0.7 -0.7,-1 -0.1,-0.2 -0.4,-1 -0.5,-0.5 0,-0.3 0.8,-0.7 1.1,-0.9 0.6,-0.5 1.2,-1.2 1.7,-1.7 1.6,-1.6 3.4,-2.3 5.6,-2.7 2.3,-0.4 1.3,-4.1 -1,-3.6 z" /><path
     style="stroke-width:0.87740415"
     id="path27"
     d="m 702.1,189.7 c -2.9,-1.5 -6.3,-1.3 -9.2,0.1 -3,1.5 -5.1,4.2 -6.9,6.9 -1.8,2.8 -3.5,5.9 -4.5,9.2 -0.8,2.9 -1.3,6.8 0.9,9.2 2.3,2.6 6.2,1.4 9.1,0.8 3.2,-0.7 6.3,-1.7 9.2,-3.3 4.9,-2.7 9.7,-7.4 8.3,-13.4 -0.2,-0.8 -0.5,-1.6 -0.8,-2.4 0.2,0.4 -0.2,-0.4 -0.2,-0.4 -0.2,-0.4 0,0.3 0,0 0,-0.7 0,-1.4 -0.2,-2 -0.8,-2.7 -3.7,-3.9 -6.1,-4.8 -0.9,-0.4 -2.1,0.4 -2.3,1.3 -0.3,1.1 0.4,1.9 1.3,2.3 0.9,0.4 1.9,0.8 2.7,1.4 0.1,0.1 0.2,0.2 0.3,0.3 0,0 0.4,0.5 0.2,0.2 0.1,0.1 0.1,0.2 0.2,0.3 0.2,0.4 -0.1,-0.3 0,0.1 0,0.1 0.1,0.3 0.1,0.4 0,0 0,-0.5 0,-0.1 0,0.2 0,0.4 0,0.6 0,0.5 0.1,0.9 0.2,1.4 0.6,1.9 1.6,3.7 0.8,5.7 -0.7,1.9 -2.5,3.4 -4,4.6 -3.9,3 -9.3,4.5 -14.2,5.1 -0.8,0.1 -1.7,0.1 -2.1,-0.7 -0.5,-1 -0.3,-2.4 -0.2,-3.5 0.4,-2.7 1.7,-5.3 3,-7.7 1.4,-2.5 2.9,-5 5.2,-6.8 2,-1.6 4.8,-2.5 7.2,-1.3 2.2,0.8 4.1,-2.4 2,-3.5 z" /><path
     style="stroke-width:0.87740415"
     id="path29"
     d="m 734.3,190.3 c -2.4,1.3 -4.7,3.1 -5.9,5.6 -1.3,2.9 -0.3,5.9 1.1,8.6 2.5,4.8 7,8.5 12.1,10.3 5,1.8 12.2,2.1 15.2,-3.2 3,-5.5 -0.1,-11.4 -4.1,-15.4 -4.5,-4.6 -11.5,-8.8 -18,-6.1 -0.9,0.4 -1.6,1.3 -1.3,2.3 0.2,0.9 1.4,1.7 2.3,1.3 4.4,-1.7 8.9,0.4 12.3,3.3 3.1,2.6 6.9,6.5 6.2,10.9 -0.8,4.8 -6,4.8 -9.8,3.9 -4,-1 -7.6,-3.4 -10.1,-6.7 -1.3,-1.7 -3.1,-4.6 -2.8,-6.8 0.4,-2.2 2.8,-3.8 4.6,-4.8 2.2,-1.1 0.3,-4.4 -1.8,-3.2 z" /><path
     style="stroke-width:0.87740415"
     id="path31"
     d="m 791.2,188.4 c -6.8,0.7 -12.1,5.5 -14.6,11.7 -2,5 -3.8,14.4 2.7,16.9 3.1,1.2 6.5,0.1 9.3,-1.4 3.1,-1.6 5.9,-3.7 8.4,-6 4.6,-4.3 8.9,-10.7 6,-17.1 -0.9,-2 -2.7,-4.2 -4.9,-4.7 -0.9,-0.2 -1.8,0 -2.7,0.1 -1.4,0.3 -2.8,0.4 -4.2,0.5 -2.4,0.1 -2.4,3.9 0,3.8 1.2,-0.1 2.4,-0.2 3.6,-0.3 0.4,-0.1 0.8,-0.1 1.2,-0.2 0.2,0 1.2,-0.2 0.7,-0.1 0.2,0 0.4,0 0.6,0 -0.3,0 -0.1,-0.1 0.1,0 -0.4,-0.3 0.1,0.1 0.3,0.2 0.3,0.2 0.3,0.2 0.6,0.5 4.1,3.6 0.9,9.5 -2,12.7 -1.9,2.1 -4,3.9 -6.3,5.4 -2.1,1.4 -4.4,2.8 -6.9,3.3 -6.1,1 -4.6,-7.2 -3.5,-10.6 1.6,-5.3 5.8,-10.3 11.7,-10.9 1,-0.1 1.9,-0.8 1.9,-1.9 -0.2,-1 -1,-2 -2,-1.9 z" /><path
     style="stroke-width:0.87740415"
     id="path33"
     d="m 818.4,194.2 c -2.6,5.6 -0.3,12.3 3.7,16.6 4.2,4.4 10.6,6.4 16.6,5.1 2.9,-0.6 5.6,-2.3 6.6,-5.2 1,-2.9 0.1,-6.1 -1.3,-8.7 -2.7,-5 -6.6,-10.1 -12,-12.3 -2.1,-0.9 -4.5,-1.2 -6.7,-0.8 -3,0.7 -5.2,2.9 -6.9,5.3 -1.4,2 1.9,3.9 3.2,1.9 1,-1.5 2.4,-3 4.2,-3.5 1.3,-0.3 2.4,-0.2 3.5,0.1 4.2,1.1 7.2,4.6 9.6,8 2.1,3.2 5.6,9.2 0.2,11.2 -4.3,1.6 -9.6,0.4 -13,-2.5 -3.5,-2.9 -6.6,-8.8 -4.5,-13.3 1.1,-2.1 -2.2,-4 -3.2,-1.9 z" /><path
     style="stroke-width:0.87740415"
     id="path35"
     d="m 877.8,188.3 c -6.7,-1.7 -11.2,4.5 -14.4,9.4 -3,4.7 -4.2,11.7 -0.7,16.5 3.7,5.2 10.8,3.9 15.3,0.5 4.4,-3.3 7.4,-8.2 8.2,-13.6 0.4,-3.1 0.3,-6.5 -1.6,-9.1 -1.7,-2.4 -4.3,-3.8 -7.2,-3.7 -2.4,0.1 -2.4,3.9 0,3.8 1.6,-0.1 3,0.5 4,1.9 1.3,1.7 1.4,3.9 1.3,6 -0.3,4 -2.3,7.8 -5.2,10.5 -2.5,2.4 -7.6,5.4 -10.9,2.6 -3.2,-2.7 -2.6,-8.6 -0.8,-11.9 1.2,-2.2 2.8,-4.4 4.5,-6.3 1.7,-1.8 4,-3.5 6.6,-2.8 2.3,0.4 3.3,-3.2 0.9,-3.8 z" /><path
     style="stroke-width:0.87740415"
     id="path37"
     d="m 572,212.4 c 5,1 10.2,1 15.2,-0.2 1,-0.2 1.6,-1.4 1.3,-2.3 -0.3,-1 -1.3,-1.5 -2.3,-1.3 -4.3,1 -8.8,1.1 -13.2,0.2 -1,-0.2 -2,0.3 -2.3,1.3 -0.2,0.9 0.3,2.1 1.3,2.3 z" /><path
     style="stroke-width:0.87740415"
     id="path39"
     d="m 612,196.5 c 3,-0.4 5.9,-0.1 8.8,0.6 3,0.7 6,1.2 9.1,1 2.4,-0.1 2.4,-3.9 0,-3.8 -3,0.2 -5.8,-0.3 -8.8,-1 -3,-0.7 -6.1,-0.9 -9.2,-0.6 -1,0.1 -1.9,0.8 -1.9,1.9 0.1,1 1,2.1 2,1.9 z" /><path
     style="stroke-width:0.87740415"
     id="path41"
     d="m 658.7,212.8 c 3.5,1.5 7.5,1.2 11.2,1.3 2,0 4,0.1 5.9,0.1 2,0 3.9,0 5.7,-0.9 0.9,-0.4 1.1,-1.8 0.7,-2.6 -0.6,-0.9 -1.6,-1.1 -2.6,-0.7 -1.4,0.6 -3.2,0.4 -4.7,0.4 -1.8,0 -3.7,-0.1 -5.5,-0.1 -3.3,-0.1 -6.7,0.2 -9.8,-1.1 -0.9,-0.4 -2.1,0.4 -2.3,1.3 -0.2,1 0.5,1.9 1.4,2.3 z" /><path
     style="stroke-width:0.87740415"
     id="path43"
     d="m 709.5,196.7 c 6.2,-2.1 12.7,-0.5 18.8,1.1 2.3,0.6 3.3,-3 1,-3.6 -6.7,-1.8 -14,-3.5 -20.8,-1.1 -2.3,0.8 -1.3,4.4 1,3.6 z" /><path
     style="stroke-width:0.87740415"
     id="path45"
     d="m 756.1,211.5 c 3.3,0.2 6.6,0.3 9.9,0.2 3.3,-0.1 6.7,-0.4 9.9,-1.4 2.3,-0.7 1.3,-4.3 -1,-3.6 -3,0.9 -6.1,1.2 -9.2,1.3 -3.2,0.1 -6.4,0 -9.6,-0.2 -1,-0.1 -1.9,0.9 -1.9,1.9 0,1 0.9,1.7 1.9,1.8 z" /><path
     style="stroke-width:0.87740415"
     id="path47"
     d="m 802.4,196.5 c 5,-1.2 10.2,-1.2 15.2,0.2 2.3,0.6 3.3,-3 1,-3.6 -5.6,-1.5 -11.5,-1.6 -17.1,-0.2 -2.5,0.6 -1.5,4.2 0.9,3.6 z" /><path
     style="stroke-width:0.87740415"
     id="path49"
     d="m 842.8,213.4 c 3.1,0.4 6.4,-0.1 9.5,-0.8 3.1,-0.6 6.1,-1.4 9,-2.5 0.9,-0.4 1.6,-1.3 1.3,-2.3 -0.2,-0.9 -1.4,-1.7 -2.3,-1.3 -2.8,1.1 -5.8,1.9 -8.8,2.5 -2.8,0.6 -5.8,1 -8.7,0.7 -1,-0.1 -1.9,1 -1.9,1.9 0.1,1.1 0.9,1.7 1.9,1.8 z" /><path
     style="stroke-width:0.87740415"
     id="path115"
     d="m 494.7,195.4 c -0.3,-1.1 -1.3,-1.5 -2.3,-1.9 -2.3,-1 -4.5,-1.9 -6.8,-2.9 -0.7,-0.3 -1.6,-0.1 -1.8,0.7 -0.1,0.5 -0.2,1 -0.3,1.6 0,0 0,0 0,0 -0.3,-0.1 -0.7,-0.1 -1,-0.2 -2.7,-0.5 -5.4,-0.7 -8.2,-0.9 -6.3,-0.4 -12.6,-0.3 -19,0 -12.9,0.7 -25.7,2.3 -38.4,4.2 -5,0.8 -10,1.6 -14.9,2.6 -1.6,0.3 -0.9,2.7 0.7,2.4 9.6,-1.8 19.2,-3.3 28.9,-4.5 12.4,-1.5 25,-2.7 37.5,-2.4 3.1,0.1 6.2,0.2 9.3,0.6 0.7,0.1 2.5,0.2 4.3,0.5 0,0.6 0,1.3 0,1.9 0.1,1 0.1,2.1 0.5,3 0.4,1.2 1.5,1.7 2.8,1.5 1,-0.2 1.9,-0.7 2.8,-1.1 1,-0.4 2,-0.8 3,-1.2 0.8,-0.3 1.6,-0.8 2.2,-1.5 0.6,-0.5 1,-1.5 0.7,-2.4 z m -9,4.2 c 0,0 0,-0.1 0,0 0,-0.1 0,-0.1 0,0 z" /><g
     aria-label="MONOMERES"
     style="font-style:normal;font-weight:normal;font-size:40px;line-height:1.25;font-family:sans-serif;letter-spacing:0px;word-spacing:0px;fill:#000000;fill-opacity:1;stroke:none;stroke-width:0.87740415"
     id="text4692"><path
       d="m 146.00644,263.52894 q 0,-0.76 0.4,-4.96 0.4,-4.24 1.28,-12.04 0.12,-1.08 0.2,-2.12 0.12,-1.04 0.2,-2.04 0.12,-1.4 0.4,-1.72 0.32,-0.32 1,-0.32 1.04,0 1.88,1.08 0.28,0.36 0.68,1 0.4,0.64 1.08,1.56 0.32,0.44 0.56,0.84 0.28,0.4 0.44,0.68 0.12,0.24 0.2,0.32 0.24,-0.32 0.6,-0.84 0.36,-0.56 0.84,-1.28 1.72,-2.68 2.2,-3.08 0.44,-0.4 1.08,-0.4 1,0 1.36,0.92 0.12,0.32 0.24,1.28 0.16,0.96 0.48,2.64 0.08,0.48 0.16,1 0.08,0.52 0.16,1.08 0.56,3.4 1,6.52 0.44,3.08 0.88,5.96 0.08,0.6 0.16,1.16 0.08,0.56 0.16,0.96 0.12,0.84 0.16,1.04 0.16,0.64 0.16,1 0,0.32 0,0.52 0,0.6 -0.4,1 -0.4,0.36 -0.84,0.36 h -0.12 q -0.24,0 -0.52,-0.12 -0.24,-0.16 -0.36,-0.32 -0.36,-0.44 -0.76,-2.64 -0.4,-2.2 -0.96,-6.16 -0.56,-4 -0.96,-6.84 -0.4,-2.84 -0.72,-4.64 -0.44,0.64 -0.88,1.32 -0.44,0.64 -0.88,1.24 l -0.72,0.96 q -0.6,0.8 -0.88,1.08 -0.24,0.28 -0.68,0.28 -0.4,0 -0.88,-0.4 -0.48,-0.44 -0.96,-1.36 -0.12,-0.24 -0.4,-0.68 -0.24,-0.44 -0.52,-0.92 -0.28,-0.48 -0.56,-0.88 -0.28,-0.4 -0.48,-0.52 -0.04,0.72 -0.12,1.8 -0.08,1.04 -0.2,2.36 -0.32,3.24 -0.6,6.48 -0.28,3.2 -0.64,6.44 -0.16,1.56 -0.56,2.28 l 0.08,0.08 -0.2,0.16 q -0.12,0.12 -0.12,0.16 l -0.04,-0.04 q -0.28,0.24 -0.68,0.24 h -0.12 q -0.56,0 -0.92,-0.4 -0.36,-0.4 -0.36,-1.08 z"
       style="font-style:normal;font-variant:normal;font-weight:normal;font-stretch:normal;font-family:PreciousPlastic;-inkscape-font-specification:PreciousPlastic;stroke-width:0.87740415"
       id="path4756" /><path
       d="m 166.64638,245.84894 q 0.12,-1.4 0.56,-2.6 0.48,-1.24 1.24,-2.12 0.8,-0.92 1.92,-1.44 1.16,-0.52 2.64,-0.52 1.76,0 3,0.8 1.24,0.8 2.04,2.04 0.8,1.24 1.2,2.8 0.44,1.52 0.6,2.96 0.08,0.8 0.12,2.08 0.04,1.24 0.08,2.92 0,1.32 -0.08,2.8 -0.04,1.48 -0.32,2.92 -0.28,1.44 -0.88,2.76 -0.6,1.28 -1.64,2.24 -1.56,1.44 -3.76,1.44 -2.04,0 -3.36,-1.16 -1.32,-1.16 -2.08,-2.88 -0.76,-1.72 -1.04,-3.68 -0.28,-1.96 -0.28,-3.56 0,-0.8 -0.08,-1.56 -0.08,-0.76 -0.08,-1.56 0,-1.4 0.04,-2.56 0.08,-1.2 0.16,-2.12 z m 2.68,4.28 q 0,1.04 0.08,2.84 0.08,1.76 0.36,3.56 0.32,1.8 0.84,3.32 0.56,1.48 1.48,1.92 0.32,0.16 1.16,0.16 1.44,0 2.24,-1 0.8,-1 1.2,-2.44 0.4,-1.44 0.48,-3 0.08,-1.6 0.08,-2.72 l -0.08,-0.56 h 0.04 q -0.04,-0.32 -0.08,-0.72 0,-0.44 0,-1 0,-1.04 -0.16,-2.48 -0.12,-1.48 -0.6,-2.84 -0.44,-1.36 -1.28,-2.28 -0.8,-0.96 -2.2,-0.96 -0.72,0 -1.28,0.32 -0.52,0.32 -0.96,0.84 -0.4,0.52 -0.68,1.16 -0.28,0.64 -0.4,1.28 -0.24,1.12 -0.24,4.6 z"
       style="font-style:normal;font-variant:normal;font-weight:normal;font-stretch:normal;font-family:PreciousPlastic;-inkscape-font-specification:PreciousPlastic;stroke-width:0.87740415"
       id="path4758" /><path
       d="m 182.44634,241.96894 q 0.2,-1.68 1.28,-1.68 0.6,0 1.32,0.72 0.44,0.44 1.4,2.52 0.96,2.08 2.44,5.72 l 0.56,1.36 q 0.32,0.72 0.56,1.36 0.28,0.64 0.48,1.2 0.32,0.84 0.52,1.36 0.2,0.48 0.36,0.88 0.16,0.4 0.32,0.76 0.16,0.36 0.36,0.84 -0.04,-1.6 -0.16,-3.16 -0.08,-1.6 -0.2,-3.16 -0.08,-0.56 -0.08,-0.96 0,-0.44 0,-0.64 0,-1.32 -0.08,-2.44 -0.08,-1.16 -0.2,-2.12 -0.08,-0.72 -0.12,-1.36 -0.04,-0.64 -0.04,-1.2 v -0.16 q 0,-0.56 0.36,-1.12 0.4,-0.6 0.88,-0.6 1.12,0 1.44,1.4 0.12,0.56 0.2,2.36 0.12,1.8 0.32,4.92 0.08,1.8 0.2,3.92 0.16,2.12 0.32,4.64 0.08,1.44 0.12,2.64 0.04,1.16 0.04,2 0,0.28 -0.04,0.8 0,0.48 -0.16,0.96 -0.12,0.48 -0.44,0.84 -0.28,0.36 -0.84,0.36 -0.68,0 -1.12,-0.6 -0.4,-0.64 -0.68,-1.2 -0.28,-0.56 -1.04,-2.16 -0.76,-1.6 -1.8,-4.24 -0.8,-2.08 -1.68,-4.16 -0.88,-2.12 -1.76,-4.16 0.08,1.68 0.12,3.36 0.08,1.68 0.16,3.36 0.08,2.88 0.16,4.84 0.12,1.96 0.12,2.88 0,0.44 -0.04,0.76 0,0.28 -0.04,0.48 -0.08,0.44 -0.44,0.6 -0.36,0.16 -0.68,0.16 -0.52,0 -0.92,-0.32 -0.4,-0.36 -0.52,-1.08 -0.04,-0.2 -0.2,-2.68 -0.16,-2.48 -0.32,-7.32 -0.04,-1.04 -0.08,-2 -0.04,-1 -0.08,-1.88 -0.08,-3 -0.2,-4.84 -0.08,-1.84 -0.08,-2.52 z"
       style="font-style:normal;font-variant:normal;font-weight:normal;font-stretch:normal;font-family:PreciousPlastic;-inkscape-font-specification:PreciousPlastic;stroke-width:0.87740415"
       id="path4760" /><path
       d="m 197.64628,245.84894 q 0.12,-1.4 0.56,-2.6 0.48,-1.24 1.24,-2.12 0.8,-0.92 1.92,-1.44 1.16,-0.52 2.64,-0.52 1.76,0 3,0.8 1.24,0.8 2.04,2.04 0.8,1.24 1.2,2.8 0.44,1.52 0.6,2.96 0.08,0.8 0.12,2.08 0.04,1.24 0.08,2.92 0,1.32 -0.08,2.8 -0.04,1.48 -0.32,2.92 -0.28,1.44 -0.88,2.76 -0.6,1.28 -1.64,2.24 -1.56,1.44 -3.76,1.44 -2.04,0 -3.36,-1.16 -1.32,-1.16 -2.08,-2.88 -0.76,-1.72 -1.04,-3.68 -0.28,-1.96 -0.28,-3.56 0,-0.8 -0.08,-1.56 -0.08,-0.76 -0.08,-1.56 0,-1.4 0.04,-2.56 0.08,-1.2 0.16,-2.12 z m 2.68,4.28 q 0,1.04 0.08,2.84 0.08,1.76 0.36,3.56 0.32,1.8 0.84,3.32 0.56,1.48 1.48,1.92 0.32,0.16 1.16,0.16 1.44,0 2.24,-1 0.8,-1 1.2,-2.44 0.4,-1.44 0.48,-3 0.08,-1.6 0.08,-2.72 l -0.08,-0.56 h 0.04 q -0.04,-0.32 -0.08,-0.72 0,-0.44 0,-1 0,-1.04 -0.16,-2.48 -0.12,-1.48 -0.6,-2.84 -0.44,-1.36 -1.28,-2.28 -0.8,-0.96 -2.2,-0.96 -0.72,0 -1.28,0.32 -0.52,0.32 -0.96,0.84 -0.4,0.52 -0.68,1.16 -0.28,0.64 -0.4,1.28 -0.24,1.12 -0.24,4.6 z"
       style="font-style:normal;font-variant:normal;font-weight:normal;font-stretch:normal;font-family:PreciousPlastic;-inkscape-font-specification:PreciousPlastic;stroke-width:0.87740415"
       id="path4762" /><path
       d="m 213.44625,263.52894 q 0,-0.76 0.4,-4.96 0.4,-4.24 1.28,-12.04 0.12,-1.08 0.2,-2.12 0.12,-1.04 0.2,-2.04 0.12,-1.4 0.4,-1.72 0.32,-0.32 1,-0.32 1.04,0 1.88,1.08 0.28,0.36 0.68,1 0.4,0.64 1.08,1.56 0.32,0.44 0.56,0.84 0.28,0.4 0.44,0.68 0.12,0.24 0.2,0.32 0.24,-0.32 0.6,-0.84 0.36,-0.56 0.84,-1.28 1.72,-2.68 2.2,-3.08 0.44,-0.4 1.08,-0.4 1,0 1.36,0.92 0.12,0.32 0.24,1.28 0.16,0.96 0.48,2.64 0.08,0.48 0.16,1 0.08,0.52 0.16,1.08 0.56,3.4 1,6.52 0.44,3.08 0.88,5.96 0.08,0.6 0.16,1.16 0.08,0.56 0.16,0.96 0.12,0.84 0.16,1.04 0.16,0.64 0.16,1 0,0.32 0,0.52 0,0.6 -0.4,1 -0.4,0.36 -0.84,0.36 h -0.12 q -0.24,0 -0.52,-0.12 -0.24,-0.16 -0.36,-0.32 -0.36,-0.44 -0.76,-2.64 -0.4,-2.2 -0.96,-6.16 -0.56,-4 -0.96,-6.84 -0.4,-2.84 -0.72,-4.64 -0.44,0.64 -0.88,1.32 -0.44,0.64 -0.88,1.24 l -0.72,0.96 q -0.6,0.8 -0.88,1.08 -0.24,0.28 -0.68,0.28 -0.4,0 -0.88,-0.4 -0.48,-0.44 -0.96,-1.36 -0.12,-0.24 -0.4,-0.68 -0.24,-0.44 -0.52,-0.92 -0.28,-0.48 -0.56,-0.88 -0.28,-0.4 -0.48,-0.52 -0.04,0.72 -0.12,1.8 -0.08,1.04 -0.2,2.36 -0.32,3.24 -0.6,6.48 -0.28,3.2 -0.64,6.44 -0.16,1.56 -0.56,2.28 l 0.08,0.08 -0.2,0.16 q -0.12,0.12 -0.12,0.16 l -0.04,-0.04 q -0.28,0.24 -0.68,0.24 h -0.12 q -0.56,0 -0.92,-0.4 -0.36,-0.4 -0.36,-1.08 z"
       style="font-style:normal;font-variant:normal;font-weight:normal;font-stretch:normal;font-family:PreciousPlastic;-inkscape-font-specification:PreciousPlastic;stroke-width:0.87740415"
       id="path4764" /><path
       d="m 233.80618,243.92894 q 0,-3.24 0.16,-3.56 0.44,-0.68 1.12,-0.76 0.68,-0.12 1.88,-0.12 h 0.28 q 0.24,-0.04 0.52,-0.04 0.28,0 0.6,0 h 0.64 q 0.44,0 0.88,0.04 0.44,0 0.76,0.16 0.36,0.16 0.56,0.48 0.24,0.32 0.24,0.88 h 0.08 q -0.28,0.48 -0.8,0.76 -0.52,0.28 -1.12,0.4 -0.6,0.12 -1.24,0.16 -0.6,0 -1.12,0 -0.16,0 -0.32,0.04 -0.16,0 -0.32,0 l 0.04,3.96 q 0.04,1.68 0.08,2.88 0.04,1.16 0.04,1.76 v 0.36 q 1.92,0.04 1.92,1.4 0,0.84 -0.6,1.2 -0.56,0.32 -1.24,0.36 v 0.64 q -0.04,0.2 -0.04,0.44 0,0.2 0,0.52 0,0.96 0,2 0.04,1 0.12,2.16 0.04,0.44 0,0.84 0,0.4 0.08,0.64 0.04,0.12 0.04,0.36 0.2,0.04 0.48,0.08 0.32,0 0.76,0 1.84,0 2.4,0.24 0.6,0.24 0.6,1.04 v 0.08 q 0,0.44 -0.6,1.52 l -2.8,-0.04 h -0.36 q -1.08,0 -1.64,0 -0.56,-0.04 -0.88,-0.12 -0.28,-0.08 -0.4,-0.28 -0.12,-0.24 -0.28,-0.6 -0.08,-0.2 -0.16,-1.6 -0.04,-1.4 -0.12,-3.4 -0.04,-2.04 -0.12,-4.4 -0.04,-2.36 -0.08,-4.48 0,-2.16 -0.04,-3.8 0,-1.64 0,-2.2 z"
       style="font-style:normal;font-variant:normal;font-weight:normal;font-stretch:normal;font-family:PreciousPlastic;-inkscape-font-specification:PreciousPlastic;stroke-width:0.87740415"
       id="path4766" /><path
       d="m 243.84616,257.92894 v -3.36 q 0,-0.72 0,-1.28 0.04,-0.6 0.04,-1.04 0.12,-4.08 0.12,-8.56 0.04,-1.52 0.12,-2.56 0.08,-1.08 0.2,-1.68 l -0.2,-0.28 0.32,-0.32 q 0.48,-0.48 1.12,-0.48 0.6,0 1.24,0.24 0.68,0.2 1.32,0.56 0.64,0.36 1.2,0.8 0.56,0.44 0.92,0.84 1.56,1.72 2.08,3.4 0.52,1.68 0.52,3.88 v 0.44 q 0,0.68 -0.32,1.48 -0.28,0.8 -0.76,1.56 -0.48,0.76 -1.08,1.36 -0.6,0.6 -1.2,0.92 l 0.08,0.08 q 0.04,0 0.04,0.04 0,0 0.04,0 l 0.04,0.04 q 1.04,0.8 2,2.52 0.2,0.36 0.6,1.32 0.4,0.96 0.8,2.04 0.4,1.08 0.68,2.08 0.32,0.96 0.32,1.36 0,0.56 -0.44,1.04 -0.4,0.44 -0.96,0.44 h -0.16 q -0.12,0 -0.28,-0.08 -0.12,-0.08 -0.32,-0.16 v 0.04 q -0.04,-0.04 -0.08,-0.08 0,-0.04 -0.04,-0.08 -0.12,-0.04 -0.2,-0.12 l 0.04,-0.08 q -0.56,-0.88 -1.16,-2.88 -0.24,-0.8 -0.56,-1.68 -0.32,-0.92 -0.8,-1.76 -0.44,-0.84 -1.04,-1.52 -0.56,-0.72 -1.32,-1.12 v 0.88 q 0,0.72 -0.04,1.52 0,0.76 0.08,1.56 0.04,0.52 0.04,1.12 0,0.6 0,1.2 v 1.24 q 0,0.56 -0.04,0.96 0,0.4 -0.04,0.6 -0.08,0.44 -0.48,0.64 -0.36,0.16 -0.76,0.16 -0.8,0 -1.08,-0.4 -0.24,-0.44 -0.4,-1.12 -0.04,-0.16 -0.04,-0.44 0,-0.28 0,-0.68 0,-0.84 -0.12,-2.16 -0.04,-0.44 -0.04,-1.04 0,-0.6 0,-1.4 z m 3,-6.68 v 0.36 h 0.08 l 0.16,-0.08 q 0.44,-0.2 0.76,-0.28 0.32,-0.08 0.4,-0.16 0.2,-0.16 0.48,-0.48 0.28,-0.32 0.6,-0.76 0.44,-0.56 0.52,-0.88 0.08,-0.36 0.08,-1.2 0,-2.04 -0.68,-3.44 -0.64,-1.4 -2.32,-2.44 v 0.4 q 0,0.72 -0.04,1.56 0,0.8 0,1.72 0,1.24 -0.04,2.64 0,1.36 0,3.04 z"
       style="font-style:normal;font-variant:normal;font-weight:normal;font-stretch:normal;font-family:PreciousPlastic;-inkscape-font-specification:PreciousPlastic;stroke-width:0.87740415"
       id="path4768" /><path
       d="m 256.48616,243.92894 q 0,-3.24 0.16,-3.56 0.44,-0.68 1.12,-0.76 0.68,-0.12 1.88,-0.12 h 0.28 q 0.24,-0.04 0.52,-0.04 0.28,0 0.6,0 h 0.64 q 0.44,0 0.88,0.04 0.44,0 0.76,0.16 0.36,0.16 0.56,0.48 0.24,0.32 0.24,0.88 h 0.08 q -0.28,0.48 -0.8,0.76 -0.52,0.28 -1.12,0.4 -0.6,0.12 -1.24,0.16 -0.6,0 -1.12,0 -0.16,0 -0.32,0.04 -0.16,0 -0.32,0 l 0.04,3.96 q 0.04,1.68 0.08,2.88 0.04,1.16 0.04,1.76 v 0.36 q 1.92,0.04 1.92,1.4 0,0.84 -0.6,1.2 -0.56,0.32 -1.24,0.36 v 0.64 q -0.04,0.2 -0.04,0.44 0,0.2 0,0.52 0,0.96 0,2 0.04,1 0.12,2.16 0.04,0.44 0,0.84 0,0.4 0.08,0.64 0.04,0.12 0.04,0.36 0.2,0.04 0.48,0.08 0.32,0 0.76,0 1.84,0 2.4,0.24 0.6,0.24 0.6,1.04 v 0.08 q 0,0.44 -0.6,1.52 l -2.8,-0.04 h -0.36 q -1.08,0 -1.64,0 -0.56,-0.04 -0.88,-0.12 -0.28,-0.08 -0.4,-0.28 -0.12,-0.24 -0.28,-0.6 -0.08,-0.2 -0.16,-1.6 -0.04,-1.4 -0.12,-3.4 -0.04,-2.04 -0.12,-4.4 -0.04,-2.36 -0.08,-4.48 0,-2.16 -0.04,-3.8 0,-1.64 0,-2.2 z"
       style="font-style:normal;font-variant:normal;font-weight:normal;font-stretch:normal;font-family:PreciousPlastic;-inkscape-font-specification:PreciousPlastic;stroke-width:0.87740415"
       id="path4770" /><path
       d="m 266.56613,263.60894 q 0,-0.72 0.48,-1.08 0.52,-0.4 2.76,-0.88 1.8,-0.4 2.76,-1.76 0.96,-1.36 0.96,-3.08 0,-1.08 -0.16,-1.88 -0.16,-0.8 -0.48,-1.44 -0.32,-0.68 -0.88,-1.32 -0.52,-0.64 -1.24,-1.36 -0.6,-0.6 -1.08,-1.04 -0.44,-0.44 -0.72,-0.72 -0.92,-0.92 -1.6,-2 -0.68,-1.12 -0.68,-2.44 0,-1 0.44,-2 0.44,-1 1.16,-1.8 0.72,-0.84 1.68,-1.32 0.96,-0.52 1.96,-0.52 1.36,0 1.36,1.28 0,0.64 -0.24,0.84 -0.2,0.2 -1.16,0.56 -1.04,0.4 -1.72,1.16 -0.68,0.72 -0.68,1.88 0,0.28 0.08,0.56 0.08,0.28 0.16,0.48 0,0.04 0.36,0.44 0.4,0.4 0.88,0.88 0.48,0.48 0.96,0.92 0.48,0.44 0.64,0.64 l 0.52,0.48 q 0.6,0.56 1,0.96 0.4,0.4 0.52,0.6 0.76,1.36 1.28,2.84 0.56,1.48 0.56,3.4 0,2.08 -1.16,4 -1.12,1.88 -2.92,2.92 -0.28,0.12 -0.88,0.32 -0.6,0.2 -1.28,0.4 -0.64,0.16 -1.28,0.32 -0.64,0.12 -1,0.12 -1.36,0 -1.36,-1.36 z"
       style="font-style:normal;font-variant:normal;font-weight:normal;font-stretch:normal;font-family:PreciousPlastic;-inkscape-font-specification:PreciousPlastic;stroke-width:0.87740415"
       id="path4772" /></g><path
     style="color:#000000;font-style:normal;font-variant:normal;font-weight:normal;font-stretch:normal;font-size:medium;line-height:normal;font-family:sans-serif;font-variant-ligatures:normal;font-variant-position:normal;font-variant-caps:normal;font-variant-numeric:normal;font-variant-alternates:normal;font-feature-settings:normal;text-indent:0;text-align:start;text-decoration:none;text-decoration-line:none;text-decoration-style:solid;text-decoration-color:#000000;letter-spacing:normal;word-spacing:normal;text-transform:none;writing-mode:lr-tb;direction:ltr;text-orientation:mixed;dominant-baseline:auto;baseline-shift:baseline;text-anchor:start;white-space:normal;shape-padding:0;clip-rule:nonzero;display:inline;overflow:visible;visibility:visible;opacity:1;isolation:auto;mix-blend-mode:normal;color-interpolation:sRGB;color-interpolation-filters:linearRGB;solid-color:#000000;solid-opacity:1;vector-effect:none;fill:#000000;fill-opacity:1;fill-rule:nonzero;stroke:none;stroke-width:1.87238061;stroke-linecap:round;stroke-linejoin:bevel;stroke-miterlimit:4;stroke-dasharray:none;stroke-dashoffset:0;stroke-opacity:1;color-rendering:auto;image-rendering:auto;shape-rendering:auto;text-rendering:auto;enable-background:accumulate"
     d="m 233.68945,233.74609 a 1.0671067,1.0671067 0 0 0 -0.47265,1.99219 l 4.26953,2.52149 a 1.0673689,1.0673689 0 1 0 1.08594,-1.83789 l -4.27149,-2.52149 a 1.0671067,1.0671067 0 0 0 -0.61133,-0.1543 z"
     id="path4694" /><g
     aria-label="Polymerisation"
     style="font-style:normal;font-weight:normal;font-size:40px;line-height:1.25;font-family:sans-serif;letter-spacing:0px;word-spacing:0px;fill:#000000;fill-opacity:1;stroke:none;stroke-width:0.87740415"
     id="text4698"><path
       d="m 374.02956,142.80772 h -0.04 q 0,-0.08 0.04,-0.16 0.04,-0.08 0.04,-0.16 0,-0.08 0,-0.12 0.04,-0.08 0.04,-0.16 h 0.04 q 0.4,-1 1.28,-1.12 h 0.24 q 1.76,0 4.12,1.6 1.6,1.08 2.56,2.92 0.96,1.84 0.96,3.88 0,1.36 -0.44,2.48 -0.4,1.08 -1.12,2 -0.68,0.92 -1.6,1.72 -0.92,0.76 -1.96,1.48 l -0.76,0.52 q -0.08,0.32 -0.08,1.92 v 2.36 l 0.08,4.64 q -0.84,0.88 -1.56,0.88 -0.6,0 -0.96,-0.44 -0.36,-0.44 -0.44,-0.96 -0.04,-0.32 -0.12,-2.36 -0.04,-2.04 -0.04,-5.44 0,-0.8 -0.04,-1.56 0,-0.76 0,-1.44 0,-4.32 -0.12,-5.88 -0.08,-1.8 -0.12,-3.24 -0.04,-1.44 -0.04,-2.48 0,-0.28 0,-0.48 0,-0.2 0.04,-0.4 z m 2.92,2.8 q 0.08,0.8 0.08,1.64 0.04,0.8 0.04,1.6 0,0.36 0,0.68 0,0.32 0.04,0.56 0.12,0.92 0.12,1.72 0,0.8 0,1.36 0,0.56 0,0.76 0,0.2 -0.04,0.48 1.24,-0.8 2.2,-2.04 0.96,-1.28 0.96,-2.72 0,-3.8 -3.44,-5.32 v 0.52 q 0,0.12 0,0.32 0,0.16 0.04,0.44 z"
       style="font-style:normal;font-variant:normal;font-weight:normal;font-stretch:normal;font-family:PreciousPlastic;-inkscape-font-specification:PreciousPlastic;stroke-width:0.87740415"
       id="path4708" /><path
       d="m 385.94955,148.52772 q 0.12,-1.4 0.56,-2.6 0.48,-1.24 1.24,-2.12 0.8,-0.92 1.92,-1.44 1.16,-0.52 2.64,-0.52 1.76,0 3,0.8 1.24,0.8 2.04,2.04 0.8,1.24 1.2,2.8 0.44,1.52 0.6,2.96 0.08,0.8 0.12,2.08 0.04,1.24 0.08,2.92 0,1.32 -0.08,2.8 -0.04,1.48 -0.32,2.92 -0.28,1.44 -0.88,2.76 -0.6,1.28 -1.64,2.24 -1.56,1.44 -3.76,1.44 -2.04,0 -3.36,-1.16 -1.32,-1.16 -2.08,-2.88 -0.76,-1.72 -1.04,-3.68 -0.28,-1.96 -0.28,-3.56 0,-0.8 -0.08,-1.56 -0.08,-0.76 -0.08,-1.56 0,-1.4 0.04,-2.56 0.08,-1.2 0.16,-2.12 z m 2.68,4.28 q 0,1.04 0.08,2.84 0.08,1.76 0.36,3.56 0.32,1.8 0.84,3.32 0.56,1.48 1.48,1.92 0.32,0.16 1.16,0.16 1.44,0 2.24,-1 0.8,-1 1.2,-2.44 0.4,-1.44 0.48,-3 0.08,-1.6 0.08,-2.72 l -0.08,-0.56 h 0.04 q -0.04,-0.32 -0.08,-0.72 0,-0.44 0,-1 0,-1.04 -0.16,-2.48 -0.12,-1.48 -0.6,-2.84 -0.44,-1.36 -1.28,-2.28 -0.8,-0.96 -2.2,-0.96 -0.72,0 -1.28,0.32 -0.52,0.32 -0.96,0.84 -0.4,0.52 -0.68,1.16 -0.28,0.64 -0.4,1.28 -0.24,1.12 -0.24,4.6 z"
       style="font-style:normal;font-variant:normal;font-weight:normal;font-stretch:normal;font-family:PreciousPlastic;-inkscape-font-specification:PreciousPlastic;stroke-width:0.87740415"
       id="path4710" /><path
       d="m 401.70951,153.44772 q 0,-4.88 0.08,-7.44 0.08,-2.56 0.28,-2.76 0.4,-0.4 0.8,-0.4 0.92,0 1.32,1.08 0.08,0.44 0.12,2.48 0.08,2.04 0.12,5.56 0.04,3.12 0.04,5.56 0,2.44 0,4.12 0,2.44 -0.16,3.04 0.56,0 1.08,0.04 0.56,0.04 1.08,0.16 v -0.36 q 1.2,1.2 1.2,1.72 0,0.72 -0.56,1.08 -0.56,0.36 -1.12,0.36 -0.16,0 -0.64,0 -0.44,-0.04 -0.96,-0.08 -0.52,-0.04 -0.96,-0.08 -0.4,-0.04 -0.48,-0.08 -0.8,-0.48 -1.08,-1.84 -0.16,-0.68 -0.16,-12.16 z"
       style="font-style:normal;font-variant:normal;font-weight:normal;font-stretch:normal;font-family:PreciousPlastic;-inkscape-font-specification:PreciousPlastic;stroke-width:0.87740415"
       id="path4712" /><path
       d="m 413.3495,149.36772 q -1.48,-2.16 -2.28,-3.4 -0.8,-1.28 -0.8,-1.52 0,-0.56 0.36,-0.96 0.4,-0.44 0.92,-0.44 0.56,0 1.12,0.56 0.08,0.08 0.72,0.96 0.68,0.84 1.84,2.52 0.44,0.64 0.84,1.2 0.4,0.56 0.68,0.96 l 0.24,0.32 q 0.16,-0.24 0.2,-0.32 0,-0.04 0.04,-0.08 0,-0.24 0.36,-1.24 0.36,-1.04 0.8,-2.16 0.48,-1.16 0.88,-2.12 0.44,-0.96 0.56,-1.08 0.48,-0.48 1.04,-0.48 1.28,0 1.28,1.4 0,0.24 -0.28,1.04 -0.24,0.76 -0.56,1.72 -0.32,0.92 -0.68,1.8 -0.32,0.84 -0.48,1.2 -0.04,0.08 -0.08,0.24 -0.04,0.12 -0.08,0.28 -0.04,0.2 -0.12,0.36 -0.04,0.12 -0.12,0.2 -0.2,0.32 -0.32,0.76 -0.12,0.4 -0.44,1.08 l -0.52,1.04 0.12,2.92 q 0.08,3 0.12,4.72 0.04,1.72 0.04,2.16 0,0.44 0,0.88 0.04,0.4 0.04,0.8 v 1.2 q 0,0.08 0,0.12 0.04,0.04 0.04,0.08 v 0.16 q 0,0.84 -0.28,1.2 -0.24,0.36 -1.12,0.48 -0.2,0 -0.4,-0.08 -0.2,-0.08 -0.28,-0.12 l 0.08,0.08 q -0.16,-0.08 -0.08,-0.08 -0.56,-0.32 -0.68,-0.8 -0.08,-0.28 -0.16,-2.16 -0.04,-1.88 -0.08,-5.12 -0.04,-3.24 -0.08,-5 -0.04,-1.76 -0.04,-1.84 0,-0.08 -0.24,-0.36 -0.24,-0.32 -0.6,-0.88 -0.32,-0.48 -0.72,-1 -0.36,-0.52 -0.8,-1.2 z"
       style="font-style:normal;font-variant:normal;font-weight:normal;font-stretch:normal;font-family:PreciousPlastic;-inkscape-font-specification:PreciousPlastic;stroke-width:0.87740415"
       id="path4714" /><path
       d="m 424.58948,166.20772 q 0,-0.76 0.4,-4.96 0.4,-4.24 1.28,-12.04 0.12,-1.08 0.2,-2.12 0.12,-1.04 0.2,-2.04 0.12,-1.4 0.4,-1.72 0.32,-0.32 1,-0.32 1.04,0 1.88,1.08 0.28,0.36 0.68,1 0.4,0.64 1.08,1.56 0.32,0.44 0.56,0.84 0.28,0.4 0.44,0.68 0.12,0.24 0.2,0.32 0.24,-0.32 0.6,-0.84 0.36,-0.56 0.84,-1.28 1.72,-2.68 2.2,-3.08 0.44,-0.4 1.08,-0.4 1,0 1.36,0.92 0.12,0.32 0.24,1.28 0.16,0.96 0.48,2.64 0.08,0.48 0.16,1 0.08,0.52 0.16,1.08 0.56,3.4 1,6.52 0.44,3.08 0.88,5.96 0.08,0.6 0.16,1.16 0.08,0.56 0.16,0.96 0.12,0.84 0.16,1.04 0.16,0.64 0.16,1 0,0.32 0,0.52 0,0.6 -0.4,1 -0.4,0.36 -0.84,0.36 h -0.12 q -0.24,0 -0.52,-0.12 -0.24,-0.16 -0.36,-0.32 -0.36,-0.44 -0.76,-2.64 -0.4,-2.2 -0.96,-6.16 -0.56,-4 -0.96,-6.84 -0.4,-2.84 -0.72,-4.64 -0.44,0.64 -0.88,1.32 -0.44,0.64 -0.88,1.24 l -0.72,0.96 q -0.6,0.8 -0.88,1.08 -0.24,0.28 -0.68,0.28 -0.4,0 -0.88,-0.4 -0.48,-0.44 -0.96,-1.36 -0.12,-0.24 -0.4,-0.68 -0.24,-0.44 -0.52,-0.92 -0.28,-0.48 -0.56,-0.88 -0.28,-0.4 -0.48,-0.52 -0.04,0.72 -0.12,1.8 -0.08,1.04 -0.2,2.36 -0.32,3.24 -0.6,6.48 -0.28,3.2 -0.64,6.44 -0.16,1.56 -0.56,2.28 l 0.08,0.08 -0.2,0.16 q -0.12,0.12 -0.12,0.16 l -0.04,-0.04 q -0.28,0.24 -0.68,0.24 h -0.12 q -0.56,0 -0.92,-0.4 -0.36,-0.4 -0.36,-1.08 z"
       style="font-style:normal;font-variant:normal;font-weight:normal;font-stretch:normal;font-family:PreciousPlastic;-inkscape-font-specification:PreciousPlastic;stroke-width:0.87740415"
       id="path4716" /><path
       d="m 444.94941,146.60772 q 0,-3.24 0.16,-3.56 0.44,-0.68 1.12,-0.76 0.68,-0.12 1.88,-0.12 h 0.28 q 0.24,-0.04 0.52,-0.04 0.28,0 0.6,0 h 0.64 q 0.44,0 0.88,0.04 0.44,0 0.76,0.16 0.36,0.16 0.56,0.48 0.24,0.32 0.24,0.88 h 0.08 q -0.28,0.48 -0.8,0.76 -0.52,0.28 -1.12,0.4 -0.6,0.12 -1.24,0.16 -0.6,0 -1.12,0 -0.16,0 -0.32,0.04 -0.16,0 -0.32,0 l 0.04,3.96 q 0.04,1.68 0.08,2.88 0.04,1.16 0.04,1.76 v 0.36 q 1.92,0.04 1.92,1.4 0,0.84 -0.6,1.2 -0.56,0.32 -1.24,0.36 v 0.64 q -0.04,0.2 -0.04,0.44 0,0.2 0,0.52 0,0.96 0,2 0.04,1 0.12,2.16 0.04,0.44 0,0.84 0,0.4 0.08,0.64 0.04,0.12 0.04,0.36 0.2,0.04 0.48,0.08 0.32,0 0.76,0 1.84,0 2.4,0.24 0.6,0.24 0.6,1.04 v 0.08 q 0,0.44 -0.6,1.52 l -2.8,-0.04 h -0.36 q -1.08,0 -1.64,0 -0.56,-0.04 -0.88,-0.12 -0.28,-0.08 -0.4,-0.28 -0.12,-0.24 -0.28,-0.6 -0.08,-0.2 -0.16,-1.6 -0.04,-1.4 -0.12,-3.4 -0.04,-2.04 -0.12,-4.4 -0.04,-2.36 -0.08,-4.48 0,-2.16 -0.04,-3.8 0,-1.64 0,-2.2 z"
       style="font-style:normal;font-variant:normal;font-weight:normal;font-stretch:normal;font-family:PreciousPlastic;-inkscape-font-specification:PreciousPlastic;stroke-width:0.87740415"
       id="path4718" /><path
       d="m 454.98939,160.60772 v -3.36 q 0,-0.72 0,-1.28 0.04,-0.6 0.04,-1.04 0.12,-4.08 0.12,-8.56 0.04,-1.52 0.12,-2.56 0.08,-1.08 0.2,-1.68 l -0.2,-0.28 0.32,-0.32 q 0.48,-0.48 1.12,-0.48 0.6,0 1.24,0.24 0.68,0.2 1.32,0.56 0.64,0.36 1.2,0.8 0.56,0.44 0.92,0.84 1.56,1.72 2.08,3.4 0.52,1.68 0.52,3.88 v 0.44 q 0,0.68 -0.32,1.48 -0.28,0.8 -0.76,1.56 -0.48,0.76 -1.08,1.36 -0.6,0.6 -1.2,0.92 l 0.08,0.08 q 0.04,0 0.04,0.04 0,0 0.04,0 l 0.04,0.04 q 1.04,0.8 2,2.52 0.2,0.36 0.6,1.32 0.4,0.96 0.8,2.04 0.4,1.08 0.68,2.08 0.32,0.96 0.32,1.36 0,0.56 -0.44,1.04 -0.4,0.44 -0.96,0.44 h -0.16 q -0.12,0 -0.28,-0.08 -0.12,-0.08 -0.32,-0.16 v 0.04 q -0.04,-0.04 -0.08,-0.08 0,-0.04 -0.04,-0.08 -0.12,-0.04 -0.2,-0.12 l 0.04,-0.08 q -0.56,-0.88 -1.16,-2.88 -0.24,-0.8 -0.56,-1.68 -0.32,-0.92 -0.8,-1.76 -0.44,-0.84 -1.04,-1.52 -0.56,-0.72 -1.32,-1.12 v 0.88 q 0,0.72 -0.04,1.52 0,0.76 0.08,1.56 0.04,0.52 0.04,1.12 0,0.6 0,1.2 v 1.24 q 0,0.56 -0.04,0.96 0,0.4 -0.04,0.6 -0.08,0.44 -0.48,0.64 -0.36,0.16 -0.76,0.16 -0.8,0 -1.08,-0.4 -0.24,-0.44 -0.4,-1.12 -0.04,-0.16 -0.04,-0.44 0,-0.28 0,-0.68 0,-0.84 -0.12,-2.16 -0.04,-0.44 -0.04,-1.04 0,-0.6 0,-1.4 z m 3,-6.68 v 0.36 h 0.08 l 0.16,-0.08 q 0.44,-0.2 0.76,-0.28 0.32,-0.08 0.4,-0.16 0.2,-0.16 0.48,-0.48 0.28,-0.32 0.6,-0.76 0.44,-0.56 0.52,-0.88 0.08,-0.36 0.08,-1.2 0,-2.04 -0.68,-3.44 -0.64,-1.4 -2.32,-2.44 v 0.4 q 0,0.72 -0.04,1.56 0,0.8 0,1.72 0,1.24 -0.04,2.64 0,1.36 0,3.04 z"
       style="font-style:normal;font-variant:normal;font-weight:normal;font-stretch:normal;font-family:PreciousPlastic;-inkscape-font-specification:PreciousPlastic;stroke-width:0.87740415"
       id="path4720" /><path
       d="m 467.66939,145.68772 q 0,-2.56 1.4,-2.56 0.52,0 1,0.48 l 0.48,0.48 0.04,2.28 q 0.04,1.92 0.08,3.92 0.04,2 0.12,3.92 0.08,1.96 0.08,3.88 0.04,1.92 0.08,3.96 0.04,1.56 0.04,2.44 0.04,0.88 0.04,0.92 0,0.36 -0.04,0.76 0,0.36 -0.16,0.72 -0.12,0.32 -0.4,0.56 -0.28,0.2 -0.84,0.2 -0.44,0 -0.8,-0.28 -0.32,-0.32 -0.48,-0.76 -0.12,-0.4 -0.2,-3.2 -0.04,-2.8 -0.2,-7.72 l -0.04,-1.24 q -0.04,-1.04 -0.04,-1.92 0,-0.88 -0.04,-1.68 -0.08,-2.08 -0.08,-3.24 0,-1.2 -0.04,-1.4 z"
       style="font-style:normal;font-variant:normal;font-weight:normal;font-stretch:normal;font-family:PreciousPlastic;-inkscape-font-specification:PreciousPlastic;stroke-width:0.87740415"
       id="path4722" /><path
       d="m 473.34932,166.28772 q 0,-0.72 0.48,-1.08 0.52,-0.4 2.76,-0.88 1.8,-0.4 2.76,-1.76 0.96,-1.36 0.96,-3.08 0,-1.08 -0.16,-1.88 -0.16,-0.8 -0.48,-1.44 -0.32,-0.68 -0.88,-1.32 -0.52,-0.64 -1.24,-1.36 -0.6,-0.6 -1.08,-1.04 -0.44,-0.44 -0.72,-0.72 -0.92,-0.92 -1.6,-2 -0.68,-1.12 -0.68,-2.44 0,-1 0.44,-2 0.44,-1 1.16,-1.8 0.72,-0.84 1.68,-1.32 0.96,-0.52 1.96,-0.52 1.36,0 1.36,1.28 0,0.64 -0.24,0.84 -0.2,0.2 -1.16,0.56 -1.04,0.4 -1.72,1.16 -0.68,0.72 -0.68,1.88 0,0.28 0.08,0.56 0.08,0.28 0.16,0.48 0,0.04 0.36,0.44 0.4,0.4 0.88,0.88 0.48,0.48 0.96,0.92 0.48,0.44 0.64,0.64 l 0.52,0.48 q 0.6,0.56 1,0.96 0.4,0.4 0.52,0.6 0.76,1.36 1.28,2.84 0.56,1.48 0.56,3.4 0,2.08 -1.16,4 -1.12,1.88 -2.92,2.92 -0.28,0.12 -0.88,0.32 -0.6,0.2 -1.28,0.4 -0.64,0.16 -1.28,0.32 -0.64,0.12 -1,0.12 -1.36,0 -1.36,-1.36 z"
       style="font-style:normal;font-variant:normal;font-weight:normal;font-stretch:normal;font-family:PreciousPlastic;-inkscape-font-specification:PreciousPlastic;stroke-width:0.87740415"
       id="path4724" /><path
       d="m 485.70929,166.36772 q 0,-0.2 0.04,-0.52 0.04,-0.32 0.12,-0.72 0.16,-0.92 0.68,-3.56 0.52,-2.64 1.4,-7 0.84,-4.24 1.32,-6.68 0.52,-2.48 0.6,-2.76 0.16,-0.68 0.88,-1.24 0.72,-0.6 1.44,-0.6 0.56,0 0.88,0.32 0.32,0.32 0.92,1.96 0.6,1.64 1.28,4.76 0.16,0.68 0.32,1.36 0.2,0.68 0.4,1.48 0.48,1.92 1.08,4.24 0.64,2.28 1.36,5.16 0.96,3.84 0.96,4.52 0,0.56 -0.4,0.96 -0.36,0.4 -0.92,0.4 -0.84,0 -1.28,-1.04 -0.2,-0.52 -1,-2.92 -0.8,-2.4 -1.56,-6.52 -0.08,-0.48 -0.2,-0.84 -0.08,-0.36 -0.16,-0.52 -0.6,-0.12 -3.16,-0.12 h -0.24 q -0.08,0.32 -0.16,0.8 -0.08,0.48 -0.24,1.2 -0.16,0.72 -0.32,1.44 -0.16,0.72 -0.28,1.48 -0.08,0.52 -0.24,1.32 -0.12,0.76 -0.28,1.56 -0.12,0.8 -0.32,1.52 -0.16,0.72 -0.36,1.12 -0.4,0.84 -1.2,0.84 -0.56,0 -0.96,-0.4 -0.4,-0.44 -0.4,-1 z m 5.32,-12.76 h 1.12 q 0.32,0 0.56,0 0.28,0 0.48,0.04 -0.04,-0.12 -0.08,-0.24 -0.04,-0.12 -0.08,-0.28 l -0.04,-0.2 q -0.04,-0.2 -0.16,-0.56 -0.08,-0.4 -0.24,-0.92 -0.2,-0.56 -0.28,-1.08 -0.08,-0.52 -0.24,-1.08 l -0.12,-0.48 q -0.08,0.32 -0.16,0.68 -0.04,0.36 -0.12,0.76 -0.28,1.16 -0.44,2 -0.12,0.84 -0.2,1.36 z"
       style="font-style:normal;font-variant:normal;font-weight:normal;font-stretch:normal;font-family:PreciousPlastic;-inkscape-font-specification:PreciousPlastic;stroke-width:0.87740415"
       id="path4726" /><path
       d="m 502.06922,144.48772 q 0,-1.04 0.96,-1.28 0.36,-0.08 2.04,-0.04 1.68,0 4.32,-0.24 0.32,-0.04 0.72,-0.04 0.44,0 0.8,0 h 0.8 q 0.76,0 1.36,0.2 0.64,0.2 0.64,1.12 v 0.12 q 0,0.36 -0.28,0.68 -0.28,0.32 -0.64,0.52 -0.16,0.08 -0.64,0.16 -0.44,0.04 -0.96,0.08 -0.52,0 -1,0.04 -0.48,0 -0.72,0 h -0.24 v 10.08 q 0,5.28 -0.12,8.28 -0.08,2.96 -0.28,3.28 -0.12,0.2 -0.36,0.24 -0.24,0.04 -0.64,0.04 -0.24,0 -0.52,0 -0.24,-0.04 -0.44,-0.2 -0.32,-0.36 -0.44,-0.76 -0.12,-0.44 -0.12,-0.96 0,-0.56 0.04,-1.24 0.04,-0.72 0.04,-1.68 0,-1.36 0,-2.64 0.04,-1.32 0.04,-2.64 -0.04,-1.28 -0.04,-2.52 0.04,-1.24 0.04,-2.48 l 0.04,-6.72 h -1.12 q -1,0 -1.64,-0.04 -0.6,-0.04 -0.88,-0.2 -0.76,-0.4 -0.76,-1.16 z"
       style="font-style:normal;font-variant:normal;font-weight:normal;font-stretch:normal;font-family:PreciousPlastic;-inkscape-font-specification:PreciousPlastic;stroke-width:0.87740415"
       id="path4728" /><path
       d="m 516.18921,145.68772 q 0,-2.56 1.4,-2.56 0.52,0 1,0.48 l 0.48,0.48 0.04,2.28 q 0.04,1.92 0.08,3.92 0.04,2 0.12,3.92 0.08,1.96 0.08,3.88 0.04,1.92 0.08,3.96 0.04,1.56 0.04,2.44 0.04,0.88 0.04,0.92 0,0.36 -0.04,0.76 0,0.36 -0.16,0.72 -0.12,0.32 -0.4,0.56 -0.28,0.2 -0.84,0.2 -0.44,0 -0.8,-0.28 -0.32,-0.32 -0.48,-0.76 -0.12,-0.4 -0.2,-3.2 -0.04,-2.8 -0.2,-7.72 l -0.04,-1.24 q -0.04,-1.04 -0.04,-1.92 0,-0.88 -0.04,-1.68 -0.08,-2.08 -0.08,-3.24 0,-1.2 -0.04,-1.4 z"
       style="font-style:normal;font-variant:normal;font-weight:normal;font-stretch:normal;font-family:PreciousPlastic;-inkscape-font-specification:PreciousPlastic;stroke-width:0.87740415"
       id="path4730" /><path
       d="m 522.10914,148.52772 q 0.12,-1.4 0.56,-2.6 0.48,-1.24 1.24,-2.12 0.8,-0.92 1.92,-1.44 1.16,-0.52 2.64,-0.52 1.76,0 3,0.8 1.24,0.8 2.04,2.04 0.8,1.24 1.2,2.8 0.44,1.52 0.6,2.96 0.08,0.8 0.12,2.08 0.04,1.24 0.08,2.92 0,1.32 -0.08,2.8 -0.04,1.48 -0.32,2.92 -0.28,1.44 -0.88,2.76 -0.6,1.28 -1.64,2.24 -1.56,1.44 -3.76,1.44 -2.04,0 -3.36,-1.16 -1.32,-1.16 -2.08,-2.88 -0.76,-1.72 -1.04,-3.68 -0.28,-1.96 -0.28,-3.56 0,-0.8 -0.08,-1.56 -0.08,-0.76 -0.08,-1.56 0,-1.4 0.04,-2.56 0.08,-1.2 0.16,-2.12 z m 2.68,4.28 q 0,1.04 0.08,2.84 0.08,1.76 0.36,3.56 0.32,1.8 0.84,3.32 0.56,1.48 1.48,1.92 0.32,0.16 1.16,0.16 1.44,0 2.24,-1 0.8,-1 1.2,-2.44 0.4,-1.44 0.48,-3 0.08,-1.6 0.08,-2.72 l -0.08,-0.56 h 0.04 q -0.04,-0.32 -0.08,-0.72 0,-0.44 0,-1 0,-1.04 -0.16,-2.48 -0.12,-1.48 -0.6,-2.84 -0.44,-1.36 -1.28,-2.28 -0.8,-0.96 -2.2,-0.96 -0.72,0 -1.28,0.32 -0.52,0.32 -0.96,0.84 -0.4,0.52 -0.68,1.16 -0.28,0.64 -0.4,1.28 -0.24,1.12 -0.24,4.6 z"
       style="font-style:normal;font-variant:normal;font-weight:normal;font-stretch:normal;font-family:PreciousPlastic;-inkscape-font-specification:PreciousPlastic;stroke-width:0.87740415"
       id="path4732" /><path
       d="m 537.90911,144.64772 q 0.2,-1.68 1.28,-1.68 0.6,0 1.32,0.72 0.44,0.44 1.4,2.52 0.96,2.08 2.44,5.72 l 0.56,1.36 q 0.32,0.72 0.56,1.36 0.28,0.64 0.48,1.2 0.32,0.84 0.52,1.36 0.2,0.48 0.36,0.88 0.16,0.4 0.32,0.76 0.16,0.36 0.36,0.84 -0.04,-1.6 -0.16,-3.16 -0.08,-1.6 -0.2,-3.16 -0.08,-0.56 -0.08,-0.96 0,-0.44 0,-0.64 0,-1.32 -0.08,-2.44 -0.08,-1.16 -0.2,-2.12 -0.08,-0.72 -0.12,-1.36 -0.04,-0.64 -0.04,-1.2 v -0.16 q 0,-0.56 0.36,-1.12 0.4,-0.6 0.88,-0.6 1.12,0 1.44,1.4 0.12,0.56 0.2,2.36 0.12,1.8 0.32,4.92 0.08,1.8 0.2,3.92 0.16,2.12 0.32,4.64 0.08,1.44 0.12,2.64 0.04,1.16 0.04,2 0,0.28 -0.04,0.8 0,0.48 -0.16,0.96 -0.12,0.48 -0.44,0.84 -0.28,0.36 -0.84,0.36 -0.68,0 -1.12,-0.6 -0.4,-0.64 -0.68,-1.2 -0.28,-0.56 -1.04,-2.16 -0.76,-1.6 -1.8,-4.24 -0.8,-2.08 -1.68,-4.16 -0.88,-2.12 -1.76,-4.16 0.08,1.68 0.12,3.36 0.08,1.68 0.16,3.36 0.08,2.88 0.16,4.84 0.12,1.96 0.12,2.88 0,0.44 -0.04,0.76 0,0.28 -0.04,0.48 -0.08,0.44 -0.44,0.6 -0.36,0.16 -0.68,0.16 -0.52,0 -0.92,-0.32 -0.4,-0.36 -0.52,-1.08 -0.04,-0.2 -0.2,-2.68 -0.16,-2.48 -0.32,-7.32 -0.04,-1.04 -0.08,-2 -0.04,-1 -0.08,-1.88 -0.08,-3 -0.2,-4.84 -0.08,-1.84 -0.08,-2.52 z"
       style="font-style:normal;font-variant:normal;font-weight:normal;font-stretch:normal;font-family:PreciousPlastic;-inkscape-font-specification:PreciousPlastic;stroke-width:0.87740415"
       id="path4734" /></g><path
     style="color:#000000;font-style:normal;font-variant:normal;font-weight:normal;font-stretch:normal;font-size:medium;line-height:normal;font-family:sans-serif;font-variant-ligatures:normal;font-variant-position:normal;font-variant-caps:normal;font-variant-numeric:normal;font-variant-alternates:normal;font-feature-settings:normal;text-indent:0;text-align:start;text-decoration:none;text-decoration-line:none;text-decoration-style:solid;text-decoration-color:#000000;letter-spacing:normal;word-spacing:normal;text-transform:none;writing-mode:lr-tb;direction:ltr;text-orientation:mixed;dominant-baseline:auto;baseline-shift:baseline;text-anchor:start;white-space:normal;shape-padding:0;clip-rule:nonzero;display:inline;overflow:visible;visibility:visible;opacity:1;isolation:auto;mix-blend-mode:normal;color-interpolation:sRGB;color-interpolation-filters:linearRGB;solid-color:#000000;solid-opacity:1;vector-effect:none;fill:#000000;fill-opacity:1;fill-rule:nonzero;stroke:none;stroke-width:1.87238061;stroke-linecap:round;stroke-linejoin:bevel;stroke-miterlimit:4;stroke-dasharray:none;stroke-dashoffset:0;stroke-opacity:1;color-rendering:auto;image-rendering:auto;shape-rendering:auto;text-rendering:auto;enable-background:accumulate"
     d="m 451.04492,137.83398 a 1.0671067,1.0671067 0 0 0 -0.58008,0.15625 l -4.26953,2.52149 a 1.0671067,1.0671067 0 1 0 1.08399,1.83789 l 4.27148,-2.52149 a 1.0671067,1.0671067 0 0 0 -0.50586,-1.99414 z"
     id="path4700" /><g
     aria-label="POLYMERES"
     style="font-style:normal;font-weight:normal;font-size:40px;line-height:1.25;font-family:sans-serif;letter-spacing:0px;word-spacing:0px;fill:#000000;fill-opacity:1;stroke:none;stroke-width:0.87740415"
     id="text4704"><path
       d="m 717.7098,241.06925 h -0.04 q 0,-0.08 0.04,-0.16 0.04,-0.08 0.04,-0.16 0,-0.08 0,-0.12 0.04,-0.08 0.04,-0.16 h 0.04 q 0.4,-1 1.28,-1.12 h 0.24 q 1.76,0 4.12,1.6 1.6,1.08 2.56,2.92 0.96,1.84 0.96,3.88 0,1.36 -0.44,2.48 -0.4,1.08 -1.12,2 -0.68,0.92 -1.6,1.72 -0.92,0.76 -1.96,1.48 l -0.76,0.52 q -0.08,0.32 -0.08,1.92 v 2.36 l 0.08,4.64 q -0.84,0.88 -1.56,0.88 -0.6,0 -0.96,-0.44 -0.36,-0.44 -0.44,-0.96 -0.04,-0.32 -0.12,-2.36 -0.04,-2.04 -0.04,-5.44 0,-0.8 -0.04,-1.56 0,-0.76 0,-1.44 0,-4.32 -0.12,-5.88 -0.08,-1.8 -0.12,-3.24 -0.04,-1.44 -0.04,-2.48 0,-0.28 0,-0.48 0,-0.2 0.04,-0.4 z m 2.92,2.8 q 0.08,0.8 0.08,1.64 0.04,0.8 0.04,1.6 0,0.36 0,0.68 0,0.32 0.04,0.56 0.12,0.92 0.12,1.72 0,0.8 0,1.36 0,0.56 0,0.76 0,0.2 -0.04,0.48 1.24,-0.8 2.2,-2.04 0.96,-1.28 0.96,-2.72 0,-3.8 -3.44,-5.32 v 0.52 q 0,0.12 0,0.32 0,0.16 0.04,0.44 z"
       style="font-style:normal;font-variant:normal;font-weight:normal;font-stretch:normal;font-family:PreciousPlastic;-inkscape-font-specification:PreciousPlastic;stroke-width:0.87740415"
       id="path4737" /><path
       d="m 729.62979,246.78925 q 0.12,-1.4 0.56,-2.6 0.48,-1.24 1.24,-2.12 0.8,-0.92 1.92,-1.44 1.16,-0.52 2.64,-0.52 1.76,0 3,0.8 1.24,0.8 2.04,2.04 0.8,1.24 1.2,2.8 0.44,1.52 0.6,2.96 0.08,0.8 0.12,2.08 0.04,1.24 0.08,2.92 0,1.32 -0.08,2.8 -0.04,1.48 -0.32,2.92 -0.28,1.44 -0.88,2.76 -0.6,1.28 -1.64,2.24 -1.56,1.44 -3.76,1.44 -2.04,0 -3.36,-1.16 -1.32,-1.16 -2.08,-2.88 -0.76,-1.72 -1.04,-3.68 -0.28,-1.96 -0.28,-3.56 0,-0.8 -0.08,-1.56 -0.08,-0.76 -0.08,-1.56 0,-1.4 0.04,-2.56 0.08,-1.2 0.16,-2.12 z m 2.68,4.28 q 0,1.04 0.08,2.84 0.08,1.76 0.36,3.56 0.32,1.8 0.84,3.32 0.56,1.48 1.48,1.92 0.32,0.16 1.16,0.16 1.44,0 2.24,-1 0.8,-1 1.2,-2.44 0.4,-1.44 0.48,-3 0.08,-1.6 0.08,-2.72 l -0.08,-0.56 h 0.04 q -0.04,-0.32 -0.08,-0.72 0,-0.44 0,-1 0,-1.04 -0.16,-2.48 -0.12,-1.48 -0.6,-2.84 -0.44,-1.36 -1.28,-2.28 -0.8,-0.96 -2.2,-0.96 -0.72,0 -1.28,0.32 -0.52,0.32 -0.96,0.84 -0.4,0.52 -0.68,1.16 -0.28,0.64 -0.4,1.28 -0.24,1.12 -0.24,4.6 z"
       style="font-style:normal;font-variant:normal;font-weight:normal;font-stretch:normal;font-family:PreciousPlastic;-inkscape-font-specification:PreciousPlastic;stroke-width:0.87740415"
       id="path4739" /><path
       d="m 745.38975,251.70925 q 0,-4.88 0.08,-7.44 0.08,-2.56 0.28,-2.76 0.4,-0.4 0.8,-0.4 0.92,0 1.32,1.08 0.08,0.44 0.12,2.48 0.08,2.04 0.12,5.56 0.04,3.12 0.04,5.56 0,2.44 0,4.12 0,2.44 -0.16,3.04 0.56,0 1.08,0.04 0.56,0.04 1.08,0.16 v -0.36 q 1.2,1.2 1.2,1.72 0,0.72 -0.56,1.08 -0.56,0.36 -1.12,0.36 -0.16,0 -0.64,0 -0.44,-0.04 -0.96,-0.08 -0.52,-0.04 -0.96,-0.08 -0.4,-0.04 -0.48,-0.08 -0.8,-0.48 -1.08,-1.84 -0.16,-0.68 -0.16,-12.16 z"
       style="font-style:normal;font-variant:normal;font-weight:normal;font-stretch:normal;font-family:PreciousPlastic;-inkscape-font-specification:PreciousPlastic;stroke-width:0.87740415"
       id="path4741" /><path
       d="m 757.02974,247.62925 q -1.48,-2.16 -2.28,-3.4 -0.8,-1.28 -0.8,-1.52 0,-0.56 0.36,-0.96 0.4,-0.44 0.92,-0.44 0.56,0 1.12,0.56 0.08,0.08 0.72,0.96 0.68,0.84 1.84,2.52 0.44,0.64 0.84,1.2 0.4,0.56 0.68,0.96 l 0.24,0.32 q 0.16,-0.24 0.2,-0.32 0,-0.04 0.04,-0.08 0,-0.24 0.36,-1.24 0.36,-1.04 0.8,-2.16 0.48,-1.16 0.88,-2.12 0.44,-0.96 0.56,-1.08 0.48,-0.48 1.04,-0.48 1.28,0 1.28,1.4 0,0.24 -0.28,1.04 -0.24,0.76 -0.56,1.72 -0.32,0.92 -0.68,1.8 -0.32,0.84 -0.48,1.2 -0.04,0.08 -0.08,0.24 -0.04,0.12 -0.08,0.28 -0.04,0.2 -0.12,0.36 -0.04,0.12 -0.12,0.2 -0.2,0.32 -0.32,0.76 -0.12,0.4 -0.44,1.08 l -0.52,1.04 0.12,2.92 q 0.08,3 0.12,4.72 0.04,1.72 0.04,2.16 0,0.44 0,0.88 0.04,0.4 0.04,0.8 v 1.2 q 0,0.08 0,0.12 0.04,0.04 0.04,0.08 v 0.16 q 0,0.84 -0.28,1.2 -0.24,0.36 -1.12,0.48 -0.2,0 -0.4,-0.08 -0.2,-0.08 -0.28,-0.12 l 0.08,0.08 q -0.16,-0.08 -0.08,-0.08 -0.56,-0.32 -0.68,-0.8 -0.08,-0.28 -0.16,-2.16 -0.04,-1.88 -0.08,-5.12 -0.04,-3.24 -0.08,-5 -0.04,-1.76 -0.04,-1.84 0,-0.08 -0.24,-0.36 -0.24,-0.32 -0.6,-0.88 -0.32,-0.48 -0.72,-1 -0.36,-0.52 -0.8,-1.2 z"
       style="font-style:normal;font-variant:normal;font-weight:normal;font-stretch:normal;font-family:PreciousPlastic;-inkscape-font-specification:PreciousPlastic;stroke-width:0.87740415"
       id="path4743" /><path
       d="m 768.26972,264.46925 q 0,-0.76 0.4,-4.96 0.4,-4.24 1.28,-12.04 0.12,-1.08 0.2,-2.12 0.12,-1.04 0.2,-2.04 0.12,-1.4 0.4,-1.72 0.32,-0.32 1,-0.32 1.04,0 1.88,1.08 0.28,0.36 0.68,1 0.4,0.64 1.08,1.56 0.32,0.44 0.56,0.84 0.28,0.4 0.44,0.68 0.12,0.24 0.2,0.32 0.24,-0.32 0.6,-0.84 0.36,-0.56 0.84,-1.28 1.72,-2.68 2.2,-3.08 0.44,-0.4 1.08,-0.4 1,0 1.36,0.92 0.12,0.32 0.24,1.28 0.16,0.96 0.48,2.64 0.08,0.48 0.16,1 0.08,0.52 0.16,1.08 0.56,3.4 1,6.52 0.44,3.08 0.88,5.96 0.08,0.6 0.16,1.16 0.08,0.56 0.16,0.96 0.12,0.84 0.16,1.04 0.16,0.64 0.16,1 0,0.32 0,0.52 0,0.6 -0.4,1 -0.4,0.36 -0.84,0.36 h -0.12 q -0.24,0 -0.52,-0.12 -0.24,-0.16 -0.36,-0.32 -0.36,-0.44 -0.76,-2.64 -0.4,-2.2 -0.96,-6.16 -0.56,-4 -0.96,-6.84 -0.4,-2.84 -0.72,-4.64 -0.44,0.64 -0.88,1.32 -0.44,0.64 -0.88,1.24 l -0.72,0.96 q -0.6,0.8 -0.88,1.08 -0.24,0.28 -0.68,0.28 -0.4,0 -0.88,-0.4 -0.48,-0.44 -0.96,-1.36 -0.12,-0.24 -0.4,-0.68 -0.24,-0.44 -0.52,-0.92 -0.28,-0.48 -0.56,-0.88 -0.28,-0.4 -0.48,-0.52 -0.04,0.72 -0.12,1.8 -0.08,1.04 -0.2,2.36 -0.32,3.24 -0.6,6.48 -0.28,3.2 -0.64,6.44 -0.16,1.56 -0.56,2.28 l 0.08,0.08 -0.2,0.16 q -0.12,0.12 -0.12,0.16 l -0.04,-0.04 q -0.28,0.24 -0.68,0.24 h -0.12 q -0.56,0 -0.92,-0.4 -0.36,-0.4 -0.36,-1.08 z"
       style="font-style:normal;font-variant:normal;font-weight:normal;font-stretch:normal;font-family:PreciousPlastic;-inkscape-font-specification:PreciousPlastic;stroke-width:0.87740415"
       id="path4745" /><path
       d="m 788.62965,244.86925 q 0,-3.24 0.16,-3.56 0.44,-0.68 1.12,-0.76 0.68,-0.12 1.88,-0.12 h 0.28 q 0.24,-0.04 0.52,-0.04 0.28,0 0.6,0 h 0.64 q 0.44,0 0.88,0.04 0.44,0 0.76,0.16 0.36,0.16 0.56,0.48 0.24,0.32 0.24,0.88 h 0.08 q -0.28,0.48 -0.8,0.76 -0.52,0.28 -1.12,0.4 -0.6,0.12 -1.24,0.16 -0.6,0 -1.12,0 -0.16,0 -0.32,0.04 -0.16,0 -0.32,0 l 0.04,3.96 q 0.04,1.68 0.08,2.88 0.04,1.16 0.04,1.76 v 0.36 q 1.92,0.04 1.92,1.4 0,0.84 -0.6,1.2 -0.56,0.32 -1.24,0.36 v 0.64 q -0.04,0.2 -0.04,0.44 0,0.2 0,0.52 0,0.96 0,2 0.04,1 0.12,2.16 0.04,0.44 0,0.84 0,0.4 0.08,0.64 0.04,0.12 0.04,0.36 0.2,0.04 0.48,0.08 0.32,0 0.76,0 1.84,0 2.4,0.24 0.6,0.24 0.6,1.04 v 0.08 q 0,0.44 -0.6,1.52 l -2.8,-0.04 h -0.36 q -1.08,0 -1.64,0 -0.56,-0.04 -0.88,-0.12 -0.28,-0.08 -0.4,-0.28 -0.12,-0.24 -0.28,-0.6 -0.08,-0.2 -0.16,-1.6 -0.04,-1.4 -0.12,-3.4 -0.04,-2.04 -0.12,-4.4 -0.04,-2.36 -0.08,-4.48 0,-2.16 -0.04,-3.8 0,-1.64 0,-2.2 z"
       style="font-style:normal;font-variant:normal;font-weight:normal;font-stretch:normal;font-family:PreciousPlastic;-inkscape-font-specification:PreciousPlastic;stroke-width:0.87740415"
       id="path4747" /><path
       d="m 798.66963,258.86925 v -3.36 q 0,-0.72 0,-1.28 0.04,-0.6 0.04,-1.04 0.12,-4.08 0.12,-8.56 0.04,-1.52 0.12,-2.56 0.08,-1.08 0.2,-1.68 l -0.2,-0.28 0.32,-0.32 q 0.48,-0.48 1.12,-0.48 0.6,0 1.24,0.24 0.68,0.2 1.32,0.56 0.64,0.36 1.2,0.8 0.56,0.44 0.92,0.84 1.56,1.72 2.08,3.4 0.52,1.68 0.52,3.88 v 0.44 q 0,0.68 -0.32,1.48 -0.28,0.8 -0.76,1.56 -0.48,0.76 -1.08,1.36 -0.6,0.6 -1.2,0.92 l 0.08,0.08 q 0.04,0 0.04,0.04 0,0 0.04,0 l 0.04,0.04 q 1.04,0.8 2,2.52 0.2,0.36 0.6,1.32 0.4,0.96 0.8,2.04 0.4,1.08 0.68,2.08 0.32,0.96 0.32,1.36 0,0.56 -0.44,1.04 -0.4,0.44 -0.96,0.44 h -0.16 q -0.12,0 -0.28,-0.08 -0.12,-0.08 -0.32,-0.16 v 0.04 q -0.04,-0.04 -0.08,-0.08 0,-0.04 -0.04,-0.08 -0.12,-0.04 -0.2,-0.12 l 0.04,-0.08 q -0.56,-0.88 -1.16,-2.88 -0.24,-0.8 -0.56,-1.68 -0.32,-0.92 -0.8,-1.76 -0.44,-0.84 -1.04,-1.52 -0.56,-0.72 -1.32,-1.12 v 0.88 q 0,0.72 -0.04,1.52 0,0.76 0.08,1.56 0.04,0.52 0.04,1.12 0,0.6 0,1.2 v 1.24 q 0,0.56 -0.04,0.96 0,0.4 -0.04,0.6 -0.08,0.44 -0.48,0.64 -0.36,0.16 -0.76,0.16 -0.8,0 -1.08,-0.4 -0.24,-0.44 -0.4,-1.12 -0.04,-0.16 -0.04,-0.44 0,-0.28 0,-0.68 0,-0.84 -0.12,-2.16 -0.04,-0.44 -0.04,-1.04 0,-0.6 0,-1.4 z m 3,-6.68 v 0.36 h 0.08 l 0.16,-0.08 q 0.44,-0.2 0.76,-0.28 0.32,-0.08 0.4,-0.16 0.2,-0.16 0.48,-0.48 0.28,-0.32 0.6,-0.76 0.44,-0.56 0.52,-0.88 0.08,-0.36 0.08,-1.2 0,-2.04 -0.68,-3.44 -0.64,-1.4 -2.32,-2.44 v 0.4 q 0,0.72 -0.04,1.56 0,0.8 0,1.72 0,1.24 -0.04,2.64 0,1.36 0,3.04 z"
       style="font-style:normal;font-variant:normal;font-weight:normal;font-stretch:normal;font-family:PreciousPlastic;-inkscape-font-specification:PreciousPlastic;stroke-width:0.87740415"
       id="path4749" /><path
       d="m 811.30963,244.86925 q 0,-3.24 0.16,-3.56 0.44,-0.68 1.12,-0.76 0.68,-0.12 1.88,-0.12 h 0.28 q 0.24,-0.04 0.52,-0.04 0.28,0 0.6,0 h 0.64 q 0.44,0 0.88,0.04 0.44,0 0.76,0.16 0.36,0.16 0.56,0.48 0.24,0.32 0.24,0.88 h 0.08 q -0.28,0.48 -0.8,0.76 -0.52,0.28 -1.12,0.4 -0.6,0.12 -1.24,0.16 -0.6,0 -1.12,0 -0.16,0 -0.32,0.04 -0.16,0 -0.32,0 l 0.04,3.96 q 0.04,1.68 0.08,2.88 0.04,1.16 0.04,1.76 v 0.36 q 1.92,0.04 1.92,1.4 0,0.84 -0.6,1.2 -0.56,0.32 -1.24,0.36 v 0.64 q -0.04,0.2 -0.04,0.44 0,0.2 0,0.52 0,0.96 0,2 0.04,1 0.12,2.16 0.04,0.44 0,0.84 0,0.4 0.08,0.64 0.04,0.12 0.04,0.36 0.2,0.04 0.48,0.08 0.32,0 0.76,0 1.84,0 2.4,0.24 0.6,0.24 0.6,1.04 v 0.08 q 0,0.44 -0.6,1.52 l -2.8,-0.04 h -0.36 q -1.08,0 -1.64,0 -0.56,-0.04 -0.88,-0.12 -0.28,-0.08 -0.4,-0.28 -0.12,-0.24 -0.28,-0.6 -0.08,-0.2 -0.16,-1.6 -0.04,-1.4 -0.12,-3.4 -0.04,-2.04 -0.12,-4.4 -0.04,-2.36 -0.08,-4.48 0,-2.16 -0.04,-3.8 0,-1.64 0,-2.2 z"
       style="font-style:normal;font-variant:normal;font-weight:normal;font-stretch:normal;font-family:PreciousPlastic;-inkscape-font-specification:PreciousPlastic;stroke-width:0.87740415"
       id="path4751" /></g><path
     style="color:#000000;font-style:normal;font-variant:normal;font-weight:normal;font-stretch:normal;font-size:medium;line-height:normal;font-family:sans-serif;font-variant-ligatures:normal;font-variant-position:normal;font-variant-caps:normal;font-variant-numeric:normal;font-variant-alternates:normal;font-feature-settings:normal;text-indent:0;text-align:start;text-decoration:none;text-decoration-line:none;text-decoration-style:solid;text-decoration-color:#000000;letter-spacing:normal;word-spacing:normal;text-transform:none;writing-mode:lr-tb;direction:ltr;text-orientation:mixed;dominant-baseline:auto;baseline-shift:baseline;text-anchor:start;white-space:normal;shape-padding:0;clip-rule:nonzero;display:inline;overflow:visible;visibility:visible;opacity:1;isolation:auto;mix-blend-mode:normal;color-interpolation:sRGB;color-interpolation-filters:linearRGB;solid-color:#000000;solid-opacity:1;vector-effect:none;fill:#000000;fill-opacity:1;fill-rule:nonzero;stroke:none;stroke-width:1.87238061;stroke-linecap:round;stroke-linejoin:bevel;stroke-miterlimit:4;stroke-dasharray:none;stroke-dashoffset:0;stroke-opacity:1;color-rendering:auto;image-rendering:auto;shape-rendering:auto;text-rendering:auto;enable-background:accumulate"
     d="m 788.57468,234.68555 a 1.0671067,1.0671067 0 0 0 -0.58008,1.99414 l 4.26953,2.51953 a 1.0671067,1.0671067 0 1 0 1.08594,-1.83594 l -4.27149,-2.52148 a 1.0671067,1.0671067 0 0 0 -0.5039,-0.15625 z"
     id="path4706" /></g></svg>